"","X","species","ED","PEXT","PEXT.ED","Psurvival","EDloss","propEDloss"
"1",1,"Acanthastrea_bowerbanki",5.675922217,0.1,5.1083299953,0.9,0.5675922217,0.1
"2",2,"Acanthastrea_brevis",5.595578123,0.1,5.0360203107,0.9,0.5595578123,0.0999999999999999
"3",3,"Acanthastrea_echinata",5.602724462,1e-04,5.6021641895538,0.9999,0.000560272446199939,9.9999999999989e-05
"4",4,"Acanthastrea_faviaformis",5.618846868,0.1,5.0569621812,0.9,0.5618846868,0.1
"5",5,"Acanthastrea_hemprichii",5.580516689,0.1,5.0224650201,0.9,0.5580516689,0.1
"6",6,"Acanthastrea_hillae",15.59456724,0.01,15.4386215676,0.99,0.1559456724,0.00999999999999998
"7",7,"Acanthastrea_ishigakiensis",5.637485867,0.1,5.0737372803,0.9,0.5637485867,0.1
"8",8,"Acanthastrea_lordhowensis",5.592380678,0.01,5.53645687122,0.99,0.0559238067800001,0.01
"9",9,"Acanthastrea_maxima",5.625221386,0.01,5.56896917214,0.99,0.0562522138599997,0.00999999999999994
"10",10,"Acanthastrea_regularis",5.690347524,0.1,5.1213127716,0.9,0.569034752399999,0.0999999999999999
"11",11,"Acanthastrea_rotundoflora",5.654704103,0.01,5.59815706197,0.99,0.05654704103,0.00999999999999999
"12",12,"Acanthastrea_subechinata",5.627209921,0.01,5.57093782179,0.99,0.0562720992100001,0.01
"13",13,"Acropora_abrolhosensis",3.663131113,0.1,3.2968180017,0.9,0.3663131113,0.0999999999999999
"14",14,"Acropora_abrotanoides",3.898867883,1e-04,3.8984779962117,0.9999,0.000389886788299876,9.99999999999681e-05
"15",15,"Acropora_aculeus",3.655369763,0.1,3.2898327867,0.9,0.3655369763,0.1
"16",16,"Acropora_acuminata",2.608930388,0.1,2.3480373492,0.9,0.2608930388,0.1
"17",17,"Acropora_akajimensis",3.636543809,0.1,3.2728894281,0.9,0.3636543809,0.1
"18",18,"Acropora_anthocercis",2.60121252,0.1,2.341091268,0.9,0.260121252,0.0999999999999999
"19",19,"Acropora_appressa",3.66263372,0.01,3.6260073828,0.99,0.0366263372,0.00999999999999999
"20",20,"Acropora_arabensis",3.756410604,0.01,3.71884649796,0.99,0.03756410604,0.01
"21",21,"Acropora_aspera",5.460718409,0.1,4.9146465681,0.9,0.5460718409,0.1
"22",22,"Acropora_austera",3.616983276,0.01,3.58081344324,0.99,0.0361698327600002,0.0100000000000001
"23",23,"Acropora_awi",3.672050033,0.1,3.3048450297,0.9,0.3672050033,0.1
"24",24,"Acropora_batunai",3.761784766,0.1,3.3856062894,0.9,0.3761784766,0.1
"25",25,"Acropora_bifurcata",3.88847972,0.1,3.499631748,0.9,0.388847972,0.0999999999999999
"26",26,"Acropora_branchi",3.673047138,0.1,3.3057424242,0.9,0.3673047138,0.1
"27",27,"Acropora_bushyensis",3.389764274,1e-04,3.3894252975726,0.9999,0.000338976427399995,9.99999999999986e-05
"28",28,"Acropora_cardenae",3.621185617,0.1,3.2590670553,0.9,0.3621185617,0.1
"29",29,"Acropora_carduus",2.96948673,0.01,2.9397918627,0.99,0.0296948672999999,0.00999999999999998
"30",30,"Acropora_caroliniana",3.814481825,0.1,3.4330336425,0.9,0.3814481825,0.0999999999999999
"31",31,"Acropora_cerealis",3.840870299,1e-04,3.8404862119701,0.9999,0.000384087029900115,0.00010000000000003
"32",32,"Acropora_cervicornis",3.443796386,0.999,0.003443796386,0.001,3.440352589614,0.999
"33",33,"Acropora_chesterfieldensis",4.046168031,1e-04,4.0457634141969,0.9999,0.000404616803099778,9.99999999999451e-05
"34",34,"Acropora_clathrata",2.377706527,1e-04,2.3774687563473,0.9999,0.000237770652700142,0.00010000000000006
"35",35,"Acropora_convexa",3.609852466,0.1,3.2488672194,0.9,0.3609852466,0.1
"36",36,"Acropora_cophodactyla",4.415663445,0.1,3.9740971005,0.9,0.4415663445,0.1
"37",37,"Acropora_copiosa",3.735398019,0.1,3.3618582171,0.9,0.3735398019,0.1
"38",38,"Acropora_cytherea",3.549483579,1e-04,3.5491286306421,0.9999,0.000354948357899953,9.99999999999869e-05
"39",39,"Acropora_dendrum",2.598265244,0.1,2.3384387196,0.9,0.2598265244,0.0999999999999999
"40",40,"Acropora_derawanensis",3.865910738,0.1,3.4793196642,0.9,0.3865910738,0.1
"41",41,"Acropora_desalwii",3.538628586,0.1,3.1847657274,0.9,0.3538628586,0.1
"42",42,"Acropora_digitifera",3.863562221,0.01,3.82492659879,0.99,0.0386356222100002,0.01
"43",43,"Acropora_divaricata",3.754256318,0.01,3.71671375482,0.99,0.0375425631800002,0.01
"44",44,"Acropora_donei",3.636543809,0.1,3.2728894281,0.9,0.3636543809,0.1
"45",45,"Acropora_downingi",2.416347521,1e-04,2.4161058862479,0.9999,0.000241634752100151,0.000100000000000062
"46",46,"Acropora_echinata",3.686793934,0.1,3.3181145406,0.9,0.3686793934,0.1
"47",47,"Acropora_efflorescens",3.559059561,0.1,3.2031536049,0.9,0.3559059561,0.1
"48",48,"Acropora_elegans",2.607302908,0.1,2.3465726172,0.9,0.2607302908,0.0999999999999999
"49",49,"Acropora_elegantula",3.70337815,0.1,3.333040335,0.9,0.370337815,0.1
"50",50,"Acropora_elseyi",3.755258265,1e-04,3.7548827391735,0.9999,0.000375525826500134,0.000100000000000036
"51",51,"Acropora_exquisita",3.757384275,0.1,3.3816458475,0.9,0.3757384275,0.1
"52",52,"Acropora_fastigata",3.59113,0.1,3.232017,0.9,0.359113,0.0999999999999999
"53",53,"Acropora_fenneri",3.683216151,0.1,3.3148945359,0.9,0.3683216151,0.0999999999999999
"54",54,"Acropora_filiformis",3.638782461,0.1,3.2749042149,0.9,0.3638782461,0.1
"55",55,"Acropora_florida",3.984055368,0.01,3.94421481432,0.99,0.0398405536799999,0.00999999999999999
"56",56,"Acropora_forskali",3.554527257,0.1,3.1990745313,0.9,0.3554527257,0.0999999999999999
"57",57,"Acropora_gemmifera",3.692452908,1e-04,3.6920836627092,0.9999,0.00036924529080018,0.000100000000000049
"58",58,"Acropora_glauca",3.545332415,0.01,3.50987909085,0.99,0.0354533241500001,0.01
"59",59,"Acropora_globiceps",3.814250951,0.1,3.4328258559,0.9,0.3814250951,0.1
"60",60,"Acropora_gomezi",3.745612249,0.1,3.3710510241,0.9,0.3745612249,0.1
"61",61,"Acropora_grandis",2.807916179,1e-04,2.8076353873821,0.9999,0.000280791617900178,0.000100000000000063
"62",62,"Acropora_granulosa",2.96948673,0.01,2.9397918627,0.99,0.0296948672999999,0.00999999999999998
"63",63,"Acropora_haimei",3.562893633,0.1,3.2066042697,0.9,0.3562893633,0.0999999999999999
"64",64,"Acropora_halmaherae",3.623828175,0.1,3.2614453575,0.9,0.3623828175,0.1
"65",65,"Acropora_hemprichii",3.856732022,0.1,3.4710588198,0.9,0.3856732022,0.1
"66",66,"Acropora_hoeksemai",3.87394685,0.1,3.486552165,0.9,0.387394685,0.1
"67",67,"Acropora_horrida",3.57228809,0.1,3.215059281,0.9,0.357228809,0.1
"68",68,"Acropora_humilis",3.814250951,0.01,3.77610844149,0.99,0.0381425095100001,0.01
"69",69,"Acropora_hyacinthus",3.354312694,0.01,3.32076956706,0.99,0.0335431269400002,0.0100000000000001
"70",70,"Acropora_indonesia",3.027693093,0.1,2.7249237837,0.9,0.3027693093,0.1
"71",71,"Acropora_inermis",3.63393942,0.1,3.270545478,0.9,0.363393942,0.1
"72",72,"Acropora_insignis",3.58494067,0.1,3.226446603,0.9,0.358494067,0.1
"73",74,"Acropora_irregularis",2.738880261,0.1,2.4649922349,0.9,0.2738880261,0.1
"74",75,"Acropora_jacquelineae",3.708494383,0.1,3.3376449447,0.9,0.3708494383,0.1
"75",76,"Acropora_japonica",3.646503999,0.1,3.2818535991,0.9,0.3646503999,0.1
"76",77,"Acropora_khayranensis",3.786035687,0.1,3.4074321183,0.9,0.3786035687,0.1
"77",78,"Acropora_kimbeensis",3.699045525,0.1,3.3291409725,0.9,0.3699045525,0.1
"78",79,"Acropora_kirstyae",3.804330654,0.1,3.4238975886,0.9,0.3804330654,0.1
"79",80,"Acropora_kosurini",3.827922556,0.1,3.4451303004,0.9,0.3827922556,0.1
"80",81,"Acropora_lamarcki",3.647340833,0.1,3.2826067497,0.9,0.3647340833,0.1
"81",82,"Acropora_latistella",3.669899901,1e-04,3.6695329110099,0.9999,0.000366989990099764,9.99999999999357e-05
"82",83,"Acropora_lianae",3.560206794,0.1,3.2041861146,0.9,0.3560206794,0.1
"83",84,"Acropora_listeri",2.644015856,0.1,2.3796142704,0.9,0.2644015856,0.1
"84",85,"Acropora_loisetteae",5.602749413,0.1,5.0424744717,0.9,0.560274941299999,0.0999999999999999
"85",86,"Acropora_lokani",4.097867236,0.1,3.6880805124,0.9,0.4097867236,0.1
"86",87,"Acropora_longicyathus",3.907871186,1e-04,3.9074803988814,0.9999,0.000390787118599967,9.99999999999915e-05
"87",88,"Acropora_loripes",3.659642507,0.01,3.62304608193,0.99,0.0365964250699999,0.00999999999999998
"88",89,"Acropora_lovelli",3.608574379,0.1,3.2477169411,0.9,0.3608574379,0.1
"89",90,"Acropora_lutkeni",3.415326039,0.01,3.38117277861,0.99,0.0341532603900001,0.01
"90",91,"Acropora_macrostoma",3.673617854,0.1,3.3062560686,0.9,0.3673617854,0.1
"91",92,"Acropora_maryae",3.660174081,0.1,3.2941566729,0.9,0.3660174081,0.1
"92",93,"Acropora_massawensis",2.644015856,0.1,2.3796142704,0.9,0.2644015856,0.1
"93",94,"Acropora_microclados",3.027693093,0.1,2.7249237837,0.9,0.3027693093,0.1
"94",95,"Acropora_microphthalma",4.973764151,1e-04,4.9732667745849,0.9999,0.00049737641510017,0.000100000000000034
"95",96,"Acropora_millepora",3.408306021,0.01,3.37422296079,0.99,0.03408306021,0.00999999999999999
"96",97,"Acropora_minuta",3.650312251,0.1,3.2852810259,0.9,0.3650312251,0.1
"97",98,"Acropora_mirabilis",3.684134072,0.1,3.3157206648,0.9,0.3684134072,0.1
"98",99,"Acropora_monticulosa",3.843628964,0.01,3.80519267436,0.99,0.0384362896399999,0.00999999999999997
"99",100,"Acropora_multiacuta",3.833765849,0.1,3.4503892641,0.9,0.3833765849,0.1
"100",102,"Acropora_nana",3.634169986,0.01,3.59782828614,0.99,0.0363416998599999,0.00999999999999998
"101",103,"Acropora_nasuta",3.195409356,0.01,3.16345526244,0.99,0.03195409356,0.01
"102",104,"Acropora_natalensis",2.251661789,0.1,2.0264956101,0.9,0.2251661789,0.1
"103",105,"Acropora_navini",3.679671977,0.1,3.3117047793,0.9,0.3679671977,0.1
"104",106,"Acropora_ocellata",3.415326039,0.1,3.0737934351,0.9,0.3415326039,0.0999999999999999
"105",107,"Acropora_orbicularis",2.368831489,0.1,2.1319483401,0.9,0.2368831489,0.1
"106",108,"Acropora_pagoensis",3.514653073,0.1,3.1631877657,0.9,0.3514653073,0.1
"107",109,"Acropora_palmata",3.443796386,0.999,0.003443796386,0.001,3.440352589614,0.999
"108",110,"Acropora_palmerae",2.742471579,0.1,2.4682244211,0.9,0.2742471579,0.1
"109",111,"Acropora_paniculata",3.355757476,0.1,3.0201817284,0.9,0.3355757476,0.1
"110",112,"Acropora_papillare",4.420365368,0.1,3.9783288312,0.9,0.4420365368,0.1
"111",113,"Acropora_paragemmifera",3.604370088,0.1,3.2439330792,0.9,0.3604370088,0.1
"112",114,"Acropora_parahemprichii",3.546492646,0.1,3.1918433814,0.9,0.3546492646,0.1
"113",115,"Acropora_parapharaonis",3.590730134,0.1,3.2316571206,0.9,0.3590730134,0.0999999999999999
"114",116,"Acropora_parilis",3.730336256,0.1,3.3573026304,0.9,0.3730336256,0.0999999999999999
"115",117,"Acropora_pectinatus",3.640224673,0.1,3.2762022057,0.9,0.3640224673,0.1
"116",118,"Acropora_pharaonis",3.722695788,0.1,3.3504262092,0.9,0.3722695788,0.1
"117",119,"Acropora_pichoni",3.827254428,0.01,3.78898188372,0.99,0.0382725442799998,0.00999999999999995
"118",120,"Acropora_pinguis",3.679197259,0.1,3.3112775331,0.9,0.3679197259,0.0999999999999999
"119",121,"Acropora_plana",3.656611135,0.1,3.2909500215,0.9,0.3656611135,0.1
"120",122,"Acropora_plantaginea",3.4860315,0.1,3.13742835,0.9,0.34860315,0.0999999999999999
"121",123,"Acropora_plumosa",3.587273168,0.1,3.2285458512,0.9,0.3587273168,0.1
"122",124,"Acropora_polystoma",2.416347521,0.1,2.1747127689,0.9,0.2416347521,0.1
"123",125,"Acropora_prostrata",3.611561887,0.1,3.2504056983,0.9,0.3611561887,0.1
"124",126,"Acropora_proximalis",3.579429347,0.1,3.2214864123,0.9,0.3579429347,0.1
"125",127,"Acropora_pruinosa",3.69951315,0.1,3.329561835,0.9,0.369951315,0.0999999999999999
"126",128,"Acropora_pulchra",5.460718409,1e-04,5.4601723371591,0.9999,0.000546071840900275,0.00010000000000005
"127",129,"Acropora_rambleri",3.764666059,0.1,3.3881994531,0.9,0.3764666059,0.1
"128",130,"Acropora_retusa",3.751615185,0.1,3.3764536665,0.9,0.3751615185,0.1
"129",131,"Acropora_ridzwani",3.72530673,0.1,3.352776057,0.9,0.372530673,0.1
"130",132,"Acropora_robusta",3.856876891,1e-04,3.8564912033109,0.9999,0.000385687689099967,9.99999999999915e-05
"131",133,"Acropora_rongelapensis",7.251719808,0.1,6.5265478272,0.9,0.7251719808,0.1
"132",134,"Acropora_rosaria",3.617058921,0.1,3.2553530289,0.9,0.3617058921,0.1
"133",135,"Acropora_roseni",3.808470993,0.667,1.268220840669,0.333,2.540250152331,0.667
"134",136,"Acropora_rudis",3.752850959,0.667,1.249699369347,0.333,2.503151589653,0.667
"135",137,"Acropora_rufus",3.649958491,0.1,3.2849626419,0.9,0.3649958491,0.1
"136",138,"Acropora_russelli",3.632017065,0.1,3.2688153585,0.9,0.3632017065,0.1
"137",139,"Acropora_samoensis",3.730772565,1e-04,3.7303994877435,0.9999,0.000373077256500043,0.000100000000000011
"138",140,"Acropora_sarmentosa",3.722393929,1e-04,3.7220216896071,0.9999,0.000372239392899765,9.99999999999368e-05
"139",141,"Acropora_scherzeriana",3.692452908,0.1,3.3232076172,0.9,0.3692452908,0.1
"140",142,"Acropora_schmitti",3.817370273,0.1,3.4356332457,0.9,0.3817370273,0.1
"141",143,"Acropora_secale",3.986948675,0.01,3.94707918825,0.99,0.0398694867500002,0.0100000000000001
"142",144,"Acropora_sekiseiensis",3.598563608,0.1,3.2387072472,0.9,0.3598563608,0.1
"143",145,"Acropora_selago",3.408306021,0.01,3.37422296079,0.99,0.03408306021,0.00999999999999999
"144",146,"Acropora_seriata",3.557495555,0.1,3.2017459995,0.9,0.3557495555,0.1
"145",147,"Acropora_simplex",6.034808399,0.1,5.4313275591,0.9,0.6034808399,0.0999999999999999
"146",148,"Acropora_solitaryensis",2.251661789,0.1,2.0264956101,0.9,0.2251661789,0.1
"147",149,"Acropora_spathulata",3.670952551,1e-04,3.6705854557449,0.9999,0.000367095255100036,0.00010000000000001
"148",150,"Acropora_speciosa",3.682859675,0.1,3.3145737075,0.9,0.3682859675,0.1
"149",151,"Acropora_spicifera",3.733999668,0.1,3.3605997012,0.9,0.3733999668,0.1
"150",152,"Acropora_squarrosa",3.659642507,1e-04,3.6592765427493,0.9999,0.000365964250700124,0.000100000000000034
"151",153,"Acropora_stoddarti",3.767446591,0.1,3.3907019319,0.9,0.3767446591,0.1
"152",154,"Acropora_striata",3.635905658,0.1,3.2723150922,0.9,0.3635905658,0.1
"153",155,"Acropora_subglabra",3.805528276,1e-04,3.8051477231724,0.9999,0.000380552827599967,9.99999999999913e-05
"154",156,"Acropora_subulata",3.669899901,1e-04,3.6695329110099,0.9999,0.000366989990099764,9.99999999999357e-05
"155",157,"Acropora_suharsonoi",3.550556176,0.667,1.182335206608,0.333,2.368220969392,0.667
"156",158,"Acropora_sukarnoi",2.585977535,0.1,2.3273797815,0.9,0.2585977535,0.1
"157",159,"Acropora_tanegashimensis",3.354312694,0.1,3.0188814246,0.9,0.3354312694,0.1
"158",160,"Acropora_tenella",3.783443366,0.1,3.4050990294,0.9,0.3783443366,0.1
"159",161,"Acropora_tenuis",3.859584849,0.01,3.82098900051,0.99,0.03859584849,0.00999999999999999
"160",162,"Acropora_teres",3.575009029,0.1,3.2175081261,0.9,0.3575009029,0.1
"161",163,"Acropora_tizardi",3.682005312,0.1,3.3138047808,0.9,0.3682005312,0.1
"162",164,"Acropora_torihalimeda",3.628183304,0.1,3.2653649736,0.9,0.3628183304,0.1
"163",165,"Acropora_torresiana",3.571398816,0.1,3.2142589344,0.9,0.3571398816,0.0999999999999999
"164",166,"Acropora_tortuosa",3.880464096,1e-04,3.8800760495904,0.9999,0.000388046409599774,9.99999999999417e-05
"165",167,"Acropora_tumida",3.538681071,0.1,3.1848129639,0.9,0.3538681071,0.1
"166",168,"Acropora_turaki",3.650440296,0.1,3.2853962664,0.9,0.3650440296,0.1
"167",169,"Acropora_tutuilensis",3.357880493,0.1,3.0220924437,0.9,0.3357880493,0.1
"168",170,"Acropora_valenciennesi",3.658001217,1e-04,3.6576354168783,0.9999,0.000365800121699955,9.99999999999877e-05
"169",171,"Acropora_valida",3.756410604,1e-04,3.7560349629396,0.9999,0.000375641060399889,9.99999999999706e-05
"170",172,"Acropora_variabilis",3.856431631,0.1,3.4707884679,0.9,0.3856431631,0.1
"171",173,"Acropora_variolosa",3.625335969,1e-04,3.6249734354031,0.9999,0.000362533596899972,9.99999999999923e-05
"172",174,"Acropora_vaughani",4.420365368,0.1,3.9783288312,0.9,0.4420365368,0.1
"173",175,"Acropora_vermiculata",3.722393929,0.1,3.3501545361,0.9,0.3722393929,0.1
"174",176,"Acropora_verweyi",3.608696711,0.1,3.2478270399,0.9,0.3608696711,0.1
"175",177,"Acropora_walindii",3.84544384,0.1,3.460899456,0.9,0.384544384,0.0999999999999999
"176",178,"Acropora_wallaceae",3.758327331,0.1,3.3824945979,0.9,0.3758327331,0.0999999999999999
"177",179,"Acropora_willisae",3.606829637,0.1,3.2461466733,0.9,0.3606829637,0.1
"178",180,"Acropora_yongei",2.639294664,1e-04,2.6390307345336,0.9999,0.000263929466400192,0.000100000000000073
"179",181,"Agaricia_agaricites",6.430010785,1e-04,6.4293677839215,0.9999,0.000643001078500127,0.00010000000000002
"180",182,"Agaricia_fragilis",5.982303075,0.1,5.3840727675,0.9,0.5982303075,0.1
"181",183,"Agaricia_grahamae",5.900153289,1e-04,5.8995632736711,0.9999,0.000590015328899796,9.99999999999654e-05
"182",184,"Agaricia_humilis",9.639657889,1e-04,9.6386939232111,0.9999,0.000963965788900012,0.000100000000000001
"183",185,"Agaricia_lamarcki",5.982303075,0.1,5.3840727675,0.9,0.5982303075,0.1
"184",186,"Agaricia_tenuifolia",6.430010785,0.01,6.36571067715,0.99,0.0643001078500003,0.01
"185",187,"Agaricia_undata",5.900153289,0.1,5.3101379601,0.9,0.5900153289,0.1
"186",188,"Alveopora_allingi",8.696407546,0.1,7.8267667914,0.9,0.8696407546,0.1
"187",189,"Alveopora_catalai",8.712222005,0.01,8.62509978495,0.99,0.0871222200500004,0.01
"188",190,"Alveopora_daedalea",9.243625011,0.1,8.3192625099,0.9,0.924362501099999,0.0999999999999999
"189",191,"Alveopora_excelsa",10.92574193,0.667,3.63827206269,0.333,7.28746986731,0.667
"190",192,"Alveopora_fenestrata",8.817499588,0.1,7.9357496292,0.9,0.8817499588,0.0999999999999999
"191",193,"Alveopora_gigas",8.673234078,0.1,7.8059106702,0.9,0.8673234078,0.1
"192",194,"Alveopora_japonica",9.040324357,0.1,8.1362919213,0.9,0.9040324357,0.1
"193",195,"Alveopora_marionensis",8.78400173,0.1,7.905601557,0.9,0.878400173,0.1
"194",196,"Alveopora_minuta",9.312800001,0.667,3.101162400333,0.333,6.211637600667,0.667
"195",197,"Alveopora_ocellata",10.01977226,0.1,9.017795034,0.9,1.001977226,0.0999999999999999
"196",198,"Alveopora_spongiosa",9.243625011,0.01,9.15118876089,0.99,0.0924362501099996,0.00999999999999995
"197",199,"Alveopora_tizardi",9.040324357,1e-04,9.0394203245643,0.9999,0.000904032435700586,0.000100000000000065
"198",200,"Alveopora_verrilliana",8.833704986,0.1,7.9503344874,0.9,0.8833704986,0.1
"199",201,"Alveopora_viridis",9.312800001,0.01,9.21967200099,0.99,0.0931280000099992,0.00999999999999992
"200",202,"Anacropora_forbesi",4.09908268,1e-04,4.098672771732,0.9999,0.000409908267999803,9.9999999999952e-05
"201",203,"Anacropora_matthai",4.383295366,0.1,3.9449658294,0.9,0.4383295366,0.1
"202",204,"Anacropora_pillai",4.102558505,0.1,3.6923026545,0.9,0.4102558505,0.1
"203",205,"Anacropora_puertogalerae",4.118229838,0.1,3.7064068542,0.9,0.4118229838,0.1
"204",206,"Anacropora_reticulata",4.101743624,0.1,3.6915692616,0.9,0.4101743624,0.1
"205",207,"Anacropora_spinosa",4.383295366,0.667,1.459637356878,0.333,2.923658009122,0.667
"206",208,"Anacropora_spumosa",4.141159566,0.1,3.7270436094,0.9,0.4141159566,0.1
"207",209,"Anomastraea_irregularis",13.19305826,0.1,11.873752434,0.9,1.319305826,0.0999999999999999
"208",210,"Astrangia_poculata",9.931668356,1e-04,9.9306751891644,0.9999,0.00099316683560069,0.000100000000000069
"209",213,"Astreopora_cucullata",7.673864712,0.1,6.9064782408,0.9,0.7673864712,0.1
"210",214,"Astreopora_eliptica",8.052338394,0.1,7.2471045546,0.9,0.8052338394,0.1
"211",215,"Astreopora_expansa",7.883642934,0.01,7.80480650466,0.99,0.0788364293399999,0.00999999999999999
"212",216,"Astreopora_gracilis",7.644734302,1e-04,7.6439698285698,0.9999,0.000764473430200141,0.000100000000000018
"213",217,"Astreopora_incrustans",7.922128428,0.1,7.1299155852,0.9,0.7922128428,0.1
"214",218,"Astreopora_listeri",8.068914299,1e-04,8.0681074075701,0.9999,0.000806891429899537,9.99999999999426e-05
"215",219,"Astreopora_macrostoma",7.787213459,0.01,7.70934132441,0.99,0.0778721345899998,0.00999999999999997
"216",221,"Astreopora_moretonensis",7.84323164,0.1,7.058908476,0.9,0.784323164,0.1
"217",222,"Astreopora_myriophthalma",7.613190739,1e-04,7.6124294199261,0.9999,0.000761319073899536,9.9999999999939e-05
"218",223,"Astreopora_ocellata",7.915097627,1e-04,7.9143061172373,0.9999,0.000791509762700038,0.000100000000000005
"219",224,"Astreopora_randalli",7.958711315,1e-04,7.9579154438685,0.9999,0.000795871131499482,9.99999999999348e-05
"220",225,"Astreopora_scabra",8.184633904,1e-04,8.1838154406096,0.9999,0.000818463390400481,0.000100000000000059
"221",226,"Astreopora_suggesta",7.992294803,1e-04,7.9914955735197,0.9999,0.000799229480300312,0.000100000000000039
"222",227,"Australogyra_zelli",6.791892757,0.1,6.1127034813,0.9,0.6791892757,0.1
"223",228,"Australomussa_rowleyensis",24.16556453,0.01,23.9239088847,0.99,0.2416556453,0.00999999999999999
"224",229,"Balanophyllia_europaea",39.40146363,1e-04,39.397523483637,0.9999,0.003940146363,9.99999999999999e-05
"225",230,"Barabattoia_amicorum",2.931074727,1e-04,2.9307816195273,0.9999,0.000293107472700171,0.000100000000000058
"226",231,"Barabattoia_laddi",2.931074727,0.1,2.6379672543,0.9,0.2931074727,0.1
"227",232,"Blastomussa_merleti",16.68816091,1e-04,16.686492093909,0.9999,0.00166881609100145,0.000100000000000087
"228",233,"Blastomussa_wellsi",16.68816091,0.01,16.5212793009,0.99,0.166881609099999,0.00999999999999994
"229",234,"Boninastrea_boninensis",3.520788366,0.1,3.1687095294,0.9,0.3520788366,0.1
"230",235,"Cantharellus_doederleini",6.388322603,1e-04,6.3876837707397,0.9999,0.000638832260300148,0.000100000000000023
"231",236,"Cantharellus_jebbi",6.415755923,1e-04,6.4151143474077,0.9999,0.000641575592299937,9.99999999999901e-05
"232",237,"Cantharellus_noumeae",6.348348042,0.667,2.113999897986,0.333,4.234348144014,0.667
"233",238,"Catalaphyllia_jardinei",16.16590613,0.1,14.549315517,0.9,1.616590613,0.1
"234",239,"Caulastraea_furcata",3.686958856,1e-04,3.6865901601144,0.9999,0.000368695885600179,0.000100000000000048
"235",240,"Caulastrea_connata",3.687889231,0.1,3.3191003079,0.9,0.3687889231,0.1
"236",241,"Caulastrea_curvata",3.686958856,0.1,3.3182629704,0.9,0.3686958856,0.0999999999999999
"237",242,"Caulastrea_echinulata",4.607456473,0.1,4.1467108257,0.9,0.4607456473,0.0999999999999999
"238",243,"Caulastrea_tumida",3.687889231,0.01,3.65101033869,0.99,0.0368788923099999,0.00999999999999996
"239",244,"Cladocora_arbuscula",9.948732066,1e-04,9.9477371927934,0.9999,0.000994873206600744,0.000100000000000075
"240",245,"Cladocora_caespitosa",9.971121982,0.667,3.320383620006,0.333,6.650738361994,0.667
"241",246,"Coeloseris_mayeri",9.938131951,1e-04,9.9371381378049,0.9999,0.000993813195099946,9.99999999999946e-05
"242",249,"Colpophyllia_natans",3.92730087,1e-04,3.926908139913,0.9999,0.000392730086999915,9.99999999999784e-05
"243",250,"Coscinaraea_columna",6.553231774,1e-04,6.5525764508226,0.9999,0.00065532317739958,9.9999999999936e-05
"244",251,"Coscinaraea_crassa",6.601723485,0.01,6.53570625015,0.99,0.0660172348500003,0.0100000000000001
"245",252,"Coscinaraea_exesa",6.580693318,1e-04,6.5800352486682,0.9999,0.000658069331800348,0.000100000000000053
"246",253,"Coscinaraea_hahazimaensis",6.550050774,0.1,5.8950456966,0.9,0.6550050774,0.1
"247",254,"Coscinaraea_marshae",6.657558168,1e-04,6.6568924121832,0.9999,0.000665755816799951,9.99999999999926e-05
"248",255,"Coscinaraea_mcneilli",6.621578994,1e-04,6.6209168361006,0.9999,0.000662157899399496,9.99999999999239e-05
"249",256,"Coscinaraea_monile",6.584723713,1e-04,6.5840652406287,0.9999,0.000658472371299901,9.99999999999849e-05
"250",257,"Coscinaraea_wellsi",6.669380957,1e-04,6.6687140189043,0.9999,0.000666938095699621,9.99999999999431e-05
"251",258,"Craterastrea_levis",12.08425395,1e-04,12.083045524605,0.9999,0.00120842539499932,9.9999999999944e-05
"252",259,"Ctenactis_albitentaculata",6.535195159,0.01,6.46984320741,0.99,0.0653519515900003,0.01
"253",260,"Ctenactis_crassa",7.311596373,1e-04,7.3108652133627,0.9999,0.000731159637299861,9.99999999999809e-05
"254",261,"Ctenactis_echinata",6.535195159,1e-04,6.5345416394841,0.9999,0.000653519515900314,0.000100000000000048
"255",262,"Ctenella_chagius",7.415637835,0.667,2.469407399055,0.333,4.946230435945,0.667
"256",263,"Cycloseris_mokai",7.938639107,1e-04,7.9378452430893,0.9999,0.000793863910700132,0.000100000000000017
"257",264,"Cynarina_lacrymalis",11.95577297,0.01,11.8362152403,0.99,0.1195577297,0.01
"258",265,"Cyphastrea_agassizi",7.375703072,0.1,6.6381327648,0.9,0.737570307199999,0.0999999999999999
"259",266,"Cyphastrea_chalcidicum",7.536122596,1e-04,7.5353689837404,0.9999,0.000753612259599912,9.99999999999883e-05
"260",267,"Cyphastrea_decadia",6.952968687,1e-04,6.9522733901313,0.9999,0.000695296868699735,9.99999999999619e-05
"261",268,"Cyphastrea_hexasepta",6.986937891,0.1,6.2882441019,0.9,0.6986937891,0.1
"262",269,"Cyphastrea_japonica",6.952968687,1e-04,6.9522733901313,0.9999,0.000695296868699735,9.99999999999619e-05
"263",270,"Cyphastrea_microphthalma",6.986937891,1e-04,6.9862391972109,0.9999,0.000698693789099814,9.99999999999733e-05
"264",271,"Cyphastrea_ocellina",7.612711002,0.1,6.8514399018,0.9,0.7612711002,0.1
"265",272,"Cyphastrea_serailia",7.520940706,1e-04,7.5201886119294,0.9999,0.000752094070599618,9.99999999999492e-05
"266",273,"Dendrogyra_cylindrus",13.40658112,0.1,12.065923008,0.9,1.340658112,0.1
"267",274,"Dichocoenia_stellaris",10.68435091,0.1,9.615915819,0.9,1.068435091,0.1
"268",275,"Dichocoenia_stokesii",10.6945461,0.1,9.62509149,0.9,1.06945461,0.0999999999999999
"269",276,"Diploastrea_heliopora",70.94554213,0.01,70.2360867087,0.99,0.709455421300007,0.0100000000000001
"270",277,"Diploria_clivosa",4.402257344,1e-04,4.4018171182656,0.9999,0.000440225734400279,0.000100000000000063
"271",278,"Diploria_labyrinthiformis",4.439343286,1e-04,4.4388993516714,0.9999,0.000443934328600015,0.000100000000000003
"272",279,"Diploria_strigosa",4.402257344,1e-04,4.4018171182656,0.9999,0.000440225734400279,0.000100000000000063
"273",280,"Duncanopsammia_axifuga",38.98233162,0.01,38.5925083038,0.99,0.389823316200001,0.01
"274",281,"Echinomorpha_nishihirai",9.52124625,0.01,9.4260337875,0.99,0.0952124624999993,0.00999999999999992
"275",282,"Echinophyllia_aspera",5.388938615,1e-04,5.3883997211385,0.9999,0.000538893861500078,0.000100000000000015
"276",283,"Echinophyllia_costata",5.425974963,0.1,4.8833774667,0.9,0.5425974963,0.1
"277",284,"Echinophyllia_echinata",5.708031239,1e-04,5.7074604358761,0.9999,0.000570803123899566,9.99999999999239e-05
"278",285,"Echinophyllia_echinoporoides",5.620560223,1e-04,5.6199981669777,0.9999,0.000562056022300084,0.000100000000000015
"279",286,"Echinophyllia_orpheensis",5.693134819,1e-04,5.6925655055181,0.9999,0.000569313481899592,9.99999999999283e-05
"280",287,"Echinophyllia_patula",5.388938615,1e-04,5.3883997211385,0.9999,0.000538893861500078,0.000100000000000015
"281",288,"Echinophyllia_pectinata",5.425974963,0.1,4.8833774667,0.9,0.5425974963,0.1
"282",289,"Echinopora_ashmorensis",5.886560357,0.1,5.2979043213,0.9,0.5886560357,0.1
"283",290,"Echinopora_forskaliana",5.887334735,0.01,5.82846138765,0.99,0.0588733473499996,0.00999999999999993
"284",291,"Echinopora_fruticulosa",6.505458538,0.01,6.44040395262,0.99,0.0650545853800004,0.0100000000000001
"285",292,"Echinopora_gemmacea",6.388148745,1e-04,6.3875099301255,0.9999,0.000638814874499793,9.99999999999677e-05
"286",293,"Echinopora_grandicula",6.396172495,0.1,5.7565552455,0.9,0.6396172495,0.1
"287",294,"Echinopora_hirsutissima",5.946467859,1e-04,5.9458732122141,0.9999,0.000594646785899933,9.99999999999887e-05
"288",295,"Echinopora_horrida",6.353189664,0.01,6.28965776736,0.99,0.0635318966399998,0.00999999999999997
"289",296,"Echinopora_irregularis",5.946467859,0.1,5.3518210731,0.9,0.5946467859,0.1
"290",297,"Echinopora_lamellosa",5.886560357,1e-04,5.8859717009643,0.9999,0.000588656035700019,0.000100000000000003
"291",298,"Echinopora_mammiformis",6.742597124,0.01,6.67517115276,0.99,0.0674259712400005,0.0100000000000001
"292",299,"Echinopora_pacificus",6.440201514,0.01,6.37579949886,0.99,0.0644020151399998,0.00999999999999996
"293",300,"Echinopora_robusta",5.887334735,0.1,5.2986012615,0.9,0.5887334735,0.0999999999999999
"294",301,"Echinopora_taylorae",6.734236542,0.01,6.66689417658,0.99,0.06734236542,0.01
"295",302,"Echinopora_tiranensis",6.428660584,0.1,5.7857945256,0.9,0.6428660584,0.1
"296",303,"Enigmopora_darveliensis",25.32069358,0.1,22.788624222,0.9,2.532069358,0.1
"297",304,"Erythrastrea_flabellata",5.541739586,0.01,5.48632219014,0.99,0.0554173958600002,0.01
"298",305,"Euphyllia_ancora",9.461487289,0.1,8.5153385601,0.9,0.946148728899999,0.0999999999999999
"299",306,"Euphyllia_cristata",7.013165598,0.1,6.3118490382,0.9,0.7013165598,0.0999999999999999
"300",307,"Euphyllia_divisa",8.876908223,0.01,8.78813914077,0.99,0.0887690822299998,0.00999999999999998
"301",308,"Euphyllia_glabrescens",7.026485971,0.01,6.95622111129,0.99,0.07026485971,0.01
"302",309,"Euphyllia_paraancora",9.421291327,0.1,8.4791621943,0.9,0.9421291327,0.1
"303",310,"Euphyllia_paradivisa",7.011676007,0.1,6.3105084063,0.9,0.7011676007,0.1
"304",311,"Euphyllia_paraglabrescens",7.011554559,0.1,6.3103991031,0.9,0.7011554559,0.0999999999999999
"305",312,"Euphyllia_yaeyamaensis",8.876908223,0.01,8.78813914077,0.99,0.0887690822299998,0.00999999999999998
"306",313,"Eusmilia_fastigiata",10.68462426,1e-04,10.683555797574,0.9999,0.00106846242599978,9.99999999999797e-05
"307",314,"Favia_albidus",2.805072631,0.01,2.77702190469,0.99,0.0280507263100001,0.01
"308",315,"Favia_danae",3.20151711,1e-04,3.201196958289,0.9999,0.000320151711000083,0.000100000000000026
"309",316,"Favia_favus",3.137267353,1e-04,3.1369536262647,0.9999,0.000313726735300168,0.000100000000000054
"310",317,"Favia_fragum",4.870227029,1e-04,4.8697400062971,0.9999,0.000487022702899687,9.99999999999356e-05
"311",319,"Favia_helianthoides",2.939295027,0.01,2.90990207673,0.99,0.0293929502700001,0.01
"312",320,"Favia_lacuna",5.754096142,0.01,5.69655518058,0.99,0.05754096142,0.01
"313",321,"Favia_laxa",2.939295027,0.01,2.90990207673,0.99,0.0293929502700001,0.01
"314",322,"Favia_leptophylla",6.322620059,0.1,5.6903580531,0.9,0.632262005899999,0.0999999999999999
"315",323,"Favia_lizardensis",2.939083707,0.01,2.90969286993,0.99,0.0293908370700002,0.0100000000000001
"316",324,"Favia_maritima",5.817220619,0.01,5.75904841281,0.99,0.0581722061900001,0.01
"317",325,"Favia_marshae",2.662866373,0.01,2.63623770927,0.99,0.0266286637299999,0.00999999999999998
"318",326,"Favia_matthaii",2.805072631,0.01,2.77702190469,0.99,0.0280507263100001,0.01
"319",327,"Favia_maxima",4.017246911,0.01,3.97707444189,0.99,0.0401724691099998,0.00999999999999996
"320",328,"Favia_pallida",3.20151711,1e-04,3.201196958289,0.9999,0.000320151711000083,0.000100000000000026
"321",329,"Favia_rosaria",5.727485624,0.1,5.1547370616,0.9,0.5727485624,0.1
"322",330,"Favia_rotumana",5.742674308,1e-04,5.7421000405692,0.9999,0.00057426743079958,9.99999999999268e-05
"323",331,"Favia_rotundata",2.662866373,0.01,2.63623770927,0.99,0.0266286637299999,0.00999999999999998
"324",332,"Favia_speciosa",3.238492155,1e-04,3.2381683057845,0.9999,0.000323849215499994,9.99999999999981e-05
"325",333,"Favia_stelligera",4.834051434,0.01,4.78571091966,0.99,0.0483405143400004,0.0100000000000001
"326",334,"Favia_truncatus",6.735657964,1e-04,6.7349843982036,0.9999,0.000673565796399878,9.99999999999818e-05
"327",335,"Favia_veroni",4.017246911,0.01,3.97707444189,0.99,0.0401724691099998,0.00999999999999996
"328",336,"Favia_vietnamensis",5.709411706,0.01,5.65231758894,0.99,0.0570941170600001,0.01
"329",337,"Favites_abdita",3.559612811,0.01,3.52401668289,0.99,0.0355961281099999,0.00999999999999997
"330",338,"Favites_acuticollis",3.718212451,0.01,3.68103032649,0.99,0.0371821245100001,0.01
"331",339,"Favites_bestae",3.713194599,0.01,3.67606265301,0.99,0.0371319459900001,0.01
"332",340,"Favites_chinensis",3.754319033,0.01,3.71677584267,0.99,0.0375431903300001,0.01
"333",341,"Favites_complanata",3.202745882,0.01,3.17071842318,0.99,0.03202745882,0.01
"334",342,"Favites_flexuosa",2.656002629,0.01,2.62944260271,0.99,0.0265600262899999,0.00999999999999995
"335",343,"Favites_halicora",2.656002629,0.01,2.62944260271,0.99,0.0265600262899999,0.00999999999999995
"336",344,"Favites_micropentagona",5.175229716,0.01,5.12347741884,0.99,0.0517522971600002,0.01
"337",345,"Favites_paraflexuosa",3.684000861,0.01,3.64716085239,0.99,0.03684000861,0.01
"338",346,"Favites_pentagona",5.175229716,1e-04,5.1747121930284,0.9999,0.000517522971599682,9.99999999999386e-05
"339",347,"Favites_russelli",5.664323578,0.01,5.60768034222,0.99,0.0566432357800002,0.01
"340",348,"Favites_spinosa",3.735995398,0.1,3.3623958582,0.9,0.3735995398,0.1
"341",349,"Favites_stylifera",3.769121338,0.01,3.73143012462,0.99,0.03769121338,0.01
"342",350,"Favites_vasta",3.703146026,0.01,3.66611456574,0.99,0.0370314602600001,0.01
"343",351,"Fungia_costulata",7.582354034,1e-04,7.5815957985966,0.9999,0.000758235403400143,0.000100000000000019
"344",352,"Fungia_curvata",7.932449598,0.1,7.1392046382,0.9,0.7932449598,0.1
"345",353,"Fungia_cyclolites",7.54291743,1e-04,7.542163138257,0.9999,0.000754291743000124,0.000100000000000016
"346",354,"Fungia_distorta",7.443615124,1e-04,7.4428707624876,0.9999,0.000744361512399649,9.99999999999529e-05
"347",355,"Fungia_fragilis",7.331744371,1e-04,7.3310111965629,0.9999,0.000733174437099748,9.99999999999657e-05
"348",356,"Fungia_fralinae",13.31617163,1e-04,13.314840012837,0.9999,0.00133161716300023,0.000100000000000017
"349",357,"Fungia_fungites",8.549269595,0.01,8.46377689905,0.99,0.0854926959500002,0.01
"350",358,"Fungia_hexagonalis",7.963995421,1e-04,7.9631990214579,0.9999,0.00079639954210009,0.000100000000000011
"351",359,"Fungia_horrida",7.713724319,1e-04,7.7129529465681,0.9999,0.000771372431899842,9.99999999999795e-05
"352",360,"Fungia_scruposa",7.205627285,1e-04,7.2049067222715,0.9999,0.00072056272849963,9.99999999999486e-05
"353",361,"Fungia_scutaria",7.661258889,1e-04,7.6604927631111,0.9999,0.000766125888899793,9.9999999999973e-05
"354",362,"Fungia_sinensis",7.847808251,1e-04,7.8470234701749,0.9999,0.000784780825100029,0.000100000000000004
"355",363,"Fungia_somervillei",7.405693223,1e-04,7.4049526536777,0.9999,0.000740569322299933,9.9999999999991e-05
"356",364,"Fungia_tenuis",7.63386168,1e-04,7.633098293832,0.9999,0.000763386167999869,9.99999999999828e-05
"357",365,"Fungia_vaughani",7.356795411,1e-04,7.3560597314589,0.9999,0.000735679541099543,9.99999999999379e-05
"358",366,"Galaxea_acrhelia",5.855468191,0.1,5.2699213719,0.9,0.5855468191,0.1
"359",367,"Galaxea_astreata",5.862920476,0.1,5.2766284284,0.9,0.5862920476,0.1
"360",368,"Galaxea_cryptoramosa",5.865164118,0.1,5.2786477062,0.9,0.5865164118,0.1
"361",369,"Galaxea_fascicularis",7.738412435,0.01,7.66102831065,0.99,0.07738412435,0.01
"362",370,"Galaxea_horrescens",5.845284751,1e-04,5.8447002225249,0.9999,0.000584528475100043,0.000100000000000007
"363",371,"Galaxea_longisepta",5.854240753,0.01,5.79569834547,0.99,0.0585424075300001,0.01
"364",372,"Galaxea_paucisepta",5.863001862,0.01,5.80437184338,0.99,0.0586300186199997,0.00999999999999995
"365",373,"Gardineroseris_planulata",4.757676444,1e-04,4.7572006763556,0.9999,0.000475767644400271,0.000100000000000057
"366",374,"Goniastrea_aspera",4.813266915,1e-04,4.8127855883085,0.9999,0.00048132669150025,0.000100000000000052
"367",375,"Goniastrea_australensis",5.664323578,1e-04,5.6637571456422,0.9999,0.000566432357800295,0.000100000000000052
"368",376,"Goniastrea_columella",3.104192272,0.01,3.07315034928,0.99,0.0310419227200001,0.01
"369",377,"Goniastrea_deformis",6.820773273,0.1,6.1386959457,0.9,0.6820773273,0.1
"370",378,"Goniastrea_edwardsi",3.647919978,1e-04,3.6475551860022,0.9999,0.00036479199780004,0.000100000000000011
"371",379,"Goniastrea_favulus",3.252883135,0.01,3.22035430365,0.99,0.0325288313500001,0.01
"372",380,"Goniastrea_minuta",4.058781074,0.01,4.01819326326,0.99,0.04058781074,0.00999999999999999
"373",381,"Goniastrea_palauensis",5.688507577,0.01,5.63162250123,0.99,0.0568850757700003,0.0100000000000001
"374",382,"Goniastrea_pectinata",3.104192272,1e-04,3.1038818527728,0.9999,0.000310419227199876,9.99999999999601e-05
"375",383,"Goniastrea_peresi",4.848118309,0.01,4.79963712591,0.99,0.0484811830899998,0.00999999999999996
"376",384,"Goniastrea_ramosa",4.04442527,0.1,3.639982743,0.9,0.404442527,0.1
"377",385,"Goniastrea_retiformis",4.052954993,1e-04,4.0525496975007,0.9999,0.000405295499300351,0.000100000000000087
"378",386,"Goniastrea_thecata",4.8432081,0.01,4.794776019,0.99,0.0484320809999996,0.00999999999999992
"379",387,"Goniopora_albiconus",4.715214006,0.1,4.2436926054,0.9,0.471521400599999,0.0999999999999999
"380",388,"Goniopora_burgosi",4.799907146,0.1,4.3199164314,0.9,0.4799907146,0.0999999999999999
"381",389,"Goniopora_cellulosa",4.728918658,0.1,4.2560267922,0.9,0.4728918658,0.1
"382",390,"Goniopora_ciliatus",4.767122551,1e-04,4.7666458387449,0.9999,0.000476712255100153,0.000100000000000032
"383",391,"Goniopora_columna",4.740025256,0.01,4.69262500344,0.99,0.0474002525600001,0.01
"384",392,"Goniopora_djiboutiensis",4.770165471,1e-04,4.7696884544529,0.9999,0.000477016547099751,9.99999999999478e-05
"385",393,"Goniopora_eclipsensis",4.760717269,1e-04,4.7602411972731,0.9999,0.000476071726899896,9.99999999999782e-05
"386",394,"Goniopora_fruticosa",4.676605381,1e-04,4.6761377204619,0.9999,0.000467660538100212,0.000100000000000045
"387",395,"Goniopora_lobata",4.655348576,0.01,4.60879509024,0.99,0.0465534857599996,0.00999999999999992
"388",396,"Goniopora_minor",4.88785721,0.01,4.8389786379,0.99,0.0488785721000005,0.0100000000000001
"389",397,"Goniopora_norfolkensis",4.698051598,1e-04,4.6975817928402,0.9999,0.000469805159799996,9.99999999999992e-05
"390",398,"Goniopora_palmensis",4.699753209,1e-04,4.6992832336791,0.9999,0.000469975320900318,0.000100000000000068
"391",399,"Goniopora_pandoraensis",4.766302866,1e-04,4.7658262357134,0.9999,0.000476630286599722,9.99999999999416e-05
"392",400,"Goniopora_pearsoni",4.747438603,1e-04,4.7469638591397,0.9999,0.000474743860300109,0.000100000000000023
"393",401,"Goniopora_pendulus",4.766801431,1e-04,4.7663247508569,0.9999,0.000476680143099983,9.99999999999965e-05
"394",402,"Goniopora_planulata",4.748246282,0.1,4.2734216538,0.9,0.474824628199999,0.0999999999999999
"395",403,"Goniopora_polyformis",4.712788784,0.1,4.2415099056,0.9,0.4712788784,0.1
"396",404,"Goniopora_savignyi",4.751430188,1e-04,4.7509550449812,0.9999,0.000475143018800139,0.000100000000000029
"397",405,"Goniopora_somaliensis",4.826988345,1e-04,4.8265056461655,0.9999,0.000482698834500361,0.000100000000000075
"398",406,"Goniopora_stokesi",4.707515692,0.01,4.66044053508,0.99,0.0470751569200001,0.01
"399",407,"Goniopora_stutchburyi",4.778003459,1e-04,4.7775256586541,0.9999,0.000477800345899837,9.99999999999659e-05
"400",408,"Goniopora_sultani",4.789634407,1e-04,4.7891554435593,0.9999,0.000478963440699864,9.99999999999717e-05
"401",409,"Goniopora_tenella",4.856420587,0.01,4.80785638113,0.99,0.04856420587,0.01
"402",410,"Goniopora_tenuidens",4.719547548,1e-04,4.7190755932452,0.9999,0.000471954754799775,9.99999999999523e-05
"403",411,"Gyrosmilia_interrupta",7.409804254,1e-04,7.4090632735746,0.9999,0.00074098042539994,9.99999999999919e-05
"404",412,"Halomitra_clavator",6.613795749,0.1,5.9524161741,0.9,0.6613795749,0.1
"405",413,"Halomitra_pileus",6.613795749,1e-04,6.6131343694251,0.9999,0.000661379574899534,9.99999999999296e-05
"406",414,"Heliofungia_actiniformis",10.29736846,0.1,9.267631614,0.9,1.029736846,0.1
"407",415,"Helioseris_cucullata",39.70096882,1e-04,39.696998723118,0.9999,0.00397009688200001,1e-04
"408",416,"Herpolitha_limax",7.366243154,1e-04,7.3655065296846,0.9999,0.000736624315400114,0.000100000000000015
"409",417,"Heterocyathus_aequicostatus",22.59194724,1e-04,22.589688045276,0.9999,0.00225919472400093,0.000100000000000041
"410",418,"Heterocyathus_alternatus",22.58521893,1e-04,22.582960408107,0.9999,0.00225852189300113,0.00010000000000005
"411",419,"Heterocyathus_sulcatus",22.55645726,1e-04,22.554201614274,0.9999,0.00225564572599879,9.99999999999463e-05
"412",420,"Heteropsammia_cochlea",37.81453681,1e-04,37.810755356319,0.9999,0.00378145368100036,0.000100000000000009
"413",421,"Heteropsammia_eupsammides",38.02363087,0.01,37.6433945613,0.99,0.380236308699999,0.00999999999999997
"414",422,"Horastrea_indica",16.03679328,0.1,14.433113952,0.9,1.603679328,0.1
"415",423,"Hydnophora_bonsai",6.544878092,0.667,2.179444404636,0.333,4.365433687364,0.667
"416",424,"Hydnophora_exesa",6.439225817,0.01,6.37483355883,0.99,0.0643922581699998,0.00999999999999997
"417",425,"Hydnophora_grandis",6.535578584,1e-04,6.5349250261416,0.9999,0.000653557858400156,0.000100000000000024
"418",426,"Hydnophora_microconos",6.592234423,0.01,6.52631207877,0.99,0.0659223442299997,0.00999999999999995
"419",427,"Hydnophora_pilosa",6.464218425,1e-04,6.4635720031575,0.9999,0.000646421842500189,0.000100000000000029
"420",428,"Hydnophora_rigida",6.452971326,1e-04,6.4523260288674,0.9999,0.000645297132599865,9.9999999999979e-05
"421",429,"Indophyllia_macassarensis",11.95577297,0.1,10.760195673,0.9,1.195577297,0.1
"422",430,"Isophyllastrea_rigida",7.808509431,1e-04,7.8077285800569,0.9999,0.000780850943099765,9.99999999999699e-05
"423",431,"Isophyllia_sinuosa",6.457768063,1e-04,6.4571222861937,0.9999,0.000645776806299736,9.99999999999591e-05
"424",432,"Isopora_brueggemanni",4.9696966,0.1,4.47272694,0.9,0.49696966,0.0999999999999999
"425",433,"Isopora_crateriformis",4.863427762,0.1,4.3770849858,0.9,0.4863427762,0.1
"426",434,"Isopora_cuneata",4.930245331,0.1,4.4372207979,0.9,0.4930245331,0.1
"427",435,"Isopora_cylindrica",4.774525989,0.1,4.2970733901,0.9,0.4774525989,0.1
"428",436,"Isopora_elizabethensis",4.811370039,0.1,4.3302330351,0.9,0.4811370039,0.1
"429",437,"Isopora_meridiana",4.695273795,0.1,4.2257464155,0.9,0.4695273795,0.0999999999999999
"430",438,"Isopora_palifera",4.814949749,0.01,4.76680025151,0.99,0.0481494974899999,0.00999999999999997
"431",439,"Isopora_togianensis",4.967910133,0.667,1.654314074289,0.333,3.313596058711,0.667
"432",440,"Leptastrea_aequalis",5.517966336,0.1,4.9661697024,0.9,0.5517966336,0.0999999999999999
"433",441,"Leptastrea_bewickensis",5.467347337,0.01,5.41267386363,0.99,0.0546734733700003,0.0100000000000001
"434",442,"Leptastrea_bottae",5.503424928,0.01,5.44839067872,0.99,0.0550342492800002,0.01
"435",443,"Leptastrea_inaequalis",5.499005356,0.01,5.44401530244,0.99,0.0549900535600001,0.01
"436",444,"Leptastrea_pruinosa",5.511487531,1e-04,5.5109363822469,0.9999,0.00055114875310025,0.000100000000000045
"437",445,"Leptastrea_purpurea",5.542678903,1e-04,5.5421246351097,0.9999,0.000554267890300331,0.00010000000000006
"438",446,"Leptastrea_transversa",5.474957272,1e-04,5.4744097762728,0.9999,0.000547495727199809,9.99999999999652e-05
"439",447,"Leptoria_irregularis",4.514921716,0.1,4.0634295444,0.9,0.4514921716,0.1
"440",448,"Leptoria_phrygia",8.642784895,0.01,8.55635704605,0.99,0.0864278489500006,0.0100000000000001
"441",449,"Leptoseris_amitoriensis",4.797992119,0.01,4.75001219781,0.99,0.0479799211899996,0.00999999999999992
"442",450,"Leptoseris_cailleti",4.796141722,1e-04,4.7956621078278,0.9999,0.000479614172199661,9.99999999999292e-05
"443",451,"Leptoseris_explanata",5.759757106,1e-04,5.7591811302894,0.9999,0.000575975710599863,9.99999999999762e-05
"444",452,"Leptoseris_foliosa",4.979699419,1e-04,4.9792014490581,0.9999,0.000497969941900323,0.000100000000000065
"445",453,"Leptoseris_gardineri",4.799607392,1e-04,4.7991274312608,0.9999,0.000479960739199647,9.99999999999265e-05
"446",454,"Leptoseris_hawaiiensis",4.7876498,1e-04,4.78717103502,0.9999,0.000478764979999546,9.99999999999053e-05
"447",455,"Leptoseris_incrustans",5.737712371,0.1,5.1639411339,0.9,0.5737712371,0.1
"448",456,"Leptoseris_mycetoseroides",4.96983248,1e-04,4.969335496752,0.9999,0.000496983247999516,9.99999999999027e-05
"449",457,"Leptoseris_papyracea",4.831780576,1e-04,4.8312973979424,0.9999,0.000483178057599787,9.99999999999559e-05
"450",458,"Leptoseris_scabra",4.801815439,1e-04,4.8013352574561,0.9999,0.000480181543899505,9.99999999998969e-05
"451",459,"Leptoseris_solida",4.823556432,1e-04,4.8230740763568,0.9999,0.000482355643200094,0.00010000000000002
"452",460,"Leptoseris_striata",4.818675144,0.01,4.77048839256,0.99,0.0481867514400003,0.0100000000000001
"453",461,"Leptoseris_tubulifera",5.655635038,1e-04,5.6550694744962,0.9999,0.000565563503799993,9.99999999999987e-05
"454",462,"Leptoseris_yabei",4.973843343,0.1,4.4764590087,0.9,0.4973843343,0.0999999999999999
"455",463,"Lithophyllon_concinna",6.466028897,1e-04,6.4653822941103,0.9999,0.000646602889699643,9.99999999999448e-05
"456",464,"Lithophyllon_puishani",6.084244692,0.1,5.4758202228,0.9,0.6084244692,0.1
"457",465,"Lithophyllon_ranjithi",6.347142788,0.667,2.113598548404,0.333,4.233544239596,0.667
"458",466,"Lithophyllon_repanda",6.414827615,1e-04,6.4141861322385,0.9999,0.000641482761500001,1e-04
"459",467,"Lithophyllon_scabra",6.084244692,1e-04,6.0836362675308,0.9999,0.000608424469199953,9.99999999999923e-05
"460",468,"Lithophyllon_spinifer",6.527142098,1e-04,6.5264893837902,0.9999,0.000652714209800287,0.000100000000000044
"461",469,"Lithophyllon_undulatum",6.376939358,0.01,6.31316996442,0.99,0.0637693935800003,0.0100000000000001
"462",470,"Lobophyllia_corymbosa",7.316596036,1e-04,7.3158643763964,0.9999,0.000731659603600221,0.00010000000000003
"463",471,"Lobophyllia_dentatus",7.360872082,0.1,6.6247848738,0.9,0.7360872082,0.1
"464",472,"Lobophyllia_diminuta",7.302591431,0.1,6.5723322879,0.9,0.7302591431,0.1
"465",473,"Lobophyllia_flabelliformis",7.315755621,0.1,6.5841800589,0.9,0.7315755621,0.1
"466",474,"Lobophyllia_hataii",7.264610381,1e-04,7.2638839199619,0.9999,0.00072646103809948,9.99999999999284e-05
"467",475,"Lobophyllia_hemprichii",7.102858678,1e-04,7.1021483921322,0.9999,0.000710285867800309,0.000100000000000043
"468",476,"Lobophyllia_pachysepta",7.024733693,0.01,6.95448635607,0.99,0.0702473369299996,0.00999999999999995
"469",477,"Lobophyllia_robusta",6.946616066,1e-04,6.9459214043934,0.9999,0.000694661606599922,9.99999999999888e-05
"470",478,"Lobophyllia_serratus",7.744112376,0.667,2.578789421208,0.333,5.165322954792,0.667
"471",480,"Madracis_asanoi",8.647076694,0.1,7.7823690246,0.9,0.8647076694,0.0999999999999999
"472",481,"Madracis_asperula",8.647076694,0.1,7.7823690246,0.9,0.8647076694,0.0999999999999999
"473",482,"Madracis_auretenra",9.021426638,1e-04,9.0205244953362,0.9999,0.000902142663800731,0.000100000000000081
"474",483,"Madracis_carmabi",10.97192869,0.1,9.874735821,0.9,1.097192869,0.1
"475",484,"Madracis_decactis",8.636633773,1e-04,8.6357701096227,0.9999,0.000863663377300483,0.000100000000000056
"476",485,"Madracis_formosa",12.73834215,1e-04,12.737068315785,0.9999,0.00127383421500049,0.000100000000000039
"477",486,"Madracis_kirbyi",8.636633773,1e-04,8.6357701096227,0.9999,0.000863663377300483,0.000100000000000056
"478",487,"Madracis_pharensis",9.01842573,1e-04,9.017523887427,0.9999,0.000901842573000522,0.000100000000000058
"479",488,"Madracis_senaria",16.81051017,1e-04,16.808829118983,0.9999,0.00168105101699823,9.99999999998944e-05
"480",489,"Manicina_areolata",4.08997383,1e-04,4.089564832617,0.9999,0.000408997383000376,0.000100000000000092
"481",490,"Meandrina_braziliensis",14.2392532,0.1,12.81532788,0.9,1.42392532,0.1
"482",491,"Meandrina_danae",14.2392532,1e-04,14.23782927468,0.9999,0.00142392531999924,9.99999999999468e-05
"483",493,"Meandrina_meandrites",10.49782405,1e-04,10.496774267595,0.9999,0.00104978240499953,9.99999999999555e-05
"484",494,"Merulina_ampliata",3.097559855,1e-04,3.0972500990145,0.9999,0.000309755985500093,0.00010000000000003
"485",495,"Merulina_scabricula",3.28339447,1e-04,3.283066130553,0.9999,0.000328339446999948,9.99999999999841e-05
"486",496,"Merulina_scheeri",3.097559855,1e-04,3.0972500990145,0.9999,0.000309755985500093,0.00010000000000003
"487",497,"Micromussa_amakusensis",10.39989461,0.01,10.2958956639,0.99,0.103998946100001,0.0100000000000001
"488",498,"Micromussa_diminuta",10.08265414,0.1,9.074388726,0.9,1.008265414,0.1
"489",499,"Micromussa_minuta",10.08265414,0.01,9.9818275986,0.99,0.1008265414,0.01
"490",500,"Montastraea_annularis",8.67316998,0.667,2.88816560334,0.333,5.78500437666,0.667
"491",501,"Montastraea_cavernosa",60.32238437,1e-04,60.316352131563,0.9999,0.00603223843700107,0.000100000000000018
"492",502,"Montastraea_faveolata",8.67316998,0.667,2.88816560334,0.333,5.78500437666,0.667
"493",503,"Montastraea_franksi",9.173294998,0.1,8.2559654982,0.9,0.917329499799999,0.0999999999999999
"494",504,"Montastrea_annuligera",3.144529878,0.01,3.11308457922,0.99,0.03144529878,0.01
"495",505,"Montastrea_colemani",2.944544422,0.01,2.91509897778,0.99,0.0294454442199998,0.00999999999999995
"496",506,"Montastrea_curta",5.178230455,1e-04,5.1777126319545,0.9999,0.000517823045499632,9.9999999999929e-05
"497",507,"Montastrea_magnistellata",3.725101104,0.01,3.68785009296,0.99,0.0372510110399999,0.00999999999999999
"498",508,"Montastrea_multipunctata",11.23550012,0.1,10.111950108,0.9,1.123550012,0.0999999999999999
"499",509,"Montastrea_salebrosa",17.54895614,0.1,15.794060526,0.9,1.754895614,0.1
"500",510,"Montastrea_serageldini",5.178230455,0.1,4.6604074095,0.9,0.5178230455,0.1
"501",511,"Montastrea_valenciennesi",3.767446459,0.01,3.72977199441,0.99,0.0376744645900002,0.0100000000000001
"502",512,"Montigyra_kenti",7.401894841,0.1,6.6617053569,0.9,0.7401894841,0.1
"503",513,"Montipora_aequituberculata",4.106691454,1e-04,4.1062807848546,0.9999,0.0004106691454,1e-04
"504",514,"Montipora_altasepta",4.761643396,0.1,4.2854790564,0.9,0.476164339599999,0.0999999999999999
"505",515,"Montipora_angulata",4.744771602,0.1,4.2702944418,0.9,0.4744771602,0.1
"506",516,"Montipora_aspergillus",4.694857069,0.1,4.2253713621,0.9,0.4694857069,0.0999999999999999
"507",517,"Montipora_australiensis",4.887869045,0.1,4.3990821405,0.9,0.4887869045,0.0999999999999999
"508",518,"Montipora_cactus",4.634445644,0.1,4.1710010796,0.9,0.4634445644,0.0999999999999999
"509",519,"Montipora_calcarea",4.491600741,0.1,4.0424406669,0.9,0.4491600741,0.1
"510",520,"Montipora_caliculata",4.684298554,0.1,4.2158686986,0.9,0.4684298554,0.1
"511",521,"Montipora_capitata",4.612073207,0.01,4.56595247493,0.99,0.0461207320700003,0.0100000000000001
"512",522,"Montipora_capricornis",4.436108139,0.1,3.9924973251,0.9,0.4436108139,0.1
"513",523,"Montipora_cebuensis",4.543892996,0.1,4.0895036964,0.9,0.4543892996,0.1
"514",524,"Montipora_circumvallata",4.752421297,1e-04,4.7519460548703,0.9999,0.000475242129700071,0.000100000000000015
"515",525,"Montipora_cocosensis",4.665813341,0.1,4.1992320069,0.9,0.4665813341,0.1
"516",526,"Montipora_confusa",4.608693856,0.01,4.56260691744,0.99,0.0460869385600002,0.0100000000000001
"517",527,"Montipora_corbettensis",4.662245936,0.1,4.1960213424,0.9,0.4662245936,0.1
"518",528,"Montipora_crassituberculata",4.929817081,0.1,4.4368353729,0.9,0.4929817081,0.1
"519",529,"Montipora_cryptus",4.632229164,0.01,4.58590687236,0.99,0.0463222916400001,0.01
"520",530,"Montipora_danae",4.721347076,1e-04,4.7208749412924,0.9999,0.000472134707599992,9.99999999999982e-05
"521",531,"Montipora_delicatula",4.490487443,0.1,4.0414386987,0.9,0.4490487443,0.0999999999999999
"522",532,"Montipora_digitata",4.722604953,1e-04,4.7221326925047,0.9999,0.000472260495300247,0.000100000000000052
"523",533,"Montipora_dilatata",4.701896403,0.667,1.565731502199,0.333,3.136164900801,0.667
"524",534,"Montipora_echinata",4.895911519,0.1,4.4063203671,0.9,0.4895911519,0.1
"525",535,"Montipora_efflorescens",4.740040032,0.01,4.69263963168,0.99,0.0474004003199999,0.00999999999999998
"526",536,"Montipora_effusa",4.624265369,0.01,4.57802271531,0.99,0.0462426536900002,0.0100000000000001
"527",537,"Montipora_flabellata",4.804738404,0.1,4.3242645636,0.9,0.4804738404,0.1
"528",538,"Montipora_florida",4.586194776,0.1,4.1275752984,0.9,0.4586194776,0.1
"529",539,"Montipora_floweri",4.732060593,1e-04,4.7315873869407,0.9999,0.000473206059299791,9.99999999999559e-05
"530",540,"Montipora_foliosa",4.490487443,0.01,4.44558256857,0.99,0.0449048744300002,0.0100000000000001
"531",541,"Montipora_foveolata",4.796074159,0.01,4.74811341741,0.99,0.0479607415899999,0.00999999999999997
"532",542,"Montipora_friabilis",4.823688773,0.1,4.3413198957,0.9,0.4823688773,0.1
"533",543,"Montipora_gaimardi",4.751554186,0.1,4.2763987674,0.9,0.4751554186,0.1
"534",544,"Montipora_grisea",4.503163086,1e-04,4.5027127696914,0.9999,0.000450316308599596,9.99999999999104e-05
"535",545,"Montipora_hemispherica",4.788622777,0.1,4.3097604993,0.9,0.4788622777,0.1
"536",546,"Montipora_hirsuta",4.655430296,0.01,4.60887599304,0.99,0.0465543029599997,0.00999999999999994
"537",547,"Montipora_hispida",5.095589606,1e-04,5.0950800470394,0.9999,0.000509558960599676,9.99999999999365e-05
"538",548,"Montipora_hodgsoni",4.711102435,0.1,4.2399921915,0.9,0.4711102435,0.1
"539",549,"Montipora_hoffmeisteri",4.011272787,1e-04,4.0108716597213,0.9999,0.000401127278699676,9.99999999999191e-05
"540",550,"Montipora_incrassata",4.622115547,0.01,4.57589439153,0.99,0.0462211554699996,0.00999999999999992
"541",551,"Montipora_informis",4.927992185,1e-04,4.9274993857815,0.9999,0.000492799218499762,9.99999999999517e-05
"542",552,"Montipora_kellyi",4.770713649,0.1,4.2936422841,0.9,0.4770713649,0.0999999999999999
"543",553,"Montipora_lobulata",4.757500167,0.1,4.2817501503,0.9,0.4757500167,0.1
"544",554,"Montipora_mactanensis",4.610569269,0.1,4.1495123421,0.9,0.4610569269,0.0999999999999999
"545",555,"Montipora_malampaya",4.572011399,0.1,4.1148102591,0.9,0.4572011399,0.0999999999999999
"546",556,"Montipora_meandrina",4.690815062,0.1,4.2217335558,0.9,0.4690815062,0.1
"547",557,"Montipora_millepora",4.851466777,1e-04,4.8509816303223,0.9999,0.000485146677699611,9.99999999999197e-05
"548",558,"Montipora_mollis",4.032743776,1e-04,4.0323405016224,0.9999,0.000403274377600127,0.000100000000000031
"549",559,"Montipora_monasteriata",4.50660094,1e-04,4.506150279906,0.9999,0.000450660093999744,9.99999999999432e-05
"550",560,"Montipora_niugini",4.523229088,0.01,4.47799679712,0.99,0.0452322908800005,0.0100000000000001
"551",561,"Montipora_nodosa",4.779134923,0.01,4.73134357377,0.99,0.0477913492299997,0.00999999999999994
"552",562,"Montipora_orientalis",4.807413415,0.1,4.3266720735,0.9,0.4807413415,0.1
"553",563,"Montipora_pachytuberculata",4.509960794,0.1,4.0589647146,0.9,0.4509960794,0.1
"554",564,"Montipora_palawanensis",4.848502995,0.01,4.80001796505,0.99,0.0484850299500001,0.01
"555",565,"Montipora_patula",3.854814289,0.1,3.4693328601,0.9,0.3854814289,0.1
"556",566,"Montipora_peltiformis",4.235023582,0.01,4.19267334618,0.99,0.0423502358199999,0.00999999999999997
"557",567,"Montipora_porites",4.762267629,0.01,4.71464495271,0.99,0.0476226762899996,0.00999999999999992
"558",568,"Montipora_samarensis",4.989767532,0.1,4.4907907788,0.9,0.4989767532,0.1
"559",569,"Montipora_saudii",4.638164119,0.01,4.59178247781,0.99,0.04638164119,0.01
"560",570,"Montipora_setosa",4.688520448,0.667,1.561277309184,0.333,3.127243138816,0.667
"561",571,"Montipora_spongiosa",4.705193925,1e-04,4.7047234056075,0.9999,0.000470519392499646,9.99999999999249e-05
"562",572,"Montipora_spongodes",4.007326114,1e-04,4.0069253813886,0.9999,0.000400732611399945,9.99999999999864e-05
"563",573,"Montipora_spumosa",4.58463788,1e-04,4.584179416212,0.9999,0.000458463788000074,0.000100000000000016
"564",574,"Montipora_stellata",4.106691454,1e-04,4.1062807848546,0.9999,0.0004106691454,1e-04
"565",575,"Montipora_stilosa",4.776494884,0.1,4.2988453956,0.9,0.4776494884,0.1
"566",576,"Montipora_taiwanensis",4.474834383,0.1,4.0273509447,0.9,0.4474834383,0.1
"567",577,"Montipora_tuberculosa",4.687201501,1e-04,4.6867327808499,0.9999,0.000468720150100133,0.000100000000000028
"568",578,"Montipora_turgescens",4.618948432,1e-04,4.6184865371568,0.9999,0.000461894843200028,0.000100000000000006
"569",579,"Montipora_turtlensis",4.548034855,0.1,4.0932313695,0.9,0.4548034855,0.1
"570",580,"Montipora_undata",4.743981952,0.01,4.69654213248,0.99,0.0474398195200001,0.01
"571",581,"Montipora_vaughani",4.663829721,0.1,4.1974467489,0.9,0.4663829721,0.1
"572",582,"Montipora_venosa",4.684660446,0.01,4.63781384154,0.99,0.0468466044599998,0.00999999999999995
"573",583,"Montipora_verrilli",3.854814289,0.1,3.4693328601,0.9,0.3854814289,0.1
"574",584,"Montipora_verrucosa",4.732098454,1e-04,4.7316252441546,0.9999,0.000473209845400113,0.000100000000000024
"575",585,"Montipora_verruculosus",4.611897395,0.1,4.1507076555,0.9,0.4611897395,0.1
"576",586,"Montipora_vietnamensis",4.694511504,0.1,4.2250603536,0.9,0.4694511504,0.1
"577",587,"Moseleya_latistellata",37.146699,0.1,33.4320291,0.9,3.7146699,0.0999999999999999
"578",588,"Mussa_angulosa",10.05843882,1e-04,10.057432976118,0.9999,0.00100584388199998,9.99999999999979e-05
"579",589,"Mussismilia_braziliensis",8.164742381,0.1,7.3482681429,0.9,0.8164742381,0.1
"580",590,"Mussismilia_harttii",9.829349503,0.1,8.8464145527,0.9,0.982934950299999,0.0999999999999999
"581",591,"Mussismilia_hispida",7.133617524,0.1,6.4202557716,0.9,0.7133617524,0.1
"582",592,"Mycedium_elephantotus",2.893613262,1e-04,2.8933239006738,0.9999,0.000289361326200055,0.000100000000000019
"583",593,"Mycedium_mancaoi",2.886152528,1e-04,2.8858639127472,0.9999,0.000288615252800106,0.000100000000000037
"584",594,"Mycedium_robokaki",2.946939109,1e-04,2.9466444150891,0.9999,0.00029469391090009,0.000100000000000031
"585",595,"Mycedium_spina",3.120129354,0.1,2.8081164186,0.9,0.3120129354,0.1
"586",596,"Mycedium_steeni",2.946939109,0.1,2.6522451981,0.9,0.2946939109,0.1
"587",597,"Mycedium_umbra",2.893003864,1e-04,2.8927145636136,0.9999,0.000289300386400182,0.000100000000000063
"588",598,"Mycetophyllia_aliciae",4.486025524,1e-04,4.4855769214476,0.9999,0.000448602552399535,9.99999999998964e-05
"589",599,"Mycetophyllia_danaana",4.709634714,1e-04,4.7091637505286,0.9999,0.000470963471399521,9.99999999998984e-05
"590",600,"Mycetophyllia_ferox",5.033531535,0.1,4.5301783815,0.9,0.5033531535,0.1
"591",601,"Mycetophyllia_lamarckiana",4.486025524,1e-04,4.4855769214476,0.9999,0.000448602552399535,9.99999999998964e-05
"592",602,"Mycetophyllia_reesi",4.691304991,0.1,4.2221744919,0.9,0.4691304991,0.1
"593",603,"Nemenzophyllia_turbida",11.408896,0.1,10.2680064,0.9,1.1408896,0.1
"594",604,"Oculina_diffusa",8.827295903,1e-04,8.8264131734097,0.9999,0.000882729590300002,1e-04
"595",605,"Oculina_patagonica",8.83415153,1e-04,8.833268114847,0.9999,0.000883415152999945,9.99999999999937e-05
"596",606,"Oculina_robusta",8.730359486,0.1,7.8573235374,0.9,0.8730359486,0.1
"597",607,"Oculina_tenella",8.786121869,0.1,7.9075096821,0.9,0.8786121869,0.1
"598",608,"Oculina_valenciennesi",8.782820574,0.1,7.9045385166,0.9,0.8782820574,0.1
"599",609,"Oculina_varicosa",8.819057282,0.1,7.9371515538,0.9,0.8819057282,0.1
"600",610,"Oulastrea_crispata",24.41779183,1e-04,24.415350050817,0.9999,0.00244177918299826,9.99999999999288e-05
"601",611,"Oulophyllia_bennettae",4.484655728,0.01,4.43980917072,0.99,0.0448465572799996,0.00999999999999992
"602",612,"Oulophyllia_crispa",4.17899352,0.01,4.1372035848,0.99,0.0417899351999997,0.00999999999999994
"603",613,"Oulophyllia_levis",4.17899352,1e-04,4.178575620648,0.9999,0.000417899351999651,9.99999999999165e-05
"604",614,"Oxypora_convoluta",7.311606827,0.1,6.5804461443,0.9,0.7311606827,0.1
"605",615,"Oxypora_crassispinosa",6.596280513,1e-04,6.5956208849487,0.9999,0.000659628051299599,9.99999999999392e-05
"606",616,"Oxypora_egyptensis",6.6437728,0.1,5.97939552,0.9,0.66437728,0.1
"607",617,"Oxypora_glabra",6.648733478,1e-04,6.6480686046522,0.9999,0.000664873347799855,9.99999999999782e-05
"608",618,"Oxypora_lacera",7.311606827,1e-04,7.3108756663173,0.9999,0.000731160682700072,0.00010000000000001
"609",619,"Pachyseris_foliosa",13.34484775,1e-04,13.343513265225,0.9999,0.00133448477500053,0.00010000000000004
"610",620,"Pachyseris_gemmae",12.02817641,0.01,11.9078946459,0.99,0.1202817641,0.00999999999999996
"611",621,"Pachyseris_involuta",13.34484775,0.1,12.010362975,0.9,1.334484775,0.1
"612",622,"Pachyseris_rugosa",12.01815973,0.1,10.816343757,0.9,1.201815973,0.1
"613",623,"Pachyseris_speciosa",11.98118461,1e-04,11.979986491539,0.9999,0.00119811846099971,9.99999999999757e-05
"614",624,"Palauastrea_ramosa",26.22382443,0.01,25.9615861857,0.99,0.262238244300001,0.01
"615",625,"Paraclavarina_triangularis",3.51914068,0.01,3.4839492732,0.99,0.0351914068000001,0.01
"616",626,"Parasimplastrea_sheppardi",8.070026231,0.667,2.687318734923,0.333,5.382707496077,0.667
"617",627,"Pavona_bipartita",4.767684982,0.1,4.2909164838,0.9,0.4767684982,0.1
"618",628,"Pavona_cactus",4.759926161,0.1,4.2839335449,0.9,0.4759926161,0.1
"619",629,"Pavona_chiriquiensis",4.761629804,1e-04,4.7611536410196,0.9999,0.000476162980399764,9.99999999999503e-05
"620",630,"Pavona_clavus",4.788629924,1e-04,4.7881510610076,0.9999,0.00047886299239952,9.99999999998998e-05
"621",631,"Pavona_danai",4.704349949,0.1,4.2339149541,0.9,0.4704349949,0.1
"622",632,"Pavona_decussata",4.739865306,0.1,4.2658787754,0.9,0.4739865306,0.0999999999999999
"623",633,"Pavona_diffluens",4.777122938,0.1,4.2994106442,0.9,0.4777122938,0.1
"624",634,"Pavona_duerdeni",4.709039803,1e-04,4.7085688990197,0.9999,0.000470903980300363,0.000100000000000077
"625",635,"Pavona_explanulata",4.713395053,1e-04,4.7129237134947,0.9999,0.000471339505299539,9.99999999999023e-05
"626",636,"Pavona_frondifera",4.744653227,1e-04,4.7441787616773,0.9999,0.000474465322700013,0.000100000000000003
"627",637,"Pavona_gigantea",4.695793846,1e-04,4.6953242666154,0.9999,0.000469579384599683,9.99999999999325e-05
"628",638,"Pavona_maldivensis",4.73133821,1e-04,4.730865076179,0.9999,0.000473133821000005,0.000100000000000001
"629",639,"Pavona_minuta",4.689832236,0.01,4.64293391364,0.99,0.0468983223599997,0.00999999999999993
"630",640,"Pavona_varians",4.760384441,1e-04,4.7599084025559,0.9999,0.000476038444100269,0.000100000000000056
"631",641,"Pavona_venosa",4.718771605,0.1,4.2468944445,0.9,0.4718771605,0.1
"632",642,"Pavona_xarifae",4.671123138,0.1,4.2040108242,0.9,0.4671123138,0.0999999999999999
"633",643,"Pectinia_africanus",3.391560343,0.1,3.0524043087,0.9,0.3391560343,0.0999999999999999
"634",644,"Pectinia_alcicornis",4.18576328,0.1,3.767186952,0.9,0.418576328,0.1
"635",645,"Pectinia_ayleni",3.388083994,0.01,3.35420315406,0.99,0.0338808399400001,0.01
"636",646,"Pectinia_crassa",4.141534899,0.1,3.7273814091,0.9,0.4141534899,0.1
"637",647,"Pectinia_elongata",3.563531318,0.01,3.52789600482,0.99,0.0356353131800002,0.0100000000000001
"638",648,"Pectinia_lactuca",3.396439045,0.1,3.0567951405,0.9,0.3396439045,0.1
"639",649,"Pectinia_maxima",3.397603129,0.667,1.131401841957,0.333,2.266201287043,0.667
"640",650,"Pectinia_paeonia",4.104153621,0.01,4.06311208479,0.99,0.0410415362099998,0.00999999999999996
"641",651,"Pectinia_pygmaeus",3.58306957,0.01,3.5472388743,0.99,0.0358306957000001,0.01
"642",652,"Pectinia_teres",3.588045895,0.01,3.55216543605,0.99,0.0358804589499999,0.00999999999999998
"643",653,"Physogyra_lichtensteini",12.32702392,0.1,11.094321528,0.9,1.232702392,0.1
"644",654,"Platygyra_acuta",3.068945069,0.01,3.03825561831,0.99,0.0306894506900002,0.0100000000000001
"645",655,"Platygyra_carnosus",3.733587192,0.01,3.69625132008,0.99,0.0373358719199999,0.00999999999999997
"646",656,"Platygyra_contorta",3.066214565,1e-04,3.0659079435435,0.9999,0.000306621456500178,0.000100000000000058
"647",657,"Platygyra_crosslandi",3.706859323,0.01,3.66979072977,0.99,0.0370685932299999,0.00999999999999997
"648",658,"Platygyra_daedalea",3.672194372,1e-04,3.6718271525628,0.9999,0.000367219437199751,9.99999999999321e-05
"649",659,"Platygyra_lamellina",2.923581708,0.01,2.89434589092,0.99,0.02923581708,0.01
"650",660,"Platygyra_pini",3.694560132,1e-04,3.6941906759868,0.9999,0.000369456013200153,0.000100000000000042
"651",661,"Platygyra_ryukyuensis",3.068945069,0.01,3.03825561831,0.99,0.0306894506900002,0.0100000000000001
"652",662,"Platygyra_sinensis",3.713786347,1e-04,3.7134149683653,0.9999,0.000371378634699937,9.9999999999983e-05
"653",663,"Platygyra_verweyi",2.923581708,0.01,2.89434589092,0.99,0.02923581708,0.01
"654",664,"Platygyra_yaeyamaensis",3.666688185,0.1,3.3000193665,0.9,0.3666688185,0.1
"655",665,"Plerogyra_cauliformis",10.32536097,0.1,9.292824873,0.9,1.032536097,0.1
"656",666,"Plerogyra_diabolotus",10.33388024,0.1,9.300492216,0.9,1.033388024,0.0999999999999999
"657",667,"Plerogyra_discus",10.33303569,0.1,9.299732121,0.9,1.033303569,0.0999999999999999
"658",668,"Plerogyra_multilobata",10.33388024,0.1,9.300492216,0.9,1.033388024,0.0999999999999999
"659",669,"Plerogyra_simplex",10.32536097,0.01,10.2221073603,0.99,0.103253609699999,0.00999999999999994
"660",670,"Plerogyra_sinuosa",10.33303569,0.01,10.2297053331,0.99,0.103330356900001,0.0100000000000001
"661",671,"Plesiastrea_devantieri",14.06436777,0.01,13.9237240923,0.99,0.1406436777,0.01
"662",672,"Plesiastrea_versipora",50.26448285,1e-04,50.259456401715,0.9999,0.00502644828500109,0.000100000000000022
"663",673,"Pleuractis_granulosa",6.387610345,1e-04,6.3869715839655,0.9999,0.00063876103449978,9.99999999999655e-05
"664",675,"Pleuractis_moluccensis",5.896133139,1e-04,5.8955435256861,0.9999,0.000589613313899839,9.99999999999728e-05
"665",676,"Pleuractis_paumotensis",6.315578569,1e-04,6.3149470111431,0.9999,0.000631557856899612,9.99999999999385e-05
"666",677,"Pleuractis_seychellensis",6.315578569,0.1,5.6840207121,0.9,0.6315578569,0.1
"667",678,"Pleuractis_taiwanensis",5.896133139,0.1,5.3065198251,0.9,0.5896133139,0.1
"668",679,"Pocillopora_ankeli",7.498808036,0.1,6.7489272324,0.9,0.7498808036,0.1
"669",680,"Pocillopora_capitata",7.431244411,1e-04,7.4305012865589,0.9999,0.000743124441100029,0.000100000000000004
"670",681,"Pocillopora_damicornis",7.230201656,1e-04,7.2294786358344,0.9999,0.000723020165599664,9.99999999999535e-05
"671",682,"Pocillopora_danae",7.356618253,0.1,6.6209564277,0.9,0.7356618253,0.1
"672",683,"Pocillopora_effusus",7.264854567,0.1,6.5383691103,0.9,0.7264854567,0.1
"673",684,"Pocillopora_elegans",7.319241232,0.1,6.5873171088,0.9,0.7319241232,0.1
"674",685,"Pocillopora_eydouxi",7.400470991,0.01,7.32646628109,0.99,0.0740047099099996,0.00999999999999995
"675",686,"Pocillopora_fungiformis",7.270032519,0.667,2.420920828827,0.333,4.849111690173,0.667
"676",687,"Pocillopora_indiania",7.390925611,0.1,6.6518330499,0.9,0.7390925611,0.1
"677",688,"Pocillopora_inflata",7.211734023,0.1,6.4905606207,0.9,0.7211734023,0.1
"678",689,"Pocillopora_kelleheri",7.450211771,1e-04,7.4494667498229,0.9999,0.000745021177100291,0.000100000000000039
"679",690,"Pocillopora_ligulata",7.350570989,1e-04,7.3498359319011,0.9999,0.000735057098899539,9.99999999999372e-05
"680",691,"Pocillopora_meandrina",7.324264889,1e-04,7.3235324625111,0.9999,0.000732426488899485,9.99999999999296e-05
"681",692,"Pocillopora_molokensis",7.417222398,0.1,6.6755001582,0.9,0.7417222398,0.1
"682",693,"Pocillopora_setichelli",7.270772509,1e-04,7.2700454317491,0.9999,0.000727077250900265,0.000100000000000037
"683",694,"Pocillopora_verrucosa",7.455130495,1e-04,7.4543849819505,0.9999,0.000745513049499991,9.99999999999987e-05
"684",695,"Pocillopora_woodjonesi",7.298784201,1e-04,7.2980543225799,0.9999,0.000729878420099972,9.99999999999962e-05
"685",696,"Pocillopora_zelli",7.342517899,1e-04,7.3417836472101,0.9999,0.000734251789899609,9.99999999999468e-05
"686",697,"Podabacia_crustacea",5.741314492,1e-04,5.7407403605508,0.9999,0.000574131449200266,0.000100000000000046
"687",699,"Podabacia_motuporensis",6.908422473,0.01,6.83933824827,0.99,0.0690842247300001,0.01
"688",700,"Podabacia_sinai",6.066060421,0.1,5.4594543789,0.9,0.6066060421,0.1
"689",701,"Polyphyllia_novaehiberniae",6.622603247,0.01,6.55637721453,0.99,0.0662260324700004,0.0100000000000001
"690",702,"Polyphyllia_talpina",6.622603247,1e-04,6.6219409866753,0.9999,0.000662260324699737,9.99999999999603e-05
"691",703,"Porites_annae",5.458577937,0.01,5.40399215763,0.99,0.05458577937,0.01
"692",704,"Porites_aranetai",5.615537382,0.1,5.0539836438,0.9,0.5615537382,0.1
"693",705,"Porites_arnaudi",5.248126408,1e-04,5.2476015953592,0.9999,0.00052481264079951,9.99999999999067e-05
"694",706,"Porites_astreoides",5.464633501,1e-04,5.4640870376499,0.9999,0.000546463350099557,9.9999999999919e-05
"695",707,"Porites_attenuata",5.551237672,0.1,4.9961139048,0.9,0.5551237672,0.0999999999999999
"696",708,"Porites_australiensis",5.307038806,1e-04,5.3065081021194,0.9999,0.000530703880599503,9.99999999999064e-05
"697",709,"Porites_baueri",5.59938831,0.1,5.039449479,0.9,0.559938831,0.1
"698",710,"Porites_bernardi",5.704603464,1e-04,5.7040330036536,0.9999,0.000570460346399848,9.99999999999734e-05
"699",711,"Porites_branneri",5.405950401,0.01,5.35189089699,0.99,0.0540595040100005,0.0100000000000001
"700",712,"Porites_brighami",5.472921037,1e-04,5.4723737448963,0.9999,0.000547292103699526,9.99999999999134e-05
"701",713,"Porites_cocosensis",5.347198595,0.1,4.8124787355,0.9,0.5347198595,0.1
"702",714,"Porites_colonensis",5.15409217,0.1,4.638682953,0.9,0.515409217,0.1
"703",715,"Porites_columnaris",5.381266017,1e-04,5.3807278903983,0.9999,0.000538126601700384,0.000100000000000071
"704",716,"Porites_compressa",4.908406416,1e-04,4.9079155753584,0.9999,0.000490840641599988,9.99999999999975e-05
"705",717,"Porites_cumulatus",5.537506619,0.1,4.9837559571,0.9,0.5537506619,0.0999999999999999
"706",718,"Porites_cylindrica",5.833639953,0.01,5.77530355347,0.99,0.0583363995299999,0.00999999999999999
"707",719,"Porites_decasepta",5.387276591,0.1,4.8485489319,0.9,0.5387276591,0.1
"708",720,"Porites_deformis",5.507053766,0.01,5.45198322834,0.99,0.0550705376599998,0.00999999999999996
"709",721,"Porites_densa",5.46856092,0.01,5.4138753108,0.99,0.0546856091999999,0.00999999999999998
"710",722,"Porites_desilveri",5.450089209,0.667,1.814879706597,0.333,3.635209502403,0.667
"711",723,"Porites_divaricata",5.254908779,1e-04,5.2543832881221,0.9999,0.00052549087789977,9.99999999999563e-05
"712",724,"Porites_duerdeni",4.908406416,1e-04,4.9079155753584,0.9999,0.000490840641599988,9.99999999999975e-05
"713",725,"Porites_echinulata",5.290500219,0.01,5.23759521681,0.99,0.0529050021900002,0.01
"714",726,"Porites_ericacea",5.47707106,0.1,4.929363954,0.9,0.547707106,0.1
"715",727,"Porites_eridani",5.489485321,0.667,1.827998611893,0.333,3.661486709107,0.667
"716",728,"Porites_evermanni",5.452202791,0.1,4.9069825119,0.9,0.5452202791,0.0999999999999999
"717",729,"Porites_excavata",5.393179794,0.1,4.8538618146,0.9,0.5393179794,0.1
"718",730,"Porites_flavus",5.418706085,0.1,4.8768354765,0.9,0.5418706085,0.1
"719",731,"Porites_furcata",5.310878952,1e-04,5.3103478641048,0.9999,0.000531087895200066,0.000100000000000012
"720",732,"Porites_harrisoni",5.478965733,0.01,5.42417607567,0.99,0.0547896573299997,0.00999999999999995
"721",733,"Porites_heronensis",5.397029807,1e-04,5.3964901040193,0.9999,0.000539702980700163,0.00010000000000003
"722",734,"Porites_horizontalata",5.506801114,0.1,4.9561210026,0.9,0.5506801114,0.1
"723",735,"Porites_latistella",5.44058508,1e-04,5.440041021492,0.9999,0.000544058507999878,9.99999999999776e-05
"724",736,"Porites_lichen",4.161106545,1e-04,4.1606904343455,0.9999,0.000416110654500201,0.000100000000000048
"725",737,"Porites_lobata",6.711817854,0.01,6.64469967546,0.99,0.0671181785400004,0.0100000000000001
"726",738,"Porites_lutea",4.374598674,1e-04,4.3741612141326,0.9999,0.000437459867399959,9.99999999999905e-05
"727",739,"Porites_mayeri",5.542408718,1e-04,5.5418544771282,0.9999,0.000554240871800005,0.000100000000000001
"728",740,"Porites_monticulosa",5.524673957,1e-04,5.5241214896043,0.9999,0.000552467395699807,9.99999999999651e-05
"729",741,"Porites_murrayensis",5.235860028,0.01,5.18350142772,0.99,0.0523586002799998,0.00999999999999997
"730",742,"Porites_myrmidonensis",5.429279054,1e-04,5.4287361260946,0.9999,0.000542927905399893,9.99999999999802e-05
"731",743,"Porites_napopora",5.539641917,0.1,4.9856777253,0.9,0.5539641917,0.0999999999999999
"732",744,"Porites_negrosensis",5.660909199,0.01,5.60430010701,0.99,0.0566090919900004,0.0100000000000001
"733",745,"Porites_nigrescens",5.512830088,0.1,4.9615470792,0.9,0.5512830088,0.0999999999999999
"734",746,"Porites_nodifera",5.257044923,1e-04,5.2565192185077,0.9999,0.000525704492299717,9.99999999999461e-05
"735",747,"Porites_okinawensis",4.374598674,0.1,3.9371388066,0.9,0.4374598674,0.1
"736",748,"Porites_ornata",5.255064678,0.667,1.749936537774,0.333,3.505128140226,0.667
"737",749,"Porites_panamensis",5.401348646,1e-04,5.4008085111354,0.9999,0.000540134864600361,0.000100000000000067
"738",750,"Porites_porites",5.319356256,1e-04,5.3188243203744,0.9999,0.000531935625599722,9.99999999999478e-05
"739",751,"Porites_profundus",5.274214564,1e-04,5.2736871425436,0.9999,0.000527421456399502,9.99999999999055e-05
"740",752,"Porites_pukoensis",5.622867783,0.999,0.00562286778300001,0.001,5.617244915217,0.999
"741",754,"Porites_rugosa",5.401868779,0.1,4.8616819011,0.9,0.5401868779,0.1
"742",755,"Porites_rus",4.404075445,1e-04,4.4036350374555,0.9999,0.000440407544499699,9.99999999999317e-05
"743",756,"Porites_sillimaniana",5.410484113,0.1,4.8694357017,0.9,0.5410484113,0.1
"744",757,"Porites_solida",5.264157604,1e-04,5.2636311882396,0.9999,0.000526415760400134,0.000100000000000025
"745",758,"Porites_somaliensis",5.262891308,0.01,5.21026239492,0.99,0.0526289130800004,0.0100000000000001
"746",759,"Porites_stephensoni",5.565255152,0.01,5.50960260048,0.99,0.0556525515199997,0.00999999999999995
"747",760,"Porites_studeri",5.163781234,1e-04,5.1632648558766,0.9999,0.00051637812340033,0.000100000000000064
"748",761,"Porites_sverdrupi",5.446772629,0.1,4.9020953661,0.9,0.5446772629,0.0999999999999999
"749",762,"Porites_tuberculosa",5.473835031,0.1,4.9264515279,0.9,0.5473835031,0.1
"750",763,"Porites_vaughani",5.406938436,1e-04,5.4063977421564,0.9999,0.000540693843600337,0.000100000000000062
"751",764,"Poritipora_paliformis",75.75624421,0.1,68.180619789,0.9,7.575624421,0.1
"752",765,"Psammocora_albopicta",6.504571209,0.1,5.8541140881,0.9,0.6504571209,0.1
"753",766,"Psammocora_contigua",6.491378672,0.01,6.42646488528,0.99,0.06491378672,0.01
"754",767,"Psammocora_decussata",6.499221357,0.1,5.8492992213,0.9,0.6499221357,0.1
"755",768,"Psammocora_digitata",6.417577829,0.01,6.35340205071,0.99,0.0641757782900001,0.01
"756",769,"Psammocora_explanulata",6.669380957,1e-04,6.6687140189043,0.9999,0.000666938095699621,9.99999999999431e-05
"757",770,"Psammocora_haimeana",6.398836787,1e-04,6.3981969033213,0.9999,0.000639883678699604,9.99999999999382e-05
"758",771,"Psammocora_interstinctus",6.455716086,0.1,5.8101444774,0.9,0.6455716086,0.1
"759",772,"Psammocora_nierstraszi",6.417157349,1e-04,6.4165156332651,0.9999,0.000641715734899684,9.99999999999507e-05
"760",773,"Psammocora_obtusangula",6.487038359,0.01,6.42216797541,0.99,0.0648703835899997,0.00999999999999996
"761",774,"Psammocora_profundacella",6.584138596,1e-04,6.5834801821404,0.9999,0.000658413859599527,9.99999999999282e-05
"762",775,"Psammocora_ramosa",6.693620265,0.1,6.0242582385,0.9,0.6693620265,0.1
"763",776,"Psammocora_stellata",6.322516857,0.1,5.6902651713,0.9,0.6322516857,0.1
"764",777,"Psammocora_superficialis",6.48872416,1e-04,6.488075287584,0.9999,0.000648872415999868,9.99999999999797e-05
"765",778,"Psammocora_vaughani",6.470469034,0.01,6.40576434366,0.99,0.0647046903400001,0.01
"766",779,"Psammocora_verrilli",6.380062768,0.1,5.7420564912,0.9,0.6380062768,0.1
"767",780,"Pseudosiderastrea_tayami",13.19305826,0.01,13.0611276774,0.99,0.131930582600001,0.0100000000000001
"768",781,"Sandalolitha_dentata",5.723394057,1e-04,5.7228217175943,0.9999,0.000572339405700006,0.000100000000000001
"769",782,"Sandalolitha_robusta",5.744322062,1e-04,5.7437476297938,0.9999,0.000574432206200015,0.000100000000000003
"770",783,"Scapophyllia_cylindrica",4.514921716,1e-04,4.5144702238284,0.9999,0.000451492171600343,0.000100000000000076
"771",784,"Schizoculina_africana",8.647102849,0.1,7.7823925641,0.9,0.8647102849,0.1
"772",785,"Schizoculina_fissipara",8.647102849,0.1,7.7823925641,0.9,0.8647102849,0.1
"773",786,"Scolymia_australis",11.9531533,1e-04,11.95195798467,0.9999,0.0011953153299995,9.99999999999584e-05
"774",787,"Scolymia_cubensis",4.287674028,1e-04,4.2872452605972,0.9999,0.00042876740280029,0.000100000000000068
"775",788,"Scolymia_lacera",4.424196046,1e-04,4.4237536263954,0.9999,0.000442419604599564,9.99999999999015e-05
"776",789,"Scolymia_vitiensis",11.9531533,0.01,11.833621767,0.99,0.119531533,0.01
"777",790,"Scolymia_wellsi",4.287674028,0.1,3.8589066252,0.9,0.4287674028,0.0999999999999999
"778",791,"Seriatopora_aculeata",8.872260953,0.1,7.9850348577,0.9,0.8872260953,0.1
"779",792,"Seriatopora_caliendrum",9.695027016,0.01,9.59807674584,0.99,0.0969502701600007,0.0100000000000001
"780",793,"Seriatopora_dendritica",8.509197612,0.1,7.6582778508,0.9,0.8509197612,0.1
"781",794,"Seriatopora_guttatus",8.511913732,1e-04,8.5110625406268,0.9999,0.000851191373200777,0.000100000000000091
"782",795,"Seriatopora_hystrix",8.516952554,1e-04,8.5161008587446,0.9999,0.000851695255400742,0.000100000000000087
"783",796,"Seriatopora_stellata",8.872260953,0.01,8.78353834347,0.99,0.0887226095300004,0.0100000000000001
"784",797,"Siderastrea_glynni",26.5732554,0.999,0.0265732554,0.001,26.5466821446,0.999
"785",798,"Siderastrea_radians",26.64221032,1e-04,26.639546098968,0.9999,0.00266422103199915,9.9999999999968e-05
"786",799,"Siderastrea_savignyana",26.54351387,1e-04,26.540859518613,0.9999,0.00265435138700099,0.000100000000000037
"787",800,"Siderastrea_siderea",26.5346103,1e-04,26.53195683897,0.9999,0.00265346103000041,0.000100000000000016
"788",801,"Siderastrea_stellata",26.46512928,0.1,23.818616352,0.9,2.646512928,0.1
"789",802,"Simplastrea_vesicularis",10.27127692,0.1,9.244149228,0.9,1.027127692,0.1
"790",803,"Solenastrea_bournoni",19.54516187,1e-04,19.543207353813,0.9999,0.00195451618699849,9.99999999999227e-05
"791",804,"Solenastrea_hyades",8.78769782,1e-04,8.786819050218,0.9999,0.000878769782000077,0.000100000000000009
"792",805,"Stephanocoenia_intersepta",125.004425,1e-04,124.9919245575,0.9999,0.0125004424999986,9.99999999999888e-05
"793",806,"Stylaraea_punctata",28.44560341,0.1,25.601043069,0.9,2.844560341,0.1
"794",807,"Stylocoeniella_armata",17.6448563,1e-04,17.64309181437,0.9999,0.00176448562999809,9.99999999998918e-05
"795",808,"Stylocoeniella_cocosensis",19.51503084,0.1,17.563527756,0.9,1.951503084,0.0999999999999999
"796",809,"Stylocoeniella_guentheri",17.6448563,1e-04,17.64309181437,0.9999,0.00176448562999809,9.99999999998918e-05
"797",810,"Stylocoeniella_muscosus",19.33516572,0.1,17.401649148,0.9,1.933516572,0.0999999999999999
"798",811,"Stylophora_danae",8.743832215,1e-04,8.7429578317785,0.9999,0.000874383221500352,0.00010000000000004
"799",812,"Stylophora_kuehlmanni",8.386225756,1e-04,8.3853871334244,0.9999,0.000838622575599857,9.99999999999829e-05
"800",813,"Stylophora_madagascarensis",8.384100581,0.667,2.791905493473,0.333,5.592195087527,0.667
"801",814,"Stylophora_mamillata",9.556469044,1e-04,9.5555133970956,0.9999,0.000955646904399643,9.99999999999626e-05
"802",815,"Stylophora_pistillata",8.743832215,0.01,8.65639389285,0.99,0.0874383221499997,0.00999999999999997
"803",816,"Stylophora_subseriata",8.386251466,1e-04,8.3854128408534,0.9999,0.00083862514659927,9.9999999999913e-05
"804",817,"Stylophora_wellsi",9.599492662,0.01,9.50349773538,0.99,0.0959949266199995,0.00999999999999995
"805",818,"Symphyllia_agaricia",4.967996333,1e-04,4.9674995333667,0.9999,0.000496799633300071,0.000100000000000014
"806",819,"Symphyllia_erythraea",6.805267375,1e-04,6.8045868482625,0.9999,0.000680526737499854,9.99999999999785e-05
"807",820,"Symphyllia_hassi",6.821961315,0.1,6.1397651835,0.9,0.6821961315,0.0999999999999999
"808",821,"Symphyllia_radians",5.160606423,1e-04,5.1600903623577,0.9999,0.000516060642300253,0.000100000000000049
"809",822,"Symphyllia_recta",4.895173732,1e-04,4.8946842146268,0.9999,0.000489517373200243,0.00010000000000005
"810",823,"Symphyllia_valenciennesii",6.797330242,1e-04,6.7966505089758,0.9999,0.000679733024200324,0.000100000000000048
"811",824,"Symphyllia_wilsoni",4.895173732,1e-04,4.8946842146268,0.9999,0.000489517373200243,0.00010000000000005
"812",825,"Trachyphyllia_geoffroyi",5.839393109,0.01,5.78099917791,0.99,0.0583939310900004,0.0100000000000001
"813",826,"Turbinaria_bifrons",16.05377928,0.1,14.448401352,0.9,1.605377928,0.1
"814",827,"Turbinaria_conspicua",16.20527849,1e-04,16.203657962151,0.9999,0.00162052784899913,9.99999999999464e-05
"815",829,"Turbinaria_frondens",15.93792485,1e-04,15.936331057515,0.9999,0.00159379248500002,0.000100000000000001
"816",830,"Turbinaria_heronensis",16.31654021,0.1,14.684886189,0.9,1.631654021,0.1
"817",831,"Turbinaria_irregularis",16.68151312,1e-04,16.679844968688,0.9999,0.00166815131199982,9.99999999999893e-05
"818",832,"Turbinaria_mesenterina",16.5761365,0.1,14.91852285,0.9,1.65761365,0.1
"819",833,"Turbinaria_patula",16.09104885,0.1,14.481943965,0.9,1.609104885,0.0999999999999999
"820",834,"Turbinaria_peltata",16.42166023,0.1,14.779494207,0.9,1.642166023,0.1
"821",835,"Turbinaria_radicalis",16.28724765,0.01,16.1243751735,0.99,0.162872476499999,0.00999999999999992
"822",836,"Turbinaria_reniformis",16.14904673,0.1,14.534142057,0.9,1.614904673,0.1
"823",837,"Turbinaria_stellulata",15.77543067,0.1,14.197887603,0.9,1.577543067,0.1
"824",838,"Zoopilus_echinatus",6.736419796,1e-04,6.7357461540204,0.9999,0.00067364197960007,0.00010000000000001
"825",1,"Arctocephalus_australis",5.230657294,1e-04,5.2301342282706,0.9999,0.000523065729399974,9.9999999999995e-05
"826",2,"Arctocephalus_forsteri",5.196520348,1e-04,5.1960006959652,0.9999,0.000519652034800089,0.000100000000000017
"827",3,"Arctocephalus_galapagoensis",5.187596287,0.667,1.727469563571,0.333,3.460126723429,0.667
"828",4,"Arctocephalus_gazella",6.266991461,1e-04,6.2663647618539,0.9999,0.000626699146099696,9.99999999999515e-05
"829",5,"Arctocephalus_philippii",5.245931408,0.01,5.19347209392,0.99,0.05245931408,0.01
"830",6,"Arctocephalus_pusillus",11.2210282,1e-04,11.21990609718,0.9999,0.00112210282000014,0.000100000000000012
"831",7,"Arctocephalus_townsendi",7.373643767,0.01,7.29990732933,0.99,0.07373643767,0.01
"832",8,"Arctocephalus_tropicalis",6.267387118,1e-04,6.2667603792882,0.9999,0.000626738711799746,9.99999999999594e-05
"833",9,"Balaena_mysticetus",18.46664595,1e-04,18.464799285405,0.9999,0.00184666459499994,9.99999999999965e-05
"834",10,"Balaenoptera_acutorostrata",20.00397526,1e-04,20.001974862474,0.9999,0.00200039752600034,0.000100000000000017
"835",11,"Balaenoptera_borealis",18.74401536,0.667,6.24175711488,0.333,12.50225824512,0.667
"836",12,"Balaenoptera_musculus",21.21643663,0.667,7.06507339779,0.333,14.15136323221,0.667
"837",13,"Balaenoptera_physalus",22.31916835,0.667,7.43228306055,0.333,14.88688528945,0.667
"838",14,"Callorhinus_ursinus",11.32782446,0.1,10.195042014,0.9,1.132782446,0.1
"839",15,"Cephalorhynchus_eutropia",7.770621782,0.01,7.69291556418,0.99,0.0777062178200003,0.01
"840",16,"Cephalorhynchus_hectori",8.550751858,0.667,2.847400368714,0.333,5.703351489286,0.667
"841",17,"Cystophora_cristata",14.36493553,0.1,12.928441977,0.9,1.436493553,0.1
"842",18,"Delphinapterus_leucas",21.37410776,0.01,21.1603666824,0.99,0.213741077600002,0.0100000000000001
"843",19,"Delphinus_delphis",8.263979293,1e-04,8.2631528950707,0.9999,0.000826397929300171,0.000100000000000021
"844",20,"Dugong_dugon",59.29626074,0.1,53.366634666,0.9,5.929626074,0.1
"845",21,"Erignathus_barbatus",20.67579956,1e-04,20.673731980044,0.9999,0.00206757995599816,9.99999999999108e-05
"846",22,"Eubalaena_australis",14.19979928,1e-04,14.198379300072,0.9999,0.00141997992800036,0.000100000000000025
"847",23,"Eubalaena_glacialis",14.10040054,0.667,4.69543337982,0.333,9.40496716018,0.667
"848",24,"Eubalaena_japonica",14.10040054,0.667,4.69543337982,0.333,9.40496716018,0.667
"849",25,"Eumetopias_jubatus",9.875371314,0.01,9.77661760086,0.99,0.0987537131400007,0.0100000000000001
"850",26,"Grampus_griseus",8.772989936,1e-04,8.7721126370064,0.9999,0.000877298993600562,0.000100000000000064
"851",27,"Halichoerus_grypus",7.409660087,1e-04,7.4089191209913,0.9999,0.000740966008700106,0.000100000000000014
"852",28,"Hydrurga_leptonyx",12.48112016,1e-04,12.479872047984,0.9999,0.00124811201600039,0.000100000000000031
"853",29,"Hyperoodon_planifrons",11.70957706,1e-04,11.708406102294,0.9999,0.00117095770599995,9.9999999999996e-05
"854",30,"Lagenodelphis_hosei",8.236297877,1e-04,8.2354742472123,0.9999,0.000823629787699787,9.99999999999741e-05
"855",31,"Lagenorhynchus_acutus",8.354005072,1e-04,8.3531696714928,0.9999,0.000835400507199324,9.99999999999191e-05
"856",32,"Lagenorhynchus_albirostris",8.477175814,1e-04,8.4763280964186,0.9999,0.000847717581400786,0.000100000000000093
"857",33,"Lagenorhynchus_cruciger",8.74016054,1e-04,8.739286523946,0.9999,0.000874016054000393,0.000100000000000045
"858",34,"Lagenorhynchus_obliquidens",8.136448807,1e-04,8.1356351621193,0.9999,0.000813644880700792,0.000100000000000097
"859",35,"Leptonychotes_weddellii",12.28088067,1e-04,12.279652581933,0.9999,0.00122808806700014,0.000100000000000012
"860",36,"Lipotes_vexillifer",39.23933215,0.999,0.03923933215,0.001,39.20009281785,0.999
"861",37,"Lissodelphis_borealis",8.095997234,1e-04,8.0951876342766,0.9999,0.000809599723400112,0.000100000000000014
"862",38,"Lobodon_carcinophaga",12.48112016,1e-04,12.479872047984,0.9999,0.00124811201600039,0.000100000000000031
"863",39,"Megaptera_novaeangliae",21.87406254,1e-04,21.871875133746,0.9999,0.0021874062539986,9.99999999999361e-05
"864",40,"Mirounga_angustirostris",11.20600898,1e-04,11.204888379102,0.9999,0.00112060089800003,0.000100000000000003
"865",41,"Mirounga_leonina",11.20600898,1e-04,11.204888379102,0.9999,0.00112060089800003,0.000100000000000003
"866",42,"Monachus_monachus",16.80653843,0.999,0.01680653843,0.001,16.78973189157,0.999
"867",43,"Monodon_monoceros",21.37410776,0.01,21.1603666824,0.99,0.213741077600002,0.0100000000000001
"868",44,"Neomonachus_schauinslandi",16.80653843,0.999,0.01680653843,0.001,16.78973189157,0.999
"869",45,"Neophoca_cinerea",7.609659935,0.667,2.534016758355,0.333,5.075643176645,0.667
"870",46,"Neophocaena_asiaeorientalis",6.885601082,0.1,6.1970409738,0.9,0.6885601082,0.1
"871",47,"Neophocaena_phocaenoides",6.885601082,0.1,6.1970409738,0.9,0.6885601082,0.1
"872",48,"Ommatophoca_rossii",12.28088067,1e-04,12.279652581933,0.9999,0.00122808806700014,0.000100000000000012
"873",49,"Orcaella_brevirostris",6.474693779,0.1,5.8272244011,0.9,0.6474693779,0.1
"874",50,"Orcaella_heinsohni",6.474693779,0.01,6.40994684121,0.99,0.0647469377899998,0.00999999999999998
"875",51,"Otaria_bryonia",8.810065124,1e-04,8.8091841174876,0.9999,0.000881006512399196,9.99999999999088e-05
"876",52,"Pagophilus_groenlandicus",9.427142269,1e-04,9.4261995547731,0.9999,0.000942714226900065,0.000100000000000007
"877",53,"Peponocephala_electra",10.86916547,1e-04,10.868078553453,0.9999,0.00108691654699911,9.99999999999177e-05
"878",54,"Phoca_vitulina",6.251641069,1e-04,6.2510159048931,0.9999,0.000625164106899945,9.99999999999912e-05
"879",55,"Phocarctos_hookeri",7.609659935,0.1,6.8486939415,0.9,0.7609659935,0.1
"880",56,"Phocoena_phocoena",8.47088596,1e-04,8.470038871404,0.9999,0.000847088596000134,0.000100000000000016
"881",57,"Phocoena_sinus",10.48392406,0.999,0.01048392406,0.001,10.47344013594,0.999
"882",58,"Phocoenoides_dalli",8.220674444,1e-04,8.2198523765556,0.9999,0.000822067444399721,9.99999999999661e-05
"883",59,"Platanista_gangetica",50.03310219,0.667,16.66102302927,0.333,33.37207916073,0.667
"884",60,"Pontoporia_blainvillei",35.83910599,0.1,32.255195391,0.9,3.583910599,0.1
"885",61,"Pusa_caspica",6.652024889,0.667,2.215124288037,0.333,4.436900600963,0.667
"886",62,"Pusa_hispida",6.579331883,1e-04,6.5786739498117,0.9999,0.000657933188300319,0.000100000000000049
"887",63,"Pusa_sibirica",6.575214296,1e-04,6.5745567745704,0.9999,0.000657521429600294,0.000100000000000045
"888",64,"Sousa_chinensis",8.878578954,0.01,8.78979316446,0.99,0.0887857895399993,0.00999999999999992
"889",65,"Sousa_teuszii",8.868760792,0.1,7.9818847128,0.9,0.886876079199999,0.0999999999999999
"890",66,"Stenella_attenuata",8.687480876,1e-04,8.6866121279124,0.9999,0.000868748087599513,9.9999999999944e-05
"891",67,"Stenella_coeruleoalba",8.348515849,1e-04,8.3476809974151,0.9999,0.00083485158489971,9.99999999999652e-05
"892",68,"Steno_bredanensis",8.380780158,1e-04,8.3799420799842,0.9999,0.000838078015799937,9.99999999999925e-05
"893",69,"Trichechus_inunguis",47.89600835,0.1,43.106407515,0.9,4.789600835,0.1
"894",70,"Trichechus_manatus",42.1965272,0.1,37.97687448,0.9,4.21965272,0.1
"895",71,"Trichechus_senegalensis",42.1965272,0.1,37.97687448,0.9,4.21965272,0.1
"896",72,"Tursiops_truncatus",8.31642817,1e-04,8.315596527183,0.9999,0.000831642816999434,9.99999999999319e-05
"897",73,"Zalophus_californianus",9.386519912,1e-04,9.3855812600088,0.9999,0.000938651991200246,0.000100000000000026
"898",74,"Zalophus_wollebaeki",9.386519912,0.667,3.125711130696,0.333,6.260808781304,0.667
"899",75,"Ziphius_cavirostris",11.7595706,1e-04,11.75839464294,0.9999,0.00117595705999918,9.99999999999301e-05
