"","species","ED","PEXT","PEXT.ED","Psurvival","EDloss","propEDloss"
"1","Arctocephalus_australis",5.230657294,1e-04,5.2301342282706,0.9999,0.000523065729399974,9.9999999999995e-05
"2","Arctocephalus_forsteri",5.196520348,1e-04,5.1960006959652,0.9999,0.000519652034800089,0.000100000000000017
"3","Arctocephalus_galapagoensis",5.187596287,0.667,1.727469563571,0.333,3.460126723429,0.667
"4","Arctocephalus_gazella",6.266991461,1e-04,6.2663647618539,0.9999,0.000626699146099696,9.99999999999515e-05
"5","Arctocephalus_philippii",5.245931408,0.01,5.19347209392,0.99,0.05245931408,0.01
"6","Arctocephalus_pusillus",11.2210282,1e-04,11.21990609718,0.9999,0.00112210282000014,0.000100000000000012
"7","Arctocephalus_townsendi",7.373643767,0.01,7.29990732933,0.99,0.07373643767,0.01
"8","Arctocephalus_tropicalis",6.267387118,1e-04,6.2667603792882,0.9999,0.000626738711799746,9.99999999999594e-05
"9","Balaena_mysticetus",18.46664595,1e-04,18.464799285405,0.9999,0.00184666459499994,9.99999999999965e-05
"10","Balaenoptera_acutorostrata",20.00397526,1e-04,20.001974862474,0.9999,0.00200039752600034,0.000100000000000017
"11","Balaenoptera_borealis",18.74401536,0.667,6.24175711488,0.333,12.50225824512,0.667
"12","Balaenoptera_musculus",21.21643663,0.667,7.06507339779,0.333,14.15136323221,0.667
"13","Balaenoptera_physalus",22.31916835,0.667,7.43228306055,0.333,14.88688528945,0.667
"14","Callorhinus_ursinus",11.32782446,0.1,10.195042014,0.9,1.132782446,0.1
"15","Cephalorhynchus_eutropia",7.770621782,0.01,7.69291556418,0.99,0.0777062178200003,0.01
"16","Cephalorhynchus_hectori",8.550751858,0.667,2.847400368714,0.333,5.703351489286,0.667
"17","Cystophora_cristata",14.36493553,0.1,12.928441977,0.9,1.436493553,0.1
"18","Delphinapterus_leucas",21.37410776,0.01,21.1603666824,0.99,0.213741077600002,0.0100000000000001
"19","Delphinus_delphis",8.263979293,1e-04,8.2631528950707,0.9999,0.000826397929300171,0.000100000000000021
"20","Dugong_dugon",59.29626074,0.1,53.366634666,0.9,5.929626074,0.1
"21","Erignathus_barbatus",20.67579956,1e-04,20.673731980044,0.9999,0.00206757995599816,9.99999999999108e-05
"22","Eubalaena_australis",14.19979928,1e-04,14.198379300072,0.9999,0.00141997992800036,0.000100000000000025
"23","Eubalaena_glacialis",14.10040054,0.667,4.69543337982,0.333,9.40496716018,0.667
"24","Eubalaena_japonica",14.10040054,0.667,4.69543337982,0.333,9.40496716018,0.667
"25","Eumetopias_jubatus",9.875371314,0.01,9.77661760086,0.99,0.0987537131400007,0.0100000000000001
"26","Grampus_griseus",8.772989936,1e-04,8.7721126370064,0.9999,0.000877298993600562,0.000100000000000064
"27","Halichoerus_grypus",7.409660087,1e-04,7.4089191209913,0.9999,0.000740966008700106,0.000100000000000014
"28","Hydrurga_leptonyx",12.48112016,1e-04,12.479872047984,0.9999,0.00124811201600039,0.000100000000000031
"29","Hyperoodon_planifrons",11.70957706,1e-04,11.708406102294,0.9999,0.00117095770599995,9.9999999999996e-05
"30","Lagenodelphis_hosei",8.236297877,1e-04,8.2354742472123,0.9999,0.000823629787699787,9.99999999999741e-05
"31","Lagenorhynchus_acutus",8.354005072,1e-04,8.3531696714928,0.9999,0.000835400507199324,9.99999999999191e-05
"32","Lagenorhynchus_albirostris",8.477175814,1e-04,8.4763280964186,0.9999,0.000847717581400786,0.000100000000000093
"33","Lagenorhynchus_cruciger",8.74016054,1e-04,8.739286523946,0.9999,0.000874016054000393,0.000100000000000045
"34","Lagenorhynchus_obliquidens",8.136448807,1e-04,8.1356351621193,0.9999,0.000813644880700792,0.000100000000000097
"35","Leptonychotes_weddellii",12.28088067,1e-04,12.279652581933,0.9999,0.00122808806700014,0.000100000000000012
"36","Lipotes_vexillifer",39.23933215,0.999,0.03923933215,0.001,39.20009281785,0.999
"37","Lissodelphis_borealis",8.095997234,1e-04,8.0951876342766,0.9999,0.000809599723400112,0.000100000000000014
"38","Lobodon_carcinophaga",12.48112016,1e-04,12.479872047984,0.9999,0.00124811201600039,0.000100000000000031
"39","Megaptera_novaeangliae",21.87406254,1e-04,21.871875133746,0.9999,0.0021874062539986,9.99999999999361e-05
"40","Mirounga_angustirostris",11.20600898,1e-04,11.204888379102,0.9999,0.00112060089800003,0.000100000000000003
"41","Mirounga_leonina",11.20600898,1e-04,11.204888379102,0.9999,0.00112060089800003,0.000100000000000003
"42","Monachus_monachus",16.80653843,0.999,0.01680653843,0.001,16.78973189157,0.999
"43","Monodon_monoceros",21.37410776,0.01,21.1603666824,0.99,0.213741077600002,0.0100000000000001
"44","Neomonachus_schauinslandi",16.80653843,0.999,0.01680653843,0.001,16.78973189157,0.999
"45","Neophoca_cinerea",7.609659935,0.667,2.534016758355,0.333,5.075643176645,0.667
"46","Neophocaena_asiaeorientalis",6.885601082,0.1,6.1970409738,0.9,0.6885601082,0.1
"47","Neophocaena_phocaenoides",6.885601082,0.1,6.1970409738,0.9,0.6885601082,0.1
"48","Ommatophoca_rossii",12.28088067,1e-04,12.279652581933,0.9999,0.00122808806700014,0.000100000000000012
"49","Orcaella_brevirostris",6.474693779,0.1,5.8272244011,0.9,0.6474693779,0.1
"50","Orcaella_heinsohni",6.474693779,0.01,6.40994684121,0.99,0.0647469377899998,0.00999999999999998
"51","Otaria_bryonia",8.810065124,1e-04,8.8091841174876,0.9999,0.000881006512399196,9.99999999999088e-05
"52","Pagophilus_groenlandicus",9.427142269,1e-04,9.4261995547731,0.9999,0.000942714226900065,0.000100000000000007
"53","Peponocephala_electra",10.86916547,1e-04,10.868078553453,0.9999,0.00108691654699911,9.99999999999177e-05
"54","Phoca_vitulina",6.251641069,1e-04,6.2510159048931,0.9999,0.000625164106899945,9.99999999999912e-05
"55","Phocarctos_hookeri",7.609659935,0.1,6.8486939415,0.9,0.7609659935,0.1
"56","Phocoena_phocoena",8.47088596,1e-04,8.470038871404,0.9999,0.000847088596000134,0.000100000000000016
"57","Phocoena_sinus",10.48392406,0.999,0.01048392406,0.001,10.47344013594,0.999
"58","Phocoenoides_dalli",8.220674444,1e-04,8.2198523765556,0.9999,0.000822067444399721,9.99999999999661e-05
"59","Platanista_gangetica",50.03310219,0.667,16.66102302927,0.333,33.37207916073,0.667
"60","Pontoporia_blainvillei",35.83910599,0.1,32.255195391,0.9,3.583910599,0.1
"61","Pusa_caspica",6.652024889,0.667,2.215124288037,0.333,4.436900600963,0.667
"62","Pusa_hispida",6.579331883,1e-04,6.5786739498117,0.9999,0.000657933188300319,0.000100000000000049
"63","Pusa_sibirica",6.575214296,1e-04,6.5745567745704,0.9999,0.000657521429600294,0.000100000000000045
"64","Sousa_chinensis",8.878578954,0.01,8.78979316446,0.99,0.0887857895399993,0.00999999999999992
"65","Sousa_teuszii",8.868760792,0.1,7.9818847128,0.9,0.886876079199999,0.0999999999999999
"66","Stenella_attenuata",8.687480876,1e-04,8.6866121279124,0.9999,0.000868748087599513,9.9999999999944e-05
"67","Stenella_coeruleoalba",8.348515849,1e-04,8.3476809974151,0.9999,0.00083485158489971,9.99999999999652e-05
"68","Steno_bredanensis",8.380780158,1e-04,8.3799420799842,0.9999,0.000838078015799937,9.99999999999925e-05
"69","Trichechus_inunguis",47.89600835,0.1,43.106407515,0.9,4.789600835,0.1
"70","Trichechus_manatus",42.1965272,0.1,37.97687448,0.9,4.21965272,0.1
"71","Trichechus_senegalensis",42.1965272,0.1,37.97687448,0.9,4.21965272,0.1
"72","Tursiops_truncatus",8.31642817,1e-04,8.315596527183,0.9999,0.000831642816999434,9.99999999999319e-05
"73","Zalophus_californianus",9.386519912,1e-04,9.3855812600088,0.9999,0.000938651991200246,0.000100000000000026
"74","Zalophus_wollebaeki",9.386519912,0.667,3.125711130696,0.333,6.260808781304,0.667
"75","Ziphius_cavirostris",11.7595706,1e-04,11.75839464294,0.9999,0.00117595705999918,9.99999999999301e-05
