"pct","maxR","Area","propArea","class","taxon"
100,50,28810000,0.868032539921663,"EDGE","Corals"
125,50,28031250,0.860431654676259,"EDGE","Corals"
150,49,28552500,0.869178082191781,"EDGE","Corals"
175,50,28665000,0.86586493987049,"EDGE","Corals"
200,50,2.8e+07,0.85995085995086,"EDGE","Corals"
25,51,28413125,0.867162613257034,"EDGE","Corals"
50,51,28292500,0.867136617883687,"EDGE","Corals"
75,51,28276875,0.866276064104773,"EDGE","Corals"
100,51,27330000,0.823440795420307,"ED","Corals"
125,51,26718750,0.820143884892086,"ED","Corals"
150,51,27202500,0.828082191780822,"ED","Corals"
175,51,27256250,0.823311748381129,"ED","Corals"
200,51,26600000,0.816953316953317,"ED","Corals"
25,52,27008125,0.824282308059132,"ED","Corals"
50,51,26900000,0.824457895946671,"ED","Corals"
75,52,26887500,0.82371187316905,"ED","Corals"
100,51,27330000,0.823440795420307,"ED","Corals"
125,51,26718750,0.820143884892086,"ED","Corals"
150,51,27202500,0.828082191780822,"ED","Corals"
175,51,27256250,0.823311748381129,"ED","Corals"
200,51,26600000,0.816953316953317,"ED","Corals"
25,52,27008125,0.824282308059132,"ED","Corals"
50,51,26900000,0.824457895946671,"ED","Corals"
75,52,26887500,0.82371187316905,"ED","Corals"
