"pct","maxR","Area","propArea","class","taxon"
100,11,19250000,0.579993974088581,"EDR","Corals"
125,10,1.9e+07,0.583213429256595,"EDR","Corals"
150,11,19327500,0.588356164383562,"EDR","Corals"
175,11,19201875,0.580018501387604,"EDR","Corals"
200,10,18800000,0.577395577395577,"EDR","Corals"
25,11,19053125,0.581497377205532,"EDR","Corals"
50,11,19007500,0.582560723316221,"EDR","Corals"
75,11,18911250,0.579355505772876,"EDR","Corals"
