"","Species","ED","GE","EDGE"
"1","Acanthastrea bowerbanki",5.675922217,"2",3.284801716
"2","Acanthastrea brevis",5.595578123,"2",3.272693804
"3","Acanthastrea echinata",5.602724462,"0",1.887482361
"4","Acanthastrea faviaformis",5.618846868,"2",3.276215527
"5","Acanthastrea hemprichii",5.580516689,"2",3.270407628
"6","Acanthastrea hillae",15.59456724,"1",3.502222548
"7","Acanthastrea ishigakiensis",5.637485867,"2",3.279027618
"8","Acanthastrea lordhowensis",5.592380678,"1",2.57906172
"9","Acanthastrea maxima",5.625221386,"1",2.584030969
"10","Acanthastrea regularis",5.690347524,"2",3.286960181
"11","Acanthastrea rotundoflora",5.654704103,"1",2.588471169
"12","Acanthastrea subechinata",5.627209921,"1",2.58433107
"13","Acropora abrolhosensis",3.663131113,"2",2.925981496
"14","Acropora abrotanoides",3.898867883,"0",1.589004134
"15","Acropora aculeus",3.655369763,"2",2.924315702
"16","Acropora acuminata",2.608930388,"2",2.669705798
"17","Acropora akajimensis",3.636543809,"1",2.22711640049555
"18","Acropora anthocercis",2.60121252,"2",2.667564961
"19","Acropora appressa",3.66263372,"1",2.232727645
"20","Acropora arabensis",3.756410604,"1",2.25264049
"21","Acropora aspera",5.460718409,"2",3.252034882
"22","Acropora austera",3.616983276,"1",2.222888702
"23","Acropora awi",3.672050033,"2",2.927892316
"24","Acropora batunai",3.761784766,"2",2.94691691
"25","Acropora bifurcata",3.88847972,"1",2.28002854000312
"26","Acropora branchi",3.673047138,"1",2.23495853153744
"27","Acropora bushyensis",3.389764274,"0",1.47927553
"28","Acropora cardenae",3.621185617,"1",2.22379847978678
"29","Acropora carduus",2.96948673,"1",2.07178398
"30","Acropora caroliniana",3.814481825,"2",2.957922784
"31","Acropora cerealis",3.840870299,"0",1.577094518
"32","Acropora cervicornis",3.443796386,"4",4.264097775
"33","Acropora chesterfieldensis",4.046168031,"0",1.61862915
"34","Acropora clathrata",2.377706527,"0",1.217196937
"35","Acropora convexa",3.609852466,"1",2.22134303401952
"36","Acropora cophodactyla",4.415663445,"1",2.38244257336022
"37","Acropora copiosa",3.735398019,"1",2.24821296258815
"38","Acropora cytherea",3.549483579,"0",1.515013727
"39","Acropora dendrum",2.598265244,"2",2.666746214
"40","Acropora derawanensis",3.865910738,"2",2.968548261
"41","Acropora desalwii",3.538628586,"2",2.898919254
"42","Acropora digitifera",3.863562221,"1",2.274918317
"43","Acropora divaricata",3.754256318,"1",2.252187464
"44","Acropora donei",3.636543809,"2",2.920263581
"45","Acropora downingi",2.416347521,"0",1.228572004
"46","Acropora echinata",3.686793934,"2",2.931043114
"47","Acropora efflorescens",3.559059561,"1",2.21026354619374
"48","Acropora elegans",2.607302908,"2",2.669254737
"49","Acropora elegantula",3.70337815,"1",2.24142818641421
"50","Acropora elseyi",3.755258265,"0",1.559251009
"51","Acropora exquisita",3.757384275,"1",2.25284517570187
"52","Acropora fastigata",3.59113,"1",2.2172733616971
"53","Acropora fenneri",3.683216151,"1",2.23713226621977
"54","Acropora filiformis",3.638782461,"1",2.22759911171848
"55","Acropora florida",3.984055368,"1",2.299391071
"56","Acropora forskali",3.554527257,"1",2.20926892037535
"57","Acropora gemmifera",3.692452908,"0",1.545955454
"58","Acropora glauca",3.545332415,"1",2.207248044
"59","Acropora globiceps",3.814250951,"2",2.957874829
"60","Acropora gomezi",3.745612249,"1",2.25036763464587
"61","Acropora grandis",2.807916179,"0",1.337082105
"62","Acropora granulosa",2.96948673,"1",2.07178398
"63","Acropora haimei",3.562893633,"1",2.21110417147305
"64","Acropora halmaherae",3.623828175,"1",2.22437015185378
"65","Acropora hemprichii",3.856732022,"2",2.966660149
"66","Acropora hoeksemai",3.87394685,"2",2.970198411
"67","Acropora horrida",3.57228809,"2",2.906308117
"68","Acropora humilis",3.814250951,"1",2.264727648
"69","Acropora hyacinthus",3.354312694,"1",2.164313958
"70","Acropora indonesia",3.027693093,"2",2.77948814
"71","Acropora inermis",3.63393942,"1",2.22655453354553
"72","Acropora insignis",3.58494067,"1",2.21592434616284
"73","",NA,"",NA
"74","Acropora irregularis",2.738880261,"1",2.01193335170407
"75","Acropora jacquelineae",3.708494383,"2",2.935662554
"76","Acropora japonica",3.646503999,"1",2.22926228922263
"77","Acropora khayranensis",3.786035687,"1",2.25884962655824
"78","Acropora kimbeensis",3.699045525,"2",2.933653769
"79","Acropora kirstyae",3.804330654,"2",2.955812092
"80","Acropora kosurini",3.827922556,"2",2.960710624
"81","Acropora lamarcki",3.647340833,"1",2.22944237271173
"82","Acropora latistella",3.669899901,"0",1.541137637
"83","Acropora lianae",3.560206794,"1",2.21051515261938
"84","Acropora listeri",2.644015856,"2",2.679380692
"85","Acropora loisetteae",5.602749413,"2",3.273780501
"86","Acropora lokani",4.097867236,"2",3.015116624
"87","Acropora longicyathus",3.907871186,"0",1.590840281
"88","Acropora loripes",3.659642507,"1",2.232085911
"89","Acropora lovelli",3.608574379,"2",2.914212925
"90","Acropora lutkeni",3.415326039,"1",2.17822886
"91","Acropora macrostoma",3.673617854,"1",2.23508065338543
"92","Acropora maryae",3.660174081,"1",2.23219998443753
"93","Acropora massawensis",2.644015856,"1",1.98623351121054
"94","Acropora microclados",3.027693093,"2",2.77948814
"95","Acropora microphthalma",4.973764151,"0",1.78737724
"96","Acropora millepora",3.408306021,"1",2.176637674
"97","Acropora minuta",3.650312251,"1",2.23008154865739
"98","Acropora mirabilis",3.684134072,"1",2.23732824928458
"99","Acropora monticulosa",3.843628964,"1",2.270811406
"100","Acropora multiacuta",3.833765849,"2",2.961920204
"101","",NA,"",NA
"102","Acropora nana",3.634169986,"1",2.226604288
"103","Acropora nasuta",3.195409356,"1",2.127138098
"104","Acropora natalensis",2.251661789,"1",1.87231336591453
"105","Acropora navini",3.679671977,"1",2.23637519764844
"106","Acropora ocellata",3.415326039,"1",2.17822885990736
"107","Acropora orbicularis",2.368831489,"1",1.90771312562715
"108","Acropora pagoensis",3.514653073,"1",2.20047552571696
"109","Acropora palmata",3.443796386,"4",4.264097775
"110","Acropora palmerae",2.742471579,"2",2.706040604
"111","Acropora paniculata",3.355757476,"2",2.857792889
"112","Acropora papillare",4.420365368,"2",3.076457585
"113","Acropora paragemmifera",3.604370088,"1",2.22015305220286
"114","Acropora parahemprichii",3.546492646,"1",2.20750326923449
"115","Acropora parapharaonis",3.590730134,"1",2.21718626257025
"116","Acropora parilis",3.730336256,"1",2.24714347060043
"117","Acropora pectinatus",3.640224673,"1",2.22790996653103
"118","Acropora pharaonis",3.722695788,"2",2.938674139
"119","Acropora pichoni",3.827254428,"1",2.267425045
"120","Acropora pinguis",3.679197259,"1",2.23627374992256
"121","Acropora plana",3.656611135,"1",2.23143513989275
"122","Acropora plantaginea",3.4860315,"1",2.19411563847905
"123","Acropora plumosa",3.587273168,"2",2.909580128
"124","Acropora polystoma",2.416347521,"2",2.614866365
"125","Acropora prostrata",3.611561887,"1",2.22171378430882
"126","Acropora proximalis",3.579429347,"1",2.21472157419833
"127","Acropora pruinosa",3.69951315,"1",2.24060609880427
"128","Acropora pulchra",5.460718409,"0",1.86574052
"129","Acropora rambleri",3.764666059,"1",2.25437463315359
"130","Acropora retusa",3.751615185,"2",2.94477896
"131","Acropora ridzwani",3.72530673,"1",2.24607965580079
"132","Acropora robusta",3.856876891,"0",1.580395616
"133","Acropora rongelapensis",7.251719808,"1",2.8035688207572
"134","Acropora rosaria",3.617058921,"1",2.22290508575342
"135","Acropora roseni",3.808470993,"3",3.649820694
"136","Acropora rudis",3.752850959,"3",3.638186182
"137","Acropora rufus",3.649958491,"1",2.2300054734527
"138","Acropora russelli",3.632017065,"2",2.919286786
"139","Acropora samoensis",3.730772565,"0",1.554088522
"140","Acropora sarmentosa",3.722393929,"0",1.552315859
"141","Acropora scherzeriana",3.692452908,"1",2.23910263439941
"142","Acropora schmitti",3.817370273,"1",2.26537537322145
"143","Acropora secale",3.986948675,"1",2.299971415
"144","Acropora sekiseiensis",3.598563608,"1",2.21889117616153
"145","Acropora selago",3.408306021,"1",2.176637674
"146","Acropora seriata",3.557495555,"1",2.20992043281474
"147","Acropora simplex",6.034808399,"2",3.337164816
"148","Acropora solitaryensis",2.251661789,"2",2.565460546
"149","Acropora spathulata",3.670952551,"0",1.541363023
"150","Acropora speciosa",3.682859675,"2",2.930203326
"151","Acropora spicifera",3.733999668,"2",2.941064802
"152","Acropora squarrosa",3.659642507,"0",1.53893873
"153","Acropora stoddarti",3.767446591,"1",2.25495803626284
"154","Acropora striata",3.635905658,"2",2.920125937
"155","Acropora subglabra",3.805528276,"0",1.569766979
"156","Acropora subulata",3.669899901,"0",1.541137637
"157","Acropora suharsonoi",3.550556176,"3",3.594691004
"158","Acropora sukarnoi",2.585977535,"1",1.970178291083
"159","Acropora tanegashimensis",3.354312694,"1",2.16431395843249
"160","Acropora tenella",3.783443366,"2",2.951455018
"161","Acropora tenuis",3.859584849,"1",2.274100193
"162","Acropora teres",3.575009029,"1",2.2137558528374
"163","Acropora tizardi",3.682005312,"1",2.2368736841859
"164","Acropora torihalimeda",3.628183304,"1",2.22531159671289
"165","Acropora torresiana",3.571398816,"1",2.21296642528318
"166","Acropora tortuosa",3.880464096,"0",1.585240317
"167","Acropora tumida",3.538681071,"1",2.20578363741053
"168","Acropora turaki",3.650440296,"2",2.923256264
"169","Acropora tutuilensis",3.357880493,"1",2.16513299426488
"170","Acropora valenciennesi",3.658001217,"0",1.538586433
"171","Acropora valida",3.756410604,"0",1.559493309
"172","Acropora variabilis",3.856431631,"1",2.27345111648727
"173","Acropora variolosa",3.625335969,"0",1.53154901
"174","Acropora vaughani",4.420365368,"2",3.076457585
"175","Acropora vermiculata",3.722393929,"1",2.24546303992833
"176","Acropora verweyi",3.608696711,"2",2.914239469
"177","Acropora walindii",3.84544384,"2",2.96433321
"178","Acropora wallaceae",3.758327331,"1",2.25304338599704
"179","Acropora willisae",3.606829637,"2",2.913834267
"180","Acropora yongei",2.639294664,"0",1.291789889
"181","Agaricia agaricites",6.430010785,"0",2.00552731
"182","Agaricia fragilis",5.982303075,"1",2.63652599634996
"183","Agaricia grahamae",5.900153289,"0",1.931543627
"184","Agaricia humilis",9.639657889,"0",2.36458833
"185","Agaricia lamarcki",5.982303075,"2",3.329673177
"186","Agaricia tenuifolia",6.430010785,"1",2.698674491
"187","Agaricia undata",5.900153289,"1",2.62469080771349
"188","Alveopora allingi",8.696407546,"2",3.658049822
"189","Alveopora catalai",8.712222005,"1",2.966532273
"190","Alveopora daedalea",9.243625011,"2",3.712949923
"191","Alveopora excelsa",10.92574193,"3",4.558140793
"192","Alveopora fenestrata",8.817499588,"2",3.670460827
"193","Alveopora gigas",8.673234078,"2",3.655657059
"194","Alveopora japonica",9.040324357,"2",3.692903781
"195","Alveopora marionensis",8.78400173,"2",3.667042936
"196","Alveopora minuta",9.312800001,"3",4.412827384
"197","Alveopora ocellata",10.01977226,"1",3.09283831800946
"198","Alveopora spongiosa",9.243625011,"1",3.019802743
"199","Alveopora tizardi",9.040324357,"0",2.30660942
"200","Alveopora verrilliana",8.833704986,"2",3.67211013
"201","Alveopora viridis",9.312800001,"1",3.026533023
"202","Anacropora forbesi",4.09908268,"0",1.629060657
"203","Anacropora matthai",4.383295366,"2",3.069595069
"204","Anacropora pillai",4.102558505,"1",2.32288926214414
"205","Anacropora puertogalerae",4.118229838,"2",3.019103006
"206","Anacropora reticulata",4.101743624,"2",3.015876729
"207","Anacropora spinosa",4.383295366,"3",3.76274225
"208","Anacropora spumosa",4.141159566,"1",2.33042583108201
"209","Anomastraea irregularis",13.19305826,"2",4.039047351
"210","Astrangia poculata",9.931668356,"0",2.391663931
"211","",NA,"",NA
"212","",NA,"",NA
"213","Astreopora cucullata",7.673864712,"2",3.546608809
"214","Astreopora eliptica",8.052338394,"1",2.8961702909732
"215","Astreopora expansa",7.883642934,"1",2.877358894
"216","Astreopora gracilis",7.644734302,"0",2.156950384
"217","Astreopora incrustans",7.922128428,"2",3.574828892
"218","Astreopora listeri",8.068914299,"0",2.204852555
"219","Astreopora macrostoma",7.787213459,"1",2.866444829
"220","",NA,"",NA
"221","Astreopora moretonensis",7.84323164,"2",3.565946741
"222","Astreopora myriophthalma",7.613190739,"0",2.153294835
"223","Astreopora ocellata",7.915097627,"0",2.187746202
"224","Astreopora randalli",7.958711315,"0",2.19262639
"225","Astreopora scabra",8.184633904,"0",2.21753186
"226","Astreopora suggesta",7.992294803,"0",2.196368078
"227","Australogyra zelli",6.791892757,"2",3.439378164
"228","Australomussa rowleyensis",24.16556453,"1",3.918623754
"229","Balanophyllia europaea",39.40146363,"0",3.698866013
"230","Barabattoia amicorum",2.931074727,"0",1.368912856
"231","Barabattoia laddi",2.931074727,"2",2.755207217
"232","Blastomussa merleti",16.68816091,"0",2.872895541
"233","Blastomussa wellsi",16.68816091,"1",3.566042721
"234","Boninastrea boninensis",3.520788366,"1",2.2018335764518
"235","Cantharellus doederleini",6.388322603,"0",1.999900727
"236","Cantharellus jebbi",6.415755923,"0",2.003606916
"237","Cantharellus noumeae",6.348348042,"3",4.073917073
"238","Catalaphyllia jardinei",16.16590613,"2",4.229219576
"239","Caulastraea furcata",3.686958856,"0",1.544783941
"240","Caulastrea connata",3.687889231,"2",2.931276785
"241","Caulastrea curvata",3.686958856,"2",2.931078302
"242","Caulastrea echinulata",4.607456473,"2",3.110391586
"243","Caulastrea tumida",3.687889231,"1",2.238129604
"244","Cladocora arbuscula",9.948732066,"0",2.393223656
"245","Cladocora caespitosa",9.971121982,"3",4.474708088
"246","Coeloseris mayeri",9.938131951,"0",2.392255028
"247","",NA,"",NA
"248","",NA,"",NA
"249","Colpophyllia natans",3.92730087,"0",1.594791347
"250","Coscinaraea columna",6.553231774,"0",2.021975521
"251","Coscinaraea crassa",6.601723485,"1",2.721522176
"252","Coscinaraea exesa",6.580693318,"0",2.025604662
"253","Coscinaraea hahazimaensis",6.550050774,"2",3.407848649
"254","Coscinaraea marshae",6.657558168,"0",2.035693156
"255","Coscinaraea mcneilli",6.621578994,"0",2.030983565
"256","Coscinaraea monile",6.584723713,"0",2.026136187
"257","Coscinaraea wellsi",6.669380957,"0",2.037235902
"258","Craterastrea levis",12.08425395,"0",2.571409519
"259","Ctenactis albitentaculata",6.535195159,"1",2.712731913
"260","Ctenactis crassa",7.311596373,"0",2.117651693
"261","Ctenactis echinata",6.535195159,"0",2.019584732
"262","Ctenella chagius",7.415637835,"3",4.209533164
"263","Cycloseris mokai",7.938639107,"0",2.190383352
"264","Cynarina lacrymalis",11.95577297,"1",3.254688659
"265","Cyphastrea agassizi",7.375703072,"2",3.511629384
"266","Cyphastrea chalcidicum",7.536122596,"0",2.144306876
"267","Cyphastrea decadia",6.952968687,"0",2.073545279
"268","Cyphastrea hexasepta",6.986937891,"2",3.464101805
"269","Cyphastrea japonica",6.952968687,"0",2.073545279
"270","Cyphastrea microphthalma",6.986937891,"0",2.077807444
"271","Cyphastrea ocellina",7.612711002,"2",3.539533497
"272","Cyphastrea serailia",7.520940706,"0",2.142526746
"273","Dendrogyra cylindrus",13.40658112,"2",4.053979486
"274","Dichocoenia stellaris",10.68435091,"1",3.15139759801343
"275","Dichocoenia stokesii",10.6945461,"2",3.845416949
"276","Diploastrea heliopora",70.94554213,"1",4.969056654
"277","Diploria clivosa",4.402257344,"0",1.686816893
"278","Diploria labyrinthiformis",4.439343286,"0",1.693658334
"279","Diploria strigosa",4.402257344,"0",1.686816893
"280","Duncanopsammia axifuga",38.98233162,"1",4.381584828
"281","Echinomorpha nishihirai",9.52124625,"1",3.046543846
"282","Echinophyllia aspera",5.388938615,"0",1.854568154
"283","Echinophyllia costata",5.425974963,"2",3.246642726
"284","Echinophyllia echinata",5.708031239,"0",1.903305501
"285","Echinophyllia echinoporoides",5.620560223,"0",1.890179992
"286","Echinophyllia orpheensis",5.693134819,"0",1.901082347
"287","Echinophyllia patula",5.388938615,"0",1.854568154
"288","Echinophyllia pectinata",5.425974963,"1",2.5534955450431
"289","Echinopora ashmorensis",5.886560357,"2",3.315866099
"290","Echinopora forskaliana",5.887334735,"1",2.62283136
"291","Echinopora fruticulosa",6.505458538,"1",2.708777741
"292","Echinopora gemmacea",6.388148745,"0",1.999877195
"293","Echinopora grandicula",6.396172495,"1",2.69410981655488
"294","Echinopora hirsutissima",5.946467859,"0",1.938233309
"295","Echinopora horrida",6.353189664,"1",2.688281368
"296","Echinopora irregularis",5.946467859,"1",2.63138048922159
"297","Echinopora lamellosa",5.886560357,"0",1.929571738
"298","Echinopora mammiformis",6.742597124,"1",2.739884358
"299","Echinopora pacificus",6.440201514,"1",2.700045114
"300","Echinopora robusta",5.887334735,"2",3.31597854
"301","Echinopora taylorae",6.734236542,"1",2.738803958
"302","Echinopora tiranensis",6.428660584,"1",2.69849275170635
"303","Enigmopora darveliensis",25.32069358,"1",3.96350263849357
"304","Erythrastrea flabellata",5.541739586,"1",2.571350302
"305","Euphyllia ancora",9.461487289,"2",3.733994998
"306","Euphyllia cristata",7.013165598,"2",3.46738025
"307","Euphyllia divisa",8.876908223,"1",2.98334671
"308","Euphyllia glabrescens",7.026485971,"1",2.775894
"309","Euphyllia paraancora",9.421291327,"2",3.730145318
"310","Euphyllia paradivisa",7.011676007,"2",3.46719434
"311","Euphyllia paraglabrescens",7.011554559,"2",3.467179181
"312","Euphyllia yaeyamaensis",8.876908223,"1",2.98334671
"313","Eusmilia fastigiata",10.68462426,"0",2.458273812
"314","Favia albidus",2.805072631,"1",2.02948226
"315","Favia danae",3.20151711,"0",1.435445677
"316","Favia favus",3.137267353,"0",1.42003551
"317","Favia fragum",4.870227029,"0",1.769893309
"318","",NA,"",NA
"319","Favia helianthoides",2.939295027,"1",2.064148961
"320","Favia lacuna",5.754096142,"1",2.603296337
"321","Favia laxa",2.939295027,"1",2.064148961
"322","Favia leptophylla",6.322620059,"1",2.68411537604832
"323","Favia lizardensis",2.939083707,"1",2.064095315
"324","Favia maritima",5.817220619,"1",2.612599035
"325","Favia marshae",2.662866373,"1",1.991393183
"326","Favia matthaii",2.805072631,"1",2.02948226
"327","Favia maxima",4.017246911,"1",2.30602854
"328","Favia pallida",3.20151711,"0",1.435445677
"329","Favia rosaria",5.727485624,"2",3.292495828
"330","Favia rotumana",5.742674308,"0",1.908456628
"331","Favia rotundata",2.662866373,"1",1.991393183
"332","Favia speciosa",3.238492155,"0",1.444207582
"333","Favia stelligera",4.834051434,"1",2.456858868
"334","Favia truncatus",6.735657964,"0",2.045840544
"335","Favia veroni",4.017246911,"1",2.30602854
"336","Favia vietnamensis",5.709411706,"1",2.596658453
"337","Favites abdita",3.559612811,"1",2.210384891
"338","Favites acuticollis",3.718212451,"1",2.24457719
"339","Favites bestae",3.713194599,"1",2.243513117
"340","Favites chinensis",3.754319033,"1",2.252200656
"341","Favites complanata",3.202745882,"1",2.128885274
"342","Favites flexuosa",2.656002629,"1",1.989517553
"343","Favites halicora",2.656002629,"1",1.989517553
"344","Favites micropentagona",5.175229716,"1",2.513693263
"345","Favites paraflexuosa",3.684000861,"1",2.23729981
"346","Favites pentagona",5.175229716,"0",1.820546083
"347","Favites russelli",5.664323578,"1",2.58991564
"348","Favites spinosa",3.735995398,"2",2.941486287
"349","Favites stylifera",3.769121338,"1",2.255309263
"350","Favites vasta",3.703146026,"1",2.241378833
"351","Fungia costulata",7.582354034,"0",2.149708239
"352","Fungia curvata",7.932449598,"2",3.575985029
"353","Fungia cyclolites",7.54291743,"0",2.145102569
"354","Fungia distorta",7.443615124,"0",2.133410549
"355","Fungia fragilis",7.331744371,"0",2.120072843
"356","Fungia fralinae",13.31617163,"0",2.661389782
"357","Fungia fungites",8.549269595,"1",2.94961185
"358","Fungia hexagonalis",7.963995421,"0",2.193216045
"359","Fungia horrida",7.713724319,"0",2.164899291
"360","Fungia scruposa",7.205627285,"0",2.104820173
"361","Fungia scutaria",7.661258889,"0",2.15886008
"362","Fungia sinensis",7.847808251,"0",2.180169773
"363","Fungia somervillei",7.405693223,"0",2.128909241
"364","Fungia tenuis",7.63386168,"0",2.155691877
"365","Fungia vaughani",7.356795411,"0",2.12307503
"366","Galaxea acrhelia",5.855468191,"2",3.311340971
"367","Galaxea astreata",5.862920476,"2",3.312427438
"368","Galaxea cryptoramosa",5.865164118,"2",3.312754307
"369","Galaxea fascicularis",7.738412435,"1",2.86087571
"370","Galaxea horrescens",5.845284751,"0",1.923560058
"371","Galaxea longisepta",5.854240753,"1",2.618014729
"372","Galaxea paucisepta",5.863001862,"1",2.619292116
"373","Gardineroseris planulata",4.757676444,"0",1.750533998
"374","Goniastrea aspera",4.813266915,"0",1.760142705
"375","Goniastrea australensis",5.664323578,"0",1.89676846
"376","Goniastrea columella",3.104192272,"1",2.105156137
"377","Goniastrea deformis",6.820773273,"2",3.443077795
"378","Goniastrea edwardsi",3.647919978,"0",1.536419803
"379","Goniastrea favulus",3.252883135,"1",2.140744318
"380","Goniastrea minuta",4.058781074,"1",2.31427274
"381","Goniastrea palauensis",5.688507577,"1",2.593537947
"382","Goniastrea pectinata",3.104192272,"0",1.412008957
"383","Goniastrea peresi",4.848118309,"1",2.459267133
"384","Goniastrea ramosa",4.04442527,"2",3.004578088
"385","Goniastrea retiformis",4.052954993,"0",1.619973219
"386","Goniastrea thecata",4.8432081,"1",2.458427159
"387","Goniopora albiconus",4.715214006,"2",3.129426104
"388","Goniopora burgosi",4.799907146,"2",3.144136269
"389","Goniopora cellulosa",4.728918658,"2",3.131821158
"390","Goniopora ciliatus",4.767122551,"0",1.752173265
"391","Goniopora columna",4.740025256,"1",2.440610791
"392","Goniopora djiboutiensis",4.770165471,"0",1.752700758
"393","Goniopora eclipsensis",4.760717269,"0",1.751061993
"394","Goniopora fruticosa",4.676605381,"0",1.73635341
"395","Goniopora lobata",4.655348576,"1",2.425748929
"396","Goniopora minor",4.88785721,"1",2.466039311
"397","Goniopora norfolkensis",4.698051598,"0",1.740124291
"398","Goniopora palmensis",4.699753209,"0",1.740422877
"399","Goniopora pandoraensis",4.766302866,"0",1.752031124
"400","Goniopora pearsoni",4.747438603,"0",1.748754295
"401","Goniopora pendulus",4.766801431,"0",1.752117582
"402","Goniopora planulata",4.748246282,"2",3.135189175
"403","Goniopora polyformis",4.712788784,"2",3.129001669
"404","Goniopora savignyi",4.751430188,"0",1.749448552
"405","Goniopora somaliensis",4.826988345,"0",1.762500288
"406","Goniopora stokesi",4.707515692,"1",2.434931029
"407","Goniopora stutchburyi",4.778003459,"0",1.754058201
"408","Goniopora sultani",4.789634407,"0",1.756069147
"409","Goniopora tenella",4.856420587,"1",2.460685776
"410","Goniopora tenuidens",4.719547548,"0",1.743889702
"411","Gyrosmilia interrupta",7.409804254,"0",2.129398198
"412","Halomitra clavator",6.613795749,"2",3.416256193
"413","Halomitra pileus",6.613795749,"0",2.029961832
"414","Heliofungia actiniformis",10.29736846,"2",3.81086418
"415","Helioseris cucullata",39.70096882,"0",3.706251896
"416","Herpolitha limax",7.366243154,"0",2.124204937
"417","Heterocyathus aequicostatus",22.59194724,"0",3.160905435
"418","Heterocyathus alternatus",22.58521893,"0",3.160620199
"419","Heterocyathus sulcatus",22.55645726,"0",3.159399977
"420","Heteropsammia cochlea",37.81453681,"0",3.658794837
"421","Heteropsammia eupsammides",38.02363087,"1",4.357314563
"422","Horastrea indica",16.03679328,"2",4.221669677
"423","Hydnophora bonsai",6.544878092,"3",4.100310476
"424","Hydnophora exesa",6.439225817,"1",2.699913967
"425","Hydnophora grandis",6.535578584,"0",2.019635615
"426","Hydnophora microconos",6.592234423,"1",2.720273119
"427","Hydnophora pilosa",6.464218425,"0",2.010120727
"428","Hydnophora rigida",6.452971326,"0",2.008612789
"429","Indophyllia macassarensis",11.95577297,"1",3.2546886585602
"430","Isophyllastrea rigida",7.808509431,"0",2.175718235
"431","Isophyllia sinuosa",6.457768063,"0",2.009256182
"432","Isopora brueggemanni",4.9696966,"2",3.172990466
"433","Isopora crateriformis",4.863427762,"2",3.155028736
"434","Isopora cuneata",4.930245331,"2",3.166359944
"435","Isopora cylindrica",4.774525989,"1",2.44660335377223
"436","Isopora elizabethensis",4.811370039,"1",2.45296353068245
"437","Isopora meridiana",4.695273795,"1",2.43278385268625
"438","Isopora palifera",4.814949749,"1",2.453579325
"439","Isopora togianensis",4.967910133,"3",3.865838346
"440","Leptastrea aequalis",5.517966336,"2",3.260856777
"441","Leptastrea bewickensis",5.467347337,"1",2.559913211
"442","Leptastrea bottae",5.503424928,"1",2.565476131
"443","Leptastrea inaequalis",5.499005356,"1",2.564796324
"444","Leptastrea pruinosa",5.511487531,"0",1.87356793
"445","Leptastrea purpurea",5.542678903,"0",1.8783467
"446","Leptastrea transversa",5.474957272,"0",1.867942009
"447","Leptoria irregularis",4.514921716,"2",3.093751819
"448","Leptoria phrygia",8.642784895,"1",2.959357137
"449","Leptoseris amitoriensis",4.797992119,"1",2.450658852
"450","Leptoseris cailleti",4.796141722,"0",1.757192476
"451","Leptoseris explanata",5.759757106,"0",1.910986958
"452","Leptoseris foliosa",4.979699419,"0",1.788370302
"453","Leptoseris gardineri",4.799607392,"0",1.757790224
"454","Leptoseris hawaiiensis",4.7876498,"0",1.755726302
"455","Leptoseris incrustans",5.737712371,"2",3.294014818
"456","Leptoseris mycetoseroides",4.96983248,"0",1.786718867
"457","Leptoseris papyracea",4.831780576,"0",1.76332237
"458","Leptoseris scabra",4.801815439,"0",1.758170875
"459","Leptoseris solida",4.823556432,"0",1.761911146
"460","Leptoseris striata",4.818675144,"1",2.454219778
"461","Leptoseris tubulifera",5.655635038,"0",1.89546387
"462","Leptoseris yabei",4.973843343,"2",3.173684857
"463","Lithophyllon concinna",6.466028897,"0",2.010363251
"464","Lithophyllon puishani",6.084244692,"1",2.65102044138596
"465","Lithophyllon ranjithi",6.347142788,"3",4.073753043
"466","Lithophyllon repanda",6.414827615,"0",2.003481727
"467","Lithophyllon scabra",6.084244692,"0",1.957873261
"468","Lithophyllon spinifer",6.527142098,"0",2.018515434
"469","Lithophyllon undulatum",6.376939358,"1",2.691506012
"470","Lobophyllia corymbosa",7.316596036,"0",2.118253041
"471","Lobophyllia dentatus",7.360872082,"2",3.509857099
"472","Lobophyllia diminuta",7.302591431,"2",3.502862048
"473","Lobophyllia flabelliformis",7.315755621,"2",3.504446344
"474","Lobophyllia hataii",7.264610381,"0",2.111982589
"475","Lobophyllia hemprichii",7.102858678,"0",2.092216923
"476","Lobophyllia pachysepta",7.024733693,"1",2.775675664
"477","Lobophyllia robusta",6.946616066,"0",2.072746186
"478","Lobophyllia serratus",7.744112376,"3",4.247822144
"479","",NA,"",NA
"480","Madracis asanoi",8.647076694,"1",2.95980211675304
"481","Madracis asperula",8.647076694,"1",2.95980211675304
"482","Madracis auretenra",9.021426638,"0",2.304725465
"483","Madracis carmabi",10.97192869,"1",3.1757118141344
"484","Madracis decactis",8.636633773,"0",2.265571854
"485","Madracis formosa",12.73834215,"0",2.620190621
"486","Madracis kirbyi",8.636633773,"0",2.265571854
"487","Madracis pharensis",9.01842573,"0",2.304425971
"488","Madracis senaria",16.81051017,"0",2.879788742
"489","Manicina areolata",4.08997383,"0",1.627272689
"490","Meandrina braziliensis",14.2392532,"1",3.41702172699311
"491","Meandrina danae",14.2392532,"0",2.723874546
"492","",NA,"",NA
"493","Meandrina meandrites",10.49782405,"0",2.442157804
"494","Merulina ampliata",3.097559855,"0",1.410391639
"495","Merulina scabricula",3.28339447,"0",1.454745796
"496","Merulina scheeri",3.097559855,"0",1.410391639
"497","Micromussa amakusensis",10.39989461,"1",3.126751291
"498","Micromussa diminuta",10.08265414,"1",3.09852837651446
"499","Micromussa minuta",10.08265414,"1",3.098528377
"500","Montastraea annularis",8.67316998,"3",4.348797613
"501","Montastraea cavernosa",60.32238437,"0",4.116144937
"502","Montastraea faveolata",8.67316998,"3",4.348797613
"503","Montastraea franksi",9.173294998,"2",3.706060511
"504","Montastrea annuligera",3.144529878,"1",2.114936544
"505","Montastrea colemani",2.944544422,"1",2.065480646
"506","Montastrea curta",5.178230455,"0",1.821031896
"507","Montastrea magnistellata",3.725101104,"1",2.246036139
"508","Montastrea multipunctata",11.23550012,"2",3.890635933
"509","Montastrea salebrosa",17.54895614,"2",4.306707876
"510","Montastrea serageldini",5.178230455,"2",3.207326257
"511","Montastrea valenciennesi",3.767446459,"1",2.254958009
"512","Montigyra kenti",7.401894841,"1",2.82160443728023
"513","Montipora aequituberculata",4.106691454,"0",1.63055173
"514","Montipora altasepta",4.761643396,"2",3.137517107
"515","Montipora angulata",4.744771602,"2",3.134584516
"516","Montipora aspergillus",4.694857069,"1",2.43271067951464
"517","Montipora australiensis",4.887869045,"2",3.159188501
"518","Montipora cactus",4.634445644,"2",3.115193126
"519","Montipora calcarea",4.491600741,"2",3.089514148
"520","Montipora caliculata",4.684298554,"2",3.124002095
"521","Montipora capitata",4.612073207,"1",2.418067387
"522","Montipora capricornis",4.436108139,"2",3.07935775
"523","Montipora cebuensis",4.543892996,"2",3.098991322
"524","Montipora circumvallata",4.752421297,"0",1.749620861
"525","Montipora cocosensis",4.665813341,"2",3.120744818
"526","Montipora confusa",4.608693856,"1",2.417465049
"527","Montipora corbettensis",4.662245936,"2",3.120114983
"528","Montipora crassituberculata",4.929817081,"2",3.166287727
"529","Montipora cryptus",4.632229164,"1",2.421652488
"530","Montipora danae",4.721347076,"0",1.74420428
"531","Montipora delicatula",4.490487443,"2",3.0893114
"532","Montipora digitata",4.722604953,"0",1.744424113
"533","Montipora dilatata",4.701896403,"3",3.820240363
"534","Montipora echinata",4.895911519,"1",2.46740632838051
"535","Montipora efflorescens",4.740040032,"1",2.440613365
"536","Montipora effusa",4.624265369,"1",2.420237519
"537","Montipora flabellata",4.804738404,"2",3.144968911
"538","Montipora florida",4.586194776,"2",3.106592697
"539","Montipora floweri",4.732060593,"0",1.746075081
"540","Montipora foliosa",4.490487443,"1",2.39616422
"541","Montipora foveolata",4.796074159,"1",2.450328
"542","Montipora friabilis",4.823688773,"2",3.148228232
"543","Montipora gaimardi",4.751554186,"2",3.135764473
"544","Montipora grisea",4.503163086,"0",1.705323033
"545","Montipora hemispherica",4.788622777,"1",2.44904158150224
"546","Montipora hirsuta",4.655430296,"1",2.425763378
"547","Montipora hispida",5.095589606,"0",1.807565494
"548","Montipora hodgsoni",4.711102435,"2",3.128706437
"549","Montipora hoffmeisteri",4.011272787,"0",1.611689932
"550","Montipora incrassata",4.622115547,"1",2.419855205
"551","Montipora informis",4.927992185,"0",1.77968557
"552","Montipora kellyi",4.770713649,"1",2.44594293610086
"553","Montipora lobulata",4.757500167,"2",3.136797743
"554","Montipora mactanensis",4.610569269,"2",3.110946549
"555","Montipora malampaya",4.572011399,"2",3.104050463
"556","Montipora meandrina",4.690815062,"2",3.125147844
"557","Montipora millepora",4.851466777,"0",1.766692361
"558","Montipora mollis",4.032743776,"0",1.615965318
"559","Montipora monasteriata",4.50660094,"0",1.705947544
"560","Montipora niugini",4.523229088,"1",2.40210985
"561","Montipora nodosa",4.779134923,"1",2.447401185
"562","Montipora orientalis",4.807413415,"2",3.145429638
"563","Montipora pachytuberculata",4.509960794,"1",2.39970468827296
"564","Montipora palawanensis",4.848502995,"1",2.459332911
"565","Montipora patula",3.854814289,"2",2.966265211
"566","Montipora peltiformis",4.235023582,"1",2.34851853
"567","Montipora porites",4.762267629,"1",2.444478263
"568","Montipora samarensis",4.989767532,"2",3.176346963
"569","Montipora saudii",4.638164119,"1",2.422705682
"570","Montipora setosa",4.688520448,"3",3.817891729
"571","Montipora spongiosa",4.705193925,"0",1.741376975
"572","Montipora spongodes",4.007326114,"0",1.610902063
"573","Montipora spumosa",4.58463788,"0",1.720019592
"574","Montipora stellata",4.106691454,"0",1.63055173
"575","Montipora stilosa",4.776494884,"2",3.140091438
"576","Montipora taiwanensis",4.474834383,"1",2.39330920612461
"577","Montipora tuberculosa",4.687201501,"0",1.7382183
"578","Montipora turgescens",4.618948432,"0",1.726144535
"579","Montipora turtlensis",4.548034855,"2",3.099738146
"580","Montipora undata",4.743981952,"1",2.44129987
"581","Montipora vaughani",4.663829721,"1",2.42724747311668
"582","Montipora venosa",4.684660446,"1",2.430918578
"583","Montipora verrilli",3.854814289,"1",2.27311803007832
"584","Montipora verrucosa",4.732098454,"0",1.746081686
"585","Montipora verruculosus",4.611897395,"2",3.11118324
"586","Montipora vietnamensis",4.694511504,"2",3.125797178
"587","Moseleya latistellata",37.146699,"2",5.027733588
"588","Mussa angulosa",10.05843882,"0",2.403193831
"589","Mussismilia braziliensis",8.164742381,"1",2.90851095245491
"590","Mussismilia harttii",9.829349503,"1",3.07540717541064
"591","Mussismilia hispida",7.133617524,"1",2.78915296505596
"592","Mycedium elephantotus",2.893613262,"0",1.359337586
"593","Mycedium mancaoi",2.886152528,"0",1.357419601
"594","Mycedium robokaki",2.946939109,"0",1.372940369
"595","Mycedium spina",3.120129354,"1",2.10903174003046
"596","Mycedium steeni",2.946939109,"2",2.759234731
"597","Mycedium umbra",2.893003864,"0",1.359181061
"598","Mycetophyllia aliciae",4.486025524,"0",1.702204045
"599","Mycetophyllia danaana",4.709634714,"0",1.742155049
"600","Mycetophyllia ferox",5.033531535,"2",3.183626861
"601","Mycetophyllia lamarckiana",4.486025524,"0",1.702204045
"602","Mycetophyllia reesi",4.691304991,"1",2.43208675055657
"603","Nemenzophyllia turbida",11.408896,"2",3.904707996
"604","Oculina diffusa",8.827295903,"0",2.28516381
"605","Oculina patagonica",8.83415153,"0",2.285861178
"606","Oculina robusta",8.730359486,"1",2.96839802222131
"607","Oculina tenella",8.786121869,"1",2.97411242675215
"608","Oculina valenciennesi",8.782820574,"1",2.97377502527623
"609","Oculina varicosa",8.819057282,"2",3.670619479
"610","Oulastrea crispata",24.41779183,"0",3.235449395
"611","Oulophyllia bennettae",4.484655728,"1",2.395101506
"612","Oulophyllia crispa",4.17899352,"1",2.337757917
"613","Oulophyllia levis",4.17899352,"0",1.644610736
"614","Oxypora convoluta",7.311606827,"1",2.81080013138536
"615","Oxypora crassispinosa",6.596280513,"0",2.027658721
"616","Oxypora egyptensis",6.6437728,"1",2.72703848383795
"617","Oxypora glabra",6.648733478,"0",2.034540076
"618","Oxypora lacera",7.311606827,"0",2.117652951
"619","Pachyseris foliosa",13.34484775,"0",2.663390836
"620","Pachyseris gemmae",12.02817641,"1",3.260261609
"621","Pachyseris involuta",13.34484775,"2",4.049685197
"622","Pachyseris rugosa",12.01815973,"2",3.952639646
"623","Pachyseris speciosa",11.98118461,"0",2.563500971
"624","Palauastrea ramosa",26.22382443,"1",3.997239669
"625","Paraclavarina triangularis",3.51914068,"1",2.201469041
"626","Parasimplastrea sheppardi",8.070026231,"3",4.284416698
"627","Pavona bipartita",4.767684982,"2",3.138565145
"628","Pavona cactus",4.759926161,"2",3.137219016
"629","Pavona chiriquiensis",4.761629804,"0",1.751220387
"630","Pavona clavus",4.788629924,"0",1.755895636
"631","Pavona danai",4.704349949,"2",3.127523394
"632","Pavona decussata",4.739865306,"2",3.133730105
"633","Pavona diffluens",4.777122938,"2",3.140200158
"634","Pavona duerdeni",4.709039803,"0",1.742050849
"635","Pavona explanulata",4.713395053,"0",1.742813427
"636","Pavona frondifera",4.744653227,"0",1.748269549
"637","Pavona gigantea",4.695793846,"0",1.739727981
"638","Pavona maldivensis",4.73133821,"0",1.745949048
"639","Pavona minuta",4.689832236,"1",2.431827944
"640","Pavona varians",4.760384441,"0",1.751004216
"641","Pavona venosa",4.718771605,"2",3.130048389
"642","Pavona xarifae",4.671123138,"1",2.42853436298685
"643","Pectinia africanus",3.391560343,"2",2.865978956
"644","Pectinia alcicornis",4.18576328,"2",3.032211401
"645","Pectinia ayleni",3.388083994,"1",2.172039865
"646","Pectinia crassa",4.141534899,"1",2.33049883393188
"647","Pectinia elongata",3.563531318,"1",2.211243916
"648","Pectinia lactuca",3.396439045,"2",2.867089266
"649","Pectinia maxima",3.397603129,"3",3.560501191
"650","Pectinia paeonia",4.104153621,"1",2.323201824
"651","Pectinia pygmaeus",3.58306957,"1",2.215516166
"652","Pectinia teres",3.588045895,"1",2.216601383
"653","Physogyra lichtensteini",12.32702392,"2",3.976088209
"654","Platygyra acuta",3.068945069,"1",2.09653095
"655","Platygyra carnosus",3.733587192,"1",2.247830487
"656","Platygyra contorta",3.066214565,"0",1.402712484
"657","Platygyra crosslandi",3.706859323,"1",2.242168056
"658","Platygyra daedalea",3.672194372,"0",1.541628848
"659","Platygyra lamellina",2.923581708,"1",2.060152118
"660","Platygyra pini",3.694560132,"0",1.54640442
"661","Platygyra ryukyuensis",3.068945069,"1",2.09653095
"662","Platygyra sinensis",3.713786347,"0",1.55049148
"663","Platygyra verweyi",2.923581708,"1",2.060152118
"664","Platygyra yaeyamaensis",3.666688185,"2",2.926744013
"665","Plerogyra cauliformis",10.32536097,"1",3.12019172515177
"666","Plerogyra diabolotus",10.33388024,"1",3.12094367181428
"667","Plerogyra discus",10.33303569,"2",3.814016334
"668","Plerogyra multilobata",10.33388024,"1",3.12094367181428
"669","Plerogyra simplex",10.32536097,"1",3.120191725
"670","Plerogyra sinuosa",10.33303569,"1",3.120869154
"671","Plesiastrea devantieri",14.06436777,"1",3.405479385
"672","Plesiastrea versipora",50.26448285,"0",3.93699817
"673","Pleuractis granulosa",6.387610345,"0",1.999804319
"674","",NA,"",NA
"675","Pleuractis moluccensis",5.896133139,"0",1.93096084
"676","Pleuractis paumotensis",6.315578569,"0",1.990006125
"677","Pleuractis seychellensis",6.315578569,"2",3.376300486
"678","Pleuractis taiwanensis",5.896133139,"2",3.317255201
"679","Pocillopora ankeli",7.498808036,"2",3.526220284
"680","Pocillopora capitata",7.431244411,"0",2.131944378
"681","Pocillopora damicornis",7.230201656,"0",2.107810517
"682","Pocillopora danae",7.356618253,"2",3.509348191
"683","Pocillopora effusus",7.264854567,"1",2.80515931542887
"684","Pocillopora elegans",7.319241232,"2",3.504865414
"685","Pocillopora eydouxi",7.400470991,"1",2.821434955
"686","Pocillopora fungiformis",7.270032519,"3",4.192079983
"687","Pocillopora indiania",7.390925611,"2",3.513445199
"688","Pocillopora inflata",7.211734023,"2",3.491858471
"689","Pocillopora kelleheri",7.450211771,"0",2.134191503
"690","Pocillopora ligulata",7.350570989,"0",2.122329918
"691","Pocillopora meandrina",7.324264889,"0",2.11917473
"692","Pocillopora molokensis",7.417222398,"1",2.82342707291863
"693","Pocillopora setichelli",7.270772509,"0",2.112727916
"694","Pocillopora verrucosa",7.455130495,"0",2.134773416
"695","Pocillopora woodjonesi",7.298784201,"0",2.116109022
"696","Pocillopora zelli",7.342517899,"0",2.121365077
"697","Podabacia crustacea",5.741314492,"0",1.908254934
"698","",NA,"",NA
"699","Podabacia motuporensis",6.908422473,"1",2.761075508
"700","Podabacia sinai",6.066060421,"1",2.64845028040854
"701","Polyphyllia novaehiberniae",6.622603247,"1",2.724265125
"702","Polyphyllia talpina",6.622603247,"0",2.031117945
"703","Porites annae",5.458577937,"1",2.558556341
"704","Porites aranetai",5.615537382,"2",3.275715392
"705","Porites arnaudi",5.248126408,"0",1.832281644
"706","Porites astreoides",5.464633501,"0",1.866346321
"707","Porites attenuata",5.551237672,"2",3.26594835
"708","Porites australiensis",5.307038806,"0",1.841666281
"709","Porites baueri",5.59938831,"1",2.58012414499421
"710","Porites bernardi",5.704603464,"0",1.902794375
"711","Porites branneri",5.405950401,"1",2.550374489
"712","Porites brighami",5.472921037,"0",1.867627481
"713","Porites cocosensis",5.347198595,"2",3.234307911
"714","Porites colonensis",5.15409217,"1",2.51026443459821
"715","Porites columnaris",5.381266017,"0",1.853366513
"716","Porites compressa",4.908406416,"0",1.776376153
"717","Porites cumulatus",5.537506619,"2",3.263850203
"718","Porites cylindrica",5.833639953,"1",2.615004648
"719","Porites decasepta",5.387276591,"1",2.54745515950941
"720","Porites deformis",5.507053766,"1",2.566033964
"721","Porites densa",5.46856092,"1",2.560100841
"722","Porites desilveri",5.450089209,"3",3.943535503
"723","Porites divaricata",5.254908779,"0",1.83336656
"724","Porites duerdeni",4.908406416,"0",1.776376153
"725","Porites echinulata",5.290500219,"1",2.532187774
"726","Porites ericacea",5.47707106,"1",2.56141559182915
"727","Porites eridani",5.489485321,"3",3.949624766
"728","Porites evermanni",5.452202791,"1",2.55756877104813
"729","Porites excavata",5.393179794,"1",2.54837894552173
"730","Porites flavus",5.418706085,"1",2.55236373355649
"731","Porites furcata",5.310878952,"0",1.842274962
"732","Porites harrisoni",5.478965733,"1",2.561708069
"733","Porites heronensis",5.397029807,"0",1.85583379
"734","Porites horizontalata",5.506801114,"2",3.259142316
"735","Porites latistella",5.44058508,"0",1.862619387
"736","Porites lichen",4.161106545,"0",1.641151003
"737","Porites lobata",6.711817854,"1",2.735901119
"738","Porites lutea",4.374598674,"0",1.681683906
"739","Porites mayeri",5.542408718,"0",1.878305403
"740","Porites monticulosa",5.524673957,"0",1.875590984
"741","Porites murrayensis",5.235860028,"1",2.523463686
"742","Porites myrmidonensis",5.429279054,"0",1.86086241
"743","Porites napopora",5.539641917,"2",3.264176772
"744","Porites negrosensis",5.660909199,"1",2.589403172
"745","Porites nigrescens",5.512830088,"2",3.260068452
"746","Porites nodifera",5.257044923,"0",1.833708017
"747","Porites okinawensis",4.374598674,"2",3.067978267
"748","Porites ornata",5.255064678,"3",3.912833026
"749","Porites panamensis",5.401348646,"0",1.856508694
"750","Porites porites",5.319356256,"0",1.843617345
"751","Porites profundus",5.274214564,"0",1.836448308
"752","Porites pukoensis",5.622867783,"4",4.663117198
"753","",NA,"",NA
"754","Porites rugosa",5.401868779,"2",3.242884306
"755","Porites rus",4.404075445,"0",1.687153381
"756","Porites sillimaniana",5.410484113,"2",3.244229154
"757","Porites solida",5.264157604,"0",1.834844119
"758","Porites somaliensis",5.262891308,"1",2.527789129
"759","Porites stephensoni",5.565255152,"1",2.574938553
"760","Porites studeri",5.163781234,"0",1.818690426
"761","Porites sverdrupi",5.446772629,"2",3.249873999
"762","Porites tuberculosa",5.473835031,"2",3.254063035
"763","Porites vaughani",5.406938436,"0",1.857381534
"764","Poritipora paliformis",75.75624421,"2",5.726929102
"765","Psammocora albopicta",6.504571209,"1",2.70865950996919
"766","Psammocora contigua",6.491378672,"1",2.70690003
"767","Psammocora decussata",6.499221357,"1",2.70794637664597
"768","Psammocora digitata",6.417577829,"1",2.696999746
"769","Psammocora explanulata",6.669380957,"0",2.037235902
"770","Psammocora haimeana",6.398836787,"0",2.001322797
"771","Psammocora interstinctus",6.455716086,"1",2.70212817862381
"772","Psammocora nierstraszi",6.417157349,"0",2.003795877
"773","Psammocora obtusangula",6.487038359,"1",2.706320487
"774","Psammocora profundacella",6.584138596,"0",2.02605904
"775","Psammocora ramosa",6.693620265,"1",2.7335386289801
"776","Psammocora stellata",6.322516857,"2",3.377248463
"777","Psammocora superficialis",6.48872416,"0",2.013398444
"778","Psammocora vaughani",6.470469034,"1",2.704104967
"779","Psammocora verrilli",6.380062768,"1",2.69192932428521
"780","Pseudosiderastrea tayami",13.19305826,"1",3.345900171
"781","Sandalolitha dentata",5.723394057,"0",1.905593095
"782","Sandalolitha robusta",5.744322062,"0",1.908700975
"783","Scapophyllia cylindrica",4.514921716,"0",1.707457458
"784","Schizoculina africana",8.647102849,"1",2.95980482793337
"785","Schizoculina fissipara",8.647102849,"1",2.95980482793337
"786","Scolymia australis",11.9531533,"0",2.561339257
"787","Scolymia cubensis",4.287674028,"0",1.665378457
"788","Scolymia lacera",4.424196046,"0",1.690869694
"789","Scolymia vitiensis",11.9531533,"1",3.254486437
"790","Scolymia wellsi",4.287674028,"1",2.35852563748764
"791","Seriatopora aculeata",8.872260953,"2",3.676023262
"792","Seriatopora caliendrum",9.695027016,"1",3.062926049
"793","Seriatopora dendritica",8.509197612,"2",3.638553861
"794","Seriatopora guttatus",8.511913732,"0",2.25254509
"795","Seriatopora hystrix",8.516952554,"0",2.253074688
"796","Seriatopora stellata",8.872260953,"1",2.982876081
"797","Siderastrea glynni",26.5732554,"4",6.089435018
"798","Siderastrea radians",26.64221032,"0",3.319343964
"799","Siderastrea savignyana",26.54351387,"0",3.315767077
"800","Siderastrea siderea",26.5346103,"0",3.31544377
"801","Siderastrea stellata",26.46512928,"1",4.00606435442519
"802","Simplastrea vesicularis",10.27127692,"1",3.11540480476658
"803","Solenastrea bournoni",19.54516187,"0",3.022625481
"804","Solenastrea hyades",8.78769782,"0",2.281126273
"805","Stephanocoenia intersepta",125.004425,"0",4.836317025
"806","Stylaraea punctata",28.44560341,"1",4.07569178952966
"807","Stylocoeniella armata",17.6448563,"0",2.925570306
"808","Stylocoeniella cocosensis",19.51503084,"2",4.40745219
"809","Stylocoeniella guentheri",17.6448563,"0",2.925570306
"810","Stylocoeniella muscosus",19.33516572,"1",3.70549886938187
"811","Stylophora danae",8.743832215,"0",2.276634492
"812","Stylophora kuehlmanni",8.386225756,"0",2.23924327
"813","Stylophora madagascarensis",8.384100581,"3",4.318458371
"814","Stylophora mamillata",9.556469044,"0",2.356738852
"815","Stylophora pistillata",8.743832215,"1",2.969781672
"816","Stylophora subseriata",8.386251466,"0",2.239246009
"817","Stylophora wellsi",9.599492662,"1",3.053953318
"818","Symphyllia agaricia",4.967996333,"0",1.786411248
"819","Symphyllia erythraea",6.805267375,"0",2.05479881
"820","Symphyllia hassi",6.821961315,"2",3.443229692
"821","Symphyllia radians",5.160606423,"0",1.818175218
"822","Symphyllia recta",4.895173732,"0",1.774134005
"823","Symphyllia valenciennesii",6.797330242,"0",2.053781398
"824","Symphyllia wilsoni",4.895173732,"0",1.774134005
"825","Trachyphyllia geoffroyi",5.839393109,"1",2.615846182
"826","Turbinaria bifrons",16.05377928,"2",4.222666199
"827","Turbinaria conspicua",16.20527849,"0",2.845216226
"828","",NA,"",NA
"829","Turbinaria frondens",15.93792485,"0",2.829555182
"830","Turbinaria heronensis",16.31654021,"2",4.237956487
"831","Turbinaria irregularis",16.68151312,"0",2.872519637
"832","Turbinaria mesenterina",16.5761365,"2",4.252836462
"833","Turbinaria patula",16.09104885,"2",4.224849229
"834","Turbinaria peltata",16.42166023,"2",4.244008634
"835","Turbinaria radicalis",16.28724765,"1",3.54311628
"836","Turbinaria reniformis",16.14904673,"2",4.228236949
"837","Turbinaria stellulata",15.77543067,"2",4.206209717
"838","Zoopilus echinatus",6.736419796,"0",2.045939022
