"","species","ED","PEXT","PEXT.ED","Psurvival","EDloss","propEDloss"
"1","Acanthastrea bowerbanki",5.675922217,0.05,5.39212610615,0.95,0.28379611085,0.05
"2","Acanthastrea brevis",5.595578123,0.05,5.31579921685,0.95,0.279778906150001,0.0500000000000001
"3","Acanthastrea echinata",5.602724462,5e-05,5.6024443257769,0.99995,0.000280136223099525,4.99999999999153e-05
"4","Acanthastrea faviaformis",5.618846868,0.05,5.3379045246,0.95,0.2809423434,0.0500000000000001
"5","Acanthastrea hemprichii",5.580516689,0.05,5.30149085455,0.95,0.279025834450001,0.0500000000000001
"6","Acanthastrea hillae",15.59456724,0.004,15.53218897104,0.996,0.0623782689599999,0.00399999999999999
"7","Acanthastrea ishigakiensis",5.637485867,0.05,5.35561157365,0.95,0.28187429335,0.0500000000000001
"8","Acanthastrea lordhowensis",5.592380678,0.004,5.570011155288,0.996,0.0223695227120002,0.00400000000000004
"9","Acanthastrea maxima",5.625221386,0.004,5.602720500456,0.996,0.0225008855439999,0.00399999999999998
"10","Acanthastrea regularis",5.690347524,0.05,5.4058301478,0.95,0.2845173762,0.05
"11","Acanthastrea rotundoflora",5.654704103,0.004,5.632085286588,0.996,0.0226188164119998,0.00399999999999997
"12","Acanthastrea subechinata",5.627209921,0.004,5.604701081316,0.996,0.0225088396839999,0.00399999999999997
"13","Acropora abrolhosensis",3.663131113,0.05,3.47997455735,0.95,0.18315655565,0.05
"14","Acropora abrotanoides",3.898867883,5e-05,3.89867293960585,0.99995,0.000194943394149938,4.99999999999841e-05
"15","Acropora aculeus",3.655369763,0.05,3.47260127485,0.95,0.18276848815,0.0500000000000001
"16","Acropora acuminata",2.608930388,0.05,2.4784838686,0.95,0.1304465194,0.05
"17","Acropora akajimensis",3.636543809,0.05,3.45471661855,0.95,0.18182719045,0.05
"18","Acropora anthocercis",2.60121252,0.05,2.471151894,0.95,0.130060626,0.0500000000000001
"19","Acropora appressa",3.66263372,0.004,3.64798318512,0.996,0.0146505348799999,0.00399999999999997
"20","Acropora arabensis",3.756410604,0.004,3.741384961584,0.996,0.015025642416,0.004
"21","Acropora aspera",5.460718409,0.05,5.18768248855,0.95,0.27303592045,0.05
"22","Acropora austera",3.616983276,0.004,3.602515342896,0.996,0.0144679331040001,0.00400000000000002
"23","Acropora awi",3.672050033,0.05,3.48844753135,0.95,0.18360250165,0.0500000000000001
"24","Acropora batunai",3.761784766,0.05,3.5736955277,0.95,0.1880892383,0.0500000000000001
"25","Acropora bifurcata",3.88847972,0.05,3.694055734,0.95,0.194423986,0.0500000000000001
"26","Acropora branchi",3.673047138,0.05,3.4893947811,0.95,0.1836523569,0.05
"27","Acropora bushyensis",3.389764274,5e-05,3.3895947857863,0.99995,0.000169488213699776,4.99999999999338e-05
"28","Acropora cardenae",3.621185617,0.05,3.44012633615,0.95,0.18105928085,0.05
"29","Acropora carduus",2.96948673,0.004,2.95760878308,0.996,0.0118779469199999,0.00399999999999996
"30","Acropora caroliniana",3.814481825,0.05,3.62375773375,0.95,0.19072409125,0.0500000000000001
"31","Acropora cerealis",3.840870299,5e-05,3.84067825548505,0.99995,0.000192043514950058,5.0000000000015e-05
"32","Acropora cervicornis",3.443796386,0.97,0.10331389158,0.03,3.34048249442,0.97
"33","Acropora chesterfieldensis",4.046168031,5e-05,4.04596572259845,0.99995,0.000202308401550333,5.00000000000823e-05
"34","Acropora clathrata",2.377706527,5e-05,2.37758764167365,0.99995,0.000118885326350071,5.00000000000299e-05
"35","Acropora convexa",3.609852466,0.05,3.4293598427,0.95,0.1804926233,0.05
"36","Acropora cophodactyla",4.415663445,0.05,4.19488027275,0.95,0.22078317225,0.05
"37","Acropora copiosa",3.735398019,0.05,3.54862811805,0.95,0.18676990095,0.0500000000000001
"38","Acropora cytherea",3.549483579,5e-05,3.54930610482105,0.99995,0.000177474178950199,5.0000000000056e-05
"39","Acropora dendrum",2.598265244,0.05,2.4683519818,0.95,0.1299132622,0.05
"40","Acropora derawanensis",3.865910738,0.05,3.6726152011,0.95,0.1932955369,0.05
"41","Acropora desalwii",3.538628586,0.05,3.3616971567,0.95,0.1769314293,0.05
"42","Acropora digitifera",3.863562221,0.004,3.848107972116,0.996,0.0154542488840002,0.00400000000000004
"43","Acropora divaricata",3.754256318,0.004,3.739239292728,0.996,0.0150170252719999,0.00399999999999997
"44","Acropora donei",3.636543809,0.05,3.45471661855,0.95,0.18182719045,0.05
"45","Acropora downingi",2.416347521,5e-05,2.41622670362395,0.99995,0.000120817376049853,4.99999999999392e-05
"46","Acropora echinata",3.686793934,0.05,3.5024542373,0.95,0.1843396967,0.0500000000000001
"47","Acropora efflorescens",3.559059561,0.05,3.38110658295,0.95,0.17795297805,0.05
"48","Acropora elegans",2.607302908,0.05,2.4769377626,0.95,0.1303651454,0.0500000000000001
"49","Acropora elegantula",3.70337815,0.05,3.5182092425,0.95,0.1851689075,0.05
"50","Acropora elseyi",3.755258265,5e-05,3.75507050208675,0.99995,0.000187762913249845,4.99999999999587e-05
"51","Acropora exquisita",3.757384275,0.05,3.56951506125,0.95,0.18786921375,0.05
"52","Acropora fastigata",3.59113,0.05,3.4115735,0.95,0.1795565,0.0500000000000001
"53","Acropora fenneri",3.683216151,0.05,3.49905534345,0.95,0.18416080755,0.05
"54","Acropora filiformis",3.638782461,0.05,3.45684333795,0.95,0.18193912305,0.0500000000000001
"55","Acropora florida",3.984055368,0.004,3.968119146528,0.996,0.0159362214719998,0.00399999999999995
"56","Acropora forskali",3.554527257,0.05,3.37680089415,0.95,0.17772636285,0.05
"57","Acropora gemmifera",3.692452908,5e-05,3.6922682853546,0.99995,0.00018462264540009,5.00000000000243e-05
"58","Acropora glauca",3.545332415,0.004,3.53115108534,0.996,0.01418132966,0.00399999999999999
"59","Acropora globiceps",3.814250951,0.05,3.62353840345,0.95,0.19071254755,0.05
"60","Acropora gomezi",3.745612249,0.05,3.55833163655,0.95,0.18728061245,0.0500000000000001
"61","Acropora grandis",2.807916179,5e-05,2.80777578319105,0.99995,0.000140395808950089,5.00000000000317e-05
"62","Acropora granulosa",2.96948673,0.004,2.95760878308,0.996,0.0118779469199999,0.00399999999999996
"63","Acropora haimei",3.562893633,0.05,3.38474895135,0.95,0.17814468165,0.05
"64","Acropora halmaherae",3.623828175,0.05,3.44263676625,0.95,0.18119140875,0.0500000000000001
"65","Acropora hemprichii",3.856732022,0.05,3.6638954209,0.95,0.1928366011,0.0500000000000001
"66","Acropora hoeksemai",3.87394685,0.05,3.6802495075,0.95,0.1936973425,0.05
"67","Acropora horrida",3.57228809,0.05,3.3936736855,0.95,0.1786144045,0.0500000000000001
"68","Acropora humilis",3.814250951,0.004,3.798993947196,0.996,0.0152570038039999,0.00399999999999996
"69","Acropora hyacinthus",3.354312694,0.004,3.340895443224,0.996,0.013417250776,0.00399999999999999
"70","Acropora indonesia",3.027693093,0.05,2.87630843835,0.95,0.15138465465,0.0500000000000001
"71","Acropora inermis",3.63393942,0.05,3.452242449,0.95,0.181696971,0.05
"72","Acropora insignis",3.58494067,0.05,3.4056936365,0.95,0.1792470335,0.0500000000000001
"74","Acropora irregularis",2.738880261,0.05,2.60193624795,0.95,0.13694401305,0.05
"75","Acropora jacquelineae",3.708494383,0.05,3.52306966385,0.95,0.18542471915,0.0500000000000001
"76","Acropora japonica",3.646503999,0.05,3.46417879905,0.95,0.18232519995,0.0500000000000001
"77","Acropora khayranensis",3.786035687,0.05,3.59673390265,0.95,0.18930178435,0.05
"78","Acropora kimbeensis",3.699045525,0.05,3.51409324875,0.95,0.18495227625,0.0500000000000001
"79","Acropora kirstyae",3.804330654,0.05,3.6141141213,0.95,0.1902165327,0.05
"80","Acropora kosurini",3.827922556,0.05,3.6365264282,0.95,0.1913961278,0.05
"81","Acropora lamarcki",3.647340833,0.05,3.46497379135,0.95,0.18236704165,0.05
"82","Acropora latistella",3.669899901,5e-05,3.66971640600495,0.99995,0.000183494995050104,5.00000000000284e-05
"83","Acropora lianae",3.560206794,0.05,3.3821964543,0.95,0.1780103397,0.05
"84","Acropora listeri",2.644015856,0.05,2.5118150632,0.95,0.1322007928,0.05
"85","Acropora loisetteae",5.602749413,0.05,5.32261194235,0.95,0.280137470650001,0.0500000000000001
"86","Acropora lokani",4.097867236,0.05,3.8929738742,0.95,0.2048933618,0.0500000000000001
"87","Acropora longicyathus",3.907871186,5e-05,3.9076757924407,0.99995,0.000195393559299983,4.99999999999957e-05
"88","Acropora loripes",3.659642507,0.004,3.645003936972,0.996,0.0146385700280001,0.00400000000000002
"89","Acropora lovelli",3.608574379,0.05,3.42814566005,0.95,0.18042871895,0.05
"90","Acropora lutkeni",3.415326039,0.004,3.401664734844,0.996,0.0136613041559999,0.00399999999999996
"91","Acropora macrostoma",3.673617854,0.05,3.4899369613,0.95,0.1836808927,0.05
"92","Acropora maryae",3.660174081,0.05,3.47716537695,0.95,0.18300870405,0.05
"93","Acropora massawensis",2.644015856,0.05,2.5118150632,0.95,0.1322007928,0.05
"94","Acropora microclados",3.027693093,0.05,2.87630843835,0.95,0.15138465465,0.0500000000000001
"95","Acropora microphthalma",4.973764151,5e-05,4.97351546279245,0.99995,0.000248688207549641,4.99999999999278e-05
"96","Acropora millepora",3.408306021,0.004,3.394672796916,0.996,0.0136332240839998,0.00399999999999994
"97","Acropora minuta",3.650312251,0.05,3.46779663845,0.95,0.18251561255,0.05
"98","Acropora mirabilis",3.684134072,0.05,3.4999273684,0.95,0.1842067036,0.05
"99","Acropora monticulosa",3.843628964,0.004,3.828254448144,0.996,0.0153745158560001,0.00400000000000004
"100","Acropora multiacuta",3.833765849,0.05,3.64207755655,0.95,0.19168829245,0.0500000000000001
"102","Acropora nana",3.634169986,0.004,3.619633306056,0.996,0.0145366799439999,0.00399999999999997
"103","Acropora nasuta",3.195409356,0.004,3.182627718576,0.996,0.0127816374240002,0.00400000000000006
"104","Acropora natalensis",2.251661789,0.05,2.13907869955,0.95,0.11258308945,0.0500000000000001
"105","Acropora navini",3.679671977,0.05,3.49568837815,0.95,0.18398359885,0.0500000000000001
"106","Acropora ocellata",3.415326039,0.05,3.24455973705,0.95,0.17076630195,0.05
"107","Acropora orbicularis",2.368831489,0.05,2.25038991455,0.95,0.11844157445,0.0500000000000001
"108","Acropora pagoensis",3.514653073,0.05,3.33892041935,0.95,0.17573265365,0.0500000000000001
"109","Acropora palmata",3.443796386,0.97,0.10331389158,0.03,3.34048249442,0.97
"110","Acropora palmerae",2.742471579,0.05,2.60534800005,0.95,0.13712357895,0.0500000000000001
"111","Acropora paniculata",3.355757476,0.05,3.1879696022,0.95,0.1677878738,0.05
"112","Acropora papillare",4.420365368,0.05,4.1993470996,0.95,0.2210182684,0.05
"113","Acropora paragemmifera",3.604370088,0.05,3.4241515836,0.95,0.1802185044,0.05
"114","Acropora parahemprichii",3.546492646,0.05,3.3691680137,0.95,0.1773246323,0.05
"115","Acropora parapharaonis",3.590730134,0.05,3.4111936273,0.95,0.1795365067,0.0500000000000001
"116","Acropora parilis",3.730336256,0.05,3.5438194432,0.95,0.1865168128,0.0500000000000001
"117","Acropora pectinatus",3.640224673,0.05,3.45821343935,0.95,0.18201123365,0.0500000000000001
"118","Acropora pharaonis",3.722695788,0.05,3.5365609986,0.95,0.1861347894,0.05
"119","Acropora pichoni",3.827254428,0.004,3.811945410288,0.996,0.0153090177120001,0.00400000000000003
"120","Acropora pinguis",3.679197259,0.05,3.49523739605,0.95,0.18395986295,0.05
"121","Acropora plana",3.656611135,0.05,3.47378057825,0.95,0.18283055675,0.0500000000000001
"122","Acropora plantaginea",3.4860315,0.05,3.311729925,0.95,0.174301575,0.0500000000000001
"123","Acropora plumosa",3.587273168,0.05,3.4079095096,0.95,0.1793636584,0.0500000000000001
"124","Acropora polystoma",2.416347521,0.05,2.29553014495,0.95,0.12081737605,0.0500000000000001
"125","Acropora prostrata",3.611561887,0.05,3.43098379265,0.95,0.18057809435,0.0500000000000001
"126","Acropora proximalis",3.579429347,0.05,3.40045787965,0.95,0.17897146735,0.0500000000000001
"127","Acropora pruinosa",3.69951315,0.05,3.5145374925,0.95,0.1849756575,0.0500000000000001
"128","Acropora pulchra",5.460718409,5e-05,5.46044537307955,0.99995,0.000273035920449693,4.99999999999439e-05
"129","Acropora rambleri",3.764666059,0.05,3.57643275605,0.95,0.18823330295,0.05
"130","Acropora retusa",3.751615185,0.05,3.56403442575,0.95,0.18758075925,0.0500000000000001
"131","Acropora ridzwani",3.72530673,0.05,3.5390413935,0.95,0.1862653365,0.05
"132","Acropora robusta",3.856876891,5e-05,3.85668404715545,0.99995,0.000192843844549984,4.99999999999957e-05
"133","Acropora rongelapensis",7.251719808,0.05,6.8891338176,0.95,0.3625859904,0.0500000000000001
"134","Acropora rosaria",3.617058921,0.05,3.43620597495,0.95,0.18085294605,0.0500000000000001
"135","Acropora roseni",3.808470993,0.42,2.20891317594,0.58,1.59955781706,0.42
"136","Acropora rudis",3.752850959,0.42,2.17665355622,0.58,1.57619740278,0.42
"137","Acropora rufus",3.649958491,0.05,3.46746056645,0.95,0.18249792455,0.0500000000000001
"138","Acropora russelli",3.632017065,0.05,3.45041621175,0.95,0.18160085325,0.05
"139","Acropora samoensis",3.730772565,5e-05,3.73058602637175,0.99995,0.000186538628249799,4.99999999999462e-05
"140","Acropora sarmentosa",3.722393929,5e-05,3.72220780930355,0.99995,0.000186119696449882,4.99999999999684e-05
"141","Acropora scherzeriana",3.692452908,0.05,3.5078302626,0.95,0.1846226454,0.0500000000000001
"142","Acropora schmitti",3.817370273,0.05,3.62650175935,0.95,0.19086851365,0.0500000000000001
"143","Acropora secale",3.986948675,0.004,3.9710008803,0.996,0.0159477947000002,0.00400000000000005
"144","Acropora sekiseiensis",3.598563608,0.05,3.4186354276,0.95,0.1799281804,0.05
"145","Acropora selago",3.408306021,0.004,3.394672796916,0.996,0.0136332240839998,0.00399999999999994
"146","Acropora seriata",3.557495555,0.05,3.37962077725,0.95,0.17787477775,0.05
"147","Acropora simplex",6.034808399,0.05,5.73306797905,0.95,0.301740419950001,0.0500000000000001
"148","Acropora solitaryensis",2.251661789,0.05,2.13907869955,0.95,0.11258308945,0.0500000000000001
"149","Acropora spathulata",3.670952551,5e-05,3.67076900337245,0.99995,0.000183547627549796,4.99999999999444e-05
"150","Acropora speciosa",3.682859675,0.05,3.49871669125,0.95,0.18414298375,0.05
"151","Acropora spicifera",3.733999668,0.05,3.5472996846,0.95,0.1866999834,0.05
"152","Acropora squarrosa",3.659642507,5e-05,3.65945952487465,0.99995,0.000182982125350062,5.00000000000169e-05
"153","Acropora stoddarti",3.767446591,0.05,3.57907426145,0.95,0.18837232955,0.0500000000000001
"154","Acropora striata",3.635905658,0.05,3.4541103751,0.95,0.1817952829,0.05
"155","Acropora subglabra",3.805528276,5e-05,3.8053379995862,0.99995,0.000190276413799761,4.99999999999373e-05
"156","Acropora subulata",3.669899901,5e-05,3.66971640600495,0.99995,0.000183494995050104,5.00000000000284e-05
"157","Acropora suharsonoi",3.550556176,0.42,2.05932258208,0.58,1.49123359392,0.42
"158","Acropora sukarnoi",2.585977535,0.05,2.45667865825,0.95,0.12929887675,0.05
"159","Acropora tanegashimensis",3.354312694,0.05,3.1865970593,0.95,0.1677156347,0.05
"160","Acropora tenella",3.783443366,0.05,3.5942711977,0.95,0.1891721683,0.0500000000000001
"161","Acropora tenuis",3.859584849,0.004,3.844146509604,0.996,0.0154383393959998,0.00399999999999995
"162","Acropora teres",3.575009029,0.05,3.39625857755,0.95,0.17875045145,0.05
"163","Acropora tizardi",3.682005312,0.05,3.4979050464,0.95,0.1841002656,0.05
"164","Acropora torihalimeda",3.628183304,0.05,3.4467741388,0.95,0.1814091652,0.0500000000000001
"165","Acropora torresiana",3.571398816,0.05,3.3928288752,0.95,0.1785699408,0.05
"166","Acropora tortuosa",3.880464096,5e-05,3.8802700727952,0.99995,0.000194023204799887,4.99999999999709e-05
"167","Acropora tumida",3.538681071,0.05,3.36174701745,0.95,0.17693405355,0.05
"168","Acropora turaki",3.650440296,0.05,3.4679182812,0.95,0.1825220148,0.05
"169","Acropora tutuilensis",3.357880493,0.05,3.18998646835,0.95,0.16789402465,0.0500000000000001
"170","Acropora valenciennesi",3.658001217,5e-05,3.65781831693915,0.99995,0.000182900060849978,4.99999999999939e-05
"171","Acropora valida",3.756410604,5e-05,3.7562227834698,0.99995,0.000187820530200167,5.00000000000444e-05
"172","Acropora variabilis",3.856431631,0.05,3.66361004945,0.95,0.19282158155,0.05
"173","Acropora variolosa",3.625335969,5e-05,3.62515470220155,0.99995,0.000181266798449986,4.99999999999962e-05
"174","Acropora vaughani",4.420365368,0.05,4.1993470996,0.95,0.2210182684,0.05
"175","Acropora vermiculata",3.722393929,0.05,3.53627423255,0.95,0.18611969645,0.05
"176","Acropora verweyi",3.608696711,0.05,3.42826187545,0.95,0.18043483555,0.0500000000000001
"177","Acropora walindii",3.84544384,0.05,3.653171648,0.95,0.192272192,0.0500000000000001
"178","Acropora wallaceae",3.758327331,0.05,3.57041096445,0.95,0.18791636655,0.05
"179","Acropora willisae",3.606829637,0.05,3.42648815515,0.95,0.18034148185,0.0500000000000001
"180","Acropora yongei",2.639294664,5e-05,2.6391626992668,0.99995,0.000131964733200096,5.00000000000364e-05
"181","Agaricia agaricites",6.430010785,5e-05,6.42968928446075,0.99995,0.00032150053924962,4.99999999999408e-05
"182","Agaricia fragilis",5.982303075,0.05,5.68318792125,0.95,0.29911515375,0.05
"183","Agaricia grahamae",5.900153289,5e-05,5.89985828133555,0.99995,0.000295007664449898,4.99999999999827e-05
"184","Agaricia humilis",9.639657889,5e-05,9.63917590610555,0.99995,0.000481982894449118,4.99999999999085e-05
"185","Agaricia lamarcki",5.982303075,0.05,5.68318792125,0.95,0.29911515375,0.05
"186","Agaricia tenuifolia",6.430010785,0.004,6.40429074186,0.996,0.0257200431399998,0.00399999999999996
"187","Agaricia undata",5.900153289,0.05,5.60514562455,0.95,0.29500766445,0.05
"188","Alveopora allingi",8.696407546,0.05,8.2615871687,0.95,0.434820377300001,0.0500000000000001
"189","Alveopora catalai",8.712222005,0.004,8.67737311698,0.996,0.0348488880200009,0.0040000000000001
"190","Alveopora daedalea",9.243625011,0.05,8.78144376045,0.95,0.46218125055,0.05
"191","Alveopora excelsa",10.92574193,0.42,6.3369303194,0.58,4.5888116106,0.42
"192","Alveopora fenestrata",8.817499588,0.05,8.3766246086,0.95,0.4408749794,0.05
"193","Alveopora gigas",8.673234078,0.05,8.2395723741,0.95,0.4336617039,0.05
"194","Alveopora japonica",9.040324357,0.05,8.58830813915,0.95,0.45201621785,0.05
"195","Alveopora marionensis",8.78400173,0.05,8.3448016435,0.95,0.4392000865,0.05
"196","Alveopora minuta",9.312800001,0.42,5.40142400058,0.58,3.91137600042,0.42
"197","Alveopora ocellata",10.01977226,0.05,9.518783647,0.95,0.500988613000001,0.0500000000000001
"198","Alveopora spongiosa",9.243625011,0.004,9.206650510956,0.996,0.0369745000439998,0.00399999999999998
"199","Alveopora tizardi",9.040324357,5e-05,9.03987234078215,0.99995,0.000452016217849405,4.99999999999342e-05
"200","Alveopora verrilliana",8.833704986,0.05,8.3920197367,0.95,0.441685249300001,0.0500000000000001
"201","Alveopora viridis",9.312800001,0.004,9.275548800996,0.996,0.0372512000040004,0.00400000000000004
"202","Anacropora forbesi",4.09908268,5e-05,4.098877725866,0.99995,0.000204954134000346,5.00000000000844e-05
"203","Anacropora matthai",4.383295366,0.05,4.1641305977,0.95,0.2191647683,0.0499999999999999
"204","Anacropora pillai",4.102558505,0.05,3.89743057975,0.95,0.20512792525,0.0500000000000001
"205","Anacropora puertogalerae",4.118229838,0.05,3.9123183461,0.95,0.2059114919,0.0500000000000001
"206","Anacropora reticulata",4.101743624,0.05,3.8966564428,0.95,0.2050871812,0.05
"207","Anacropora spinosa",4.383295366,0.42,2.54231131228,0.58,1.84098405372,0.42
"208","Anacropora spumosa",4.141159566,0.05,3.9341015877,0.95,0.2070579783,0.0500000000000001
"209","Anomastraea irregularis",13.19305826,0.05,12.533405347,0.95,0.659652913,0.05
"210","Astrangia poculata",9.931668356,5e-05,9.9311717725822,0.99995,0.000496583417799457,4.99999999999453e-05
"213","Astreopora cucullata",7.673864712,0.05,7.2901714764,0.95,0.3836932356,0.05
"214","Astreopora eliptica",8.052338394,0.05,7.6497214743,0.95,0.402616919700001,0.0500000000000001
"215","Astreopora expansa",7.883642934,0.004,7.852108362264,0.996,0.0315345717359996,0.00399999999999995
"216","Astreopora gracilis",7.644734302,5e-05,7.6443520652849,0.99995,0.000382236715100071,5.00000000000092e-05
"217","Astreopora incrustans",7.922128428,0.05,7.5260220066,0.95,0.396106421400001,0.0500000000000001
"218","Astreopora listeri",8.068914299,5e-05,8.06851085328505,0.99995,0.000403445714949768,4.99999999999713e-05
"219","Astreopora macrostoma",7.787213459,0.004,7.756064605164,0.996,0.0311488538360001,0.00400000000000001
"221","Astreopora moretonensis",7.84323164,0.05,7.451070058,0.95,0.392161582,0.05
"222","Astreopora myriophthalma",7.613190739,5e-05,7.61281007946305,0.99995,0.000380659536950212,5.00000000000278e-05
"223","Astreopora ocellata",7.915097627,5e-05,7.91470187211865,0.99995,0.000395754881349575,4.99999999999463e-05
"224","Astreopora randalli",7.958711315,5e-05,7.95831337943425,0.99995,0.000397935565749741,4.99999999999674e-05
"225","Astreopora scabra",8.184633904,5e-05,8.1842246723048,0.99995,0.000409231695199352,4.99999999999209e-05
"226","Astreopora suggesta",7.992294803,5e-05,7.99189518825985,0.99995,0.000399614740150156,5.00000000000195e-05
"227","Australogyra zelli",6.791892757,0.05,6.45229811915,0.95,0.33959463785,0.05
"228","Australomussa rowleyensis",24.16556453,0.004,24.06890227188,0.996,0.0966622581199985,0.00399999999999994
"229","Balanophyllia europaea",39.40146363,5e-05,39.3994935568185,0.99995,0.00197007318149645,4.99999999999098e-05
"230","Barabattoia amicorum",2.931074727,5e-05,2.93092817326365,0.99995,0.000146553736350086,5.00000000000292e-05
"231","Barabattoia laddi",2.931074727,0.05,2.78452099065,0.95,0.14655373635,0.05
"232","Blastomussa merleti",16.68816091,5e-05,16.6873265019545,0.99995,0.000834408045498947,4.99999999999369e-05
"233","Blastomussa wellsi",16.68816091,0.004,16.62140826636,0.996,0.066752643640001,0.00400000000000006
"234","Boninastrea boninensis",3.520788366,0.05,3.3447489477,0.95,0.1760394183,0.0500000000000001
"235","Cantharellus doederleini",6.388322603,5e-05,6.38800318686985,0.99995,0.000319416130150074,5.00000000000116e-05
"236","Cantharellus jebbi",6.415755923,5e-05,6.41543513520385,0.99995,0.000320787796149524,4.99999999999258e-05
"237","Cantharellus noumeae",6.348348042,0.42,3.68204186436,0.58,2.66630617764,0.42
"238","Catalaphyllia jardinei",16.16590613,0.05,15.3576108235,0.95,0.808295306500002,0.0500000000000001
"239","Caulastraea furcata",3.686958856,5e-05,3.6867745080572,0.99995,0.000184347942799867,4.9999999999964e-05
"240","Caulastrea connata",3.687889231,0.05,3.50349476945,0.95,0.18439446155,0.05
"241","Caulastrea curvata",3.686958856,0.05,3.5026109132,0.95,0.1843479428,0.05
"242","Caulastrea echinulata",4.607456473,0.05,4.37708364935,0.95,0.23037282365,0.05
"243","Caulastrea tumida",3.687889231,0.004,3.673137674076,0.996,0.0147515569240002,0.00400000000000006
"244","Cladocora arbuscula",9.948732066,5e-05,9.9482346293967,0.99995,0.000497436603300372,5.00000000000374e-05
"245","Cladocora caespitosa",9.971121982,0.42,5.78325074956,0.58,4.18787123244,0.42
"246","Coeloseris mayeri",9.938131951,5e-05,9.93763504440245,0.99995,0.000496906597549085,4.99999999999079e-05
"249","Colpophyllia natans",3.92730087,5e-05,3.9271045049565,0.99995,0.00019636504350018,5.00000000000457e-05
"250","Coscinaraea columna",6.553231774,5e-05,6.5529041124113,0.99995,0.00032766158869979,4.9999999999968e-05
"251","Coscinaraea crassa",6.601723485,0.004,6.57531659106,0.996,0.02640689394,0.00399999999999999
"252","Coscinaraea exesa",6.580693318,5e-05,6.5803642833341,0.99995,0.000329034665900174,5.00000000000265e-05
"253","Coscinaraea hahazimaensis",6.550050774,0.05,6.2225482353,0.95,0.3275025387,0.05
"254","Coscinaraea marshae",6.657558168,5e-05,6.6572252900916,0.99995,0.000332877908399531,4.99999999999296e-05
"255","Coscinaraea mcneilli",6.621578994,5e-05,6.6212479150503,0.99995,0.000331078949700192,5.0000000000029e-05
"256","Coscinaraea monile",6.584723713,5e-05,6.58439447681435,0.99995,0.000329236185650394,5.00000000000599e-05
"257","Coscinaraea wellsi",6.669380957,5e-05,6.66904748795215,0.99995,0.00033346904784981,4.99999999999716e-05
"258","Craterastrea levis",12.08425395,5e-05,12.0836497373025,0.99995,0.000604212697499662,4.9999999999972e-05
"259","Ctenactis albitentaculata",6.535195159,0.004,6.509054378364,0.996,0.0261407806360001,0.00400000000000002
"260","Ctenactis crassa",7.311596373,5e-05,7.31123079318135,0.99995,0.000365579818650374,5.00000000000512e-05
"261","Ctenactis echinata",6.535195159,5e-05,6.53486839924205,0.99995,0.000326759757950157,5.0000000000024e-05
"262","Ctenella chagius",7.415637835,0.42,4.3010699443,0.58,3.1145678907,0.42
"263","Cycloseris mokai",7.938639107,5e-05,7.93824217504465,0.99995,0.000396931955349622,4.99999999999524e-05
"264","Cynarina lacrymalis",11.95577297,0.004,11.90794987812,0.996,0.0478230918799998,0.00399999999999998
"265","Cyphastrea agassizi",7.375703072,0.05,7.0069179184,0.95,0.3687851536,0.05
"266","Cyphastrea chalcidicum",7.536122596,5e-05,7.5357457898702,0.99995,0.0003768061298004,5.00000000000531e-05
"267","Cyphastrea decadia",6.952968687,5e-05,6.95262103856565,0.99995,0.000347648434350312,5.00000000000448e-05
"268","Cyphastrea hexasepta",6.986937891,0.05,6.63759099645,0.95,0.34934689455,0.05
"269","Cyphastrea japonica",6.952968687,5e-05,6.95262103856565,0.99995,0.000347648434350312,5.00000000000448e-05
"270","Cyphastrea microphthalma",6.986937891,5e-05,6.98658854410545,0.99995,0.000349346894550351,5.00000000000502e-05
"271","Cyphastrea ocellina",7.612711002,0.05,7.2320754519,0.95,0.3806355501,0.05
"272","Cyphastrea serailia",7.520940706,5e-05,7.5205646589647,0.99995,0.000376047035300253,5.00000000000337e-05
"273","Dendrogyra cylindrus",13.40658112,0.05,12.736252064,0.95,0.670329056,0.05
"274","Dichocoenia stellaris",10.68435091,0.05,10.1501333645,0.95,0.534217545500001,0.0500000000000001
"275","Dichocoenia stokesii",10.6945461,0.05,10.159818795,0.95,0.534727305000001,0.0500000000000001
"276","Diploastrea heliopora",70.94554213,0.004,70.66175996148,0.996,0.283782168520005,0.00400000000000008
"277","Diploria clivosa",4.402257344,5e-05,4.4020372311328,0.99995,0.000220112867199695,4.99999999999308e-05
"278","Diploria labyrinthiformis",4.439343286,5e-05,4.4391213188357,0.99995,0.000221967164299564,4.99999999999017e-05
"279","Diploria strigosa",4.402257344,5e-05,4.4020372311328,0.99995,0.000220112867199695,4.99999999999308e-05
"280","Duncanopsammia axifuga",38.98233162,0.004,38.82640229352,0.996,0.155929326479999,0.00399999999999997
"281","Echinomorpha nishihirai",9.52124625,0.004,9.483161265,0.996,0.0380849849999993,0.00399999999999993
"282","Echinophyllia aspera",5.388938615,5e-05,5.38866916806925,0.99995,0.000269446930749595,4.99999999999249e-05
"283","Echinophyllia costata",5.425974963,0.05,5.15467621485,0.95,0.27129874815,0.0500000000000001
"284","Echinophyllia echinata",5.708031239,5e-05,5.70774583743805,0.99995,0.000285401561949783,4.9999999999962e-05
"285","Echinophyllia echinoporoides",5.620560223,5e-05,5.62027919498885,0.99995,0.000281028011150042,5.00000000000074e-05
"286","Echinophyllia orpheensis",5.693134819,5e-05,5.69285016225905,0.99995,0.00028465674095024,5.00000000000421e-05
"287","Echinophyllia patula",5.388938615,5e-05,5.38866916806925,0.99995,0.000269446930749595,4.99999999999249e-05
"288","Echinophyllia pectinata",5.425974963,0.05,5.15467621485,0.95,0.27129874815,0.0500000000000001
"289","Echinopora ashmorensis",5.886560357,0.05,5.59223233915,0.95,0.29432801785,0.05
"290","Echinopora forskaliana",5.887334735,0.004,5.86378539606,0.996,0.0235493389399997,0.00399999999999994
"291","Echinopora fruticulosa",6.505458538,0.004,6.479436703848,0.996,0.026021834152,0.004
"292","Echinopora gemmacea",6.388148745,5e-05,6.38782933756275,0.99995,0.000319407437250341,5.00000000000534e-05
"293","Echinopora grandicula",6.396172495,0.05,6.07636387025,0.95,0.31980862475,0.05
"294","Echinopora hirsutissima",5.946467859,5e-05,5.94617053560705,0.99995,0.00029732339295041,5.0000000000069e-05
"295","Echinopora horrida",6.353189664,0.004,6.327776905344,0.996,0.0254127586560005,0.00400000000000007
"296","Echinopora irregularis",5.946467859,0.05,5.64914446605,0.95,0.29732339295,0.05
"297","Echinopora lamellosa",5.886560357,5e-05,5.88626602898215,0.99995,0.000294328017849566,4.99999999999262e-05
"298","Echinopora mammiformis",6.742597124,0.004,6.715626735504,0.996,0.0269703884960002,0.00400000000000003
"299","Echinopora pacificus",6.440201514,0.004,6.414440707944,0.996,0.0257608060559997,0.00399999999999996
"300","Echinopora robusta",5.887334735,0.05,5.59296799825,0.95,0.29436673675,0.05
"301","Echinopora taylorae",6.734236542,0.004,6.707299595832,0.996,0.026936946168,0.004
"302","Echinopora tiranensis",6.428660584,0.05,6.1072275548,0.95,0.3214330292,0.0500000000000001
"303","Enigmopora darveliensis",25.32069358,0.05,24.054658901,0.95,1.266034679,0.05
"304","Erythrastrea flabellata",5.541739586,0.004,5.519572627656,0.996,0.0221669583440001,0.00400000000000001
"305","Euphyllia ancora",9.461487289,0.05,8.98841292455,0.95,0.473074364450001,0.0500000000000001
"306","Euphyllia cristata",7.013165598,0.05,6.6625073181,0.95,0.3506582799,0.05
"307","Euphyllia divisa",8.876908223,0.004,8.841400590108,0.996,0.0355076328919992,0.00399999999999991
"308","Euphyllia glabrescens",7.026485971,0.004,6.998380027116,0.996,0.0281059438840003,0.00400000000000005
"309","Euphyllia paraancora",9.421291327,0.05,8.95022676065,0.95,0.47106456635,0.05
"310","Euphyllia paradivisa",7.011676007,0.05,6.66109220665,0.95,0.35058380035,0.05
"311","Euphyllia paraglabrescens",7.011554559,0.05,6.66097683105,0.95,0.35057772795,0.05
"312","Euphyllia yaeyamaensis",8.876908223,0.004,8.841400590108,0.996,0.0355076328919992,0.00399999999999991
"313","Eusmilia fastigiata",10.68462426,5e-05,10.684090028787,0.99995,0.00053423121300078,5.0000000000073e-05
"314","Favia albidus",2.805072631,0.004,2.793852340476,0.996,0.0112202905240002,0.00400000000000007
"315","Favia danae",3.20151711,5e-05,3.2013570341445,0.99995,0.000160075855499819,4.99999999999436e-05
"316","Favia favus",3.137267353,5e-05,3.13711048963235,0.99995,0.000156863367649862,4.9999999999956e-05
"317","Favia fragum",4.870227029,5e-05,4.86998351764855,0.99995,0.000243511351450287,5.0000000000059e-05
"319","Favia helianthoides",2.939295027,0.004,2.927537846892,0.996,0.0117571801079999,0.00399999999999995
"320","Favia lacuna",5.754096142,0.004,5.731079757432,0.996,0.0230163845679998,0.00399999999999997
"321","Favia laxa",2.939295027,0.004,2.927537846892,0.996,0.0117571801079999,0.00399999999999995
"322","Favia leptophylla",6.322620059,0.05,6.00648905605,0.95,0.316131002950001,0.0500000000000001
"323","Favia lizardensis",2.939083707,0.004,2.927327372172,0.996,0.0117563348280001,0.00400000000000003
"324","Favia maritima",5.817220619,0.004,5.793951736524,0.996,0.0232688824759997,0.00399999999999994
"325","Favia marshae",2.662866373,0.004,2.652214907508,0.996,0.0106514654919998,0.00399999999999993
"326","Favia matthaii",2.805072631,0.004,2.793852340476,0.996,0.0112202905240002,0.00400000000000007
"327","Favia maxima",4.017246911,0.004,4.001177923356,0.996,0.0160689876440001,0.00400000000000003
"328","Favia pallida",3.20151711,5e-05,3.2013570341445,0.99995,0.000160075855499819,4.99999999999436e-05
"329","Favia rosaria",5.727485624,0.05,5.4411113428,0.95,0.286374281200001,0.0500000000000001
"330","Favia rotumana",5.742674308,5e-05,5.7423871742846,0.99995,0.00028713371539979,4.99999999999634e-05
"331","Favia rotundata",2.662866373,0.004,2.652214907508,0.996,0.0106514654919998,0.00399999999999993
"332","Favia speciosa",3.238492155,5e-05,3.23833023039225,0.99995,0.000161924607749775,4.99999999999305e-05
"333","Favia stelligera",4.834051434,0.004,4.814715228264,0.996,0.0193362057359998,0.00399999999999996
"334","Favia truncatus",6.735657964,5e-05,6.7353211811018,0.99995,0.000336782898200383,5.00000000000568e-05
"335","Favia veroni",4.017246911,0.004,4.001177923356,0.996,0.0160689876440001,0.00400000000000003
"336","Favia vietnamensis",5.709411706,0.004,5.686574059176,0.996,0.0228376468239997,0.00399999999999995
"337","Favites abdita",3.559612811,0.004,3.545374359756,0.996,0.0142384512440001,0.00400000000000004
"338","Favites acuticollis",3.718212451,0.004,3.703339601196,0.996,0.0148728498040001,0.00400000000000001
"339","Favites bestae",3.713194599,0.004,3.698341820604,0.996,0.014852778396,0.00399999999999999
"340","Favites chinensis",3.754319033,0.004,3.739301756868,0.996,0.0150172761320002,0.00400000000000006
"341","Favites complanata",3.202745882,0.004,3.189934898472,0.996,0.0128109835279999,0.00399999999999997
"342","Favites flexuosa",2.656002629,0.004,2.645378618484,0.996,0.010624010516,0.00400000000000001
"343","Favites halicora",2.656002629,0.004,2.645378618484,0.996,0.010624010516,0.00400000000000001
"344","Favites micropentagona",5.175229716,0.004,5.154528797136,0.996,0.0207009188639997,0.00399999999999995
"345","Favites paraflexuosa",3.684000861,0.004,3.669264857556,0.996,0.0147360034439998,0.00399999999999995
"346","Favites pentagona",5.175229716,5e-05,5.1749709545142,0.99995,0.000258761485800285,5.00000000000551e-05
"347","Favites russelli",5.664323578,0.004,5.641666283688,0.996,0.0226572943120003,0.00400000000000004
"348","Favites spinosa",3.735995398,0.05,3.5491956281,0.95,0.1867997699,0.0500000000000001
"349","Favites stylifera",3.769121338,0.004,3.754044852648,0.996,0.015076485352,0.004
"350","Favites vasta",3.703146026,0.004,3.688333441896,0.996,0.0148125841039999,0.00399999999999997
"351","Fungia costulata",7.582354034,5e-05,7.5819749162983,0.99995,0.000379117701699627,4.99999999999508e-05
"352","Fungia curvata",7.932449598,0.05,7.5358271181,0.95,0.3966224799,0.0500000000000001
"353","Fungia cyclolites",7.54291743,5e-05,7.5425402841285,0.99995,0.000377145871500062,5.00000000000082e-05
"354","Fungia distorta",7.443615124,5e-05,7.4432429432438,0.99995,0.000372180756199825,4.99999999999765e-05
"355","Fungia fragilis",7.331744371,5e-05,7.33137778378145,0.99995,0.000366587218549874,4.99999999999828e-05
"356","Fungia fralinae",13.31617163,5e-05,13.3155058214185,0.99995,0.000665808581500116,5.00000000000087e-05
"357","Fungia fungites",8.549269595,0.004,8.51507251662,0.996,0.0341970783800001,0.00400000000000001
"358","Fungia hexagonalis",7.963995421,5e-05,7.96359722122895,0.99995,0.000398199771050045,5.00000000000057e-05
"359","Fungia horrida",7.713724319,5e-05,7.71333863278405,0.99995,0.000385686215950365,5.00000000000473e-05
"360","Fungia scruposa",7.205627285,5e-05,7.20526700363575,0.99995,0.000360281364249815,4.99999999999743e-05
"361","Fungia scutaria",7.661258889,5e-05,7.66087582605555,0.99995,0.000383062944449897,4.99999999999865e-05
"362","Fungia sinensis",7.847808251,5e-05,7.84741586058745,0.99995,0.000392390412550014,5.00000000000018e-05
"363","Fungia somervillei",7.405693223,5e-05,7.40532293833885,0.99995,0.000370284661149967,4.99999999999955e-05
"364","Fungia tenuis",7.63386168,5e-05,7.633479986916,0.99995,0.000381693083999934,4.99999999999914e-05
"365","Fungia vaughani",7.356795411,5e-05,7.35642757122945,0.99995,0.000367839770549772,4.99999999999689e-05
"366","Galaxea acrhelia",5.855468191,0.05,5.56269478145,0.95,0.292773409550001,0.0500000000000001
"367","Galaxea astreata",5.862920476,0.05,5.5697744522,0.95,0.2931460238,0.0500000000000001
"368","Galaxea cryptoramosa",5.865164118,0.05,5.5719059121,0.95,0.2932582059,0.05
"369","Galaxea fascicularis",7.738412435,0.004,7.70745878526,0.996,0.0309536497399998,0.00399999999999998
"370","Galaxea horrescens",5.845284751,5e-05,5.84499248676245,0.99995,0.000292264237550022,5.00000000000037e-05
"371","Galaxea longisepta",5.854240753,0.004,5.830823789988,0.996,0.023416963012,0.004
"372","Galaxea paucisepta",5.863001862,0.004,5.839549854552,0.996,0.0234520074480002,0.00400000000000004
"373","Gardineroseris planulata",4.757676444,5e-05,4.7574385601778,0.99995,0.000237883822199692,4.99999999999352e-05
"374","Goniastrea aspera",4.813266915,5e-05,4.81302625165425,0.99995,0.000240663345749681,4.99999999999337e-05
"375","Goniastrea australensis",5.664323578,5e-05,5.6640403618211,0.99995,0.000283216178900147,5.0000000000026e-05
"376","Goniastrea columella",3.104192272,0.004,3.091775502912,0.996,0.0124167690879999,0.00399999999999998
"377","Goniastrea deformis",6.820773273,0.05,6.47973460935,0.95,0.34103866365,0.05
"378","Goniastrea edwardsi",3.647919978,5e-05,3.6477375820011,0.99995,0.00018239599890002,5.00000000000055e-05
"379","Goniastrea favulus",3.252883135,0.004,3.23987160246,0.996,0.0130115325400002,0.00400000000000006
"380","Goniastrea minuta",4.058781074,0.004,4.042545949704,0.996,0.0162351242960002,0.00400000000000004
"381","Goniastrea palauensis",5.688507577,0.004,5.665753546692,0.996,0.0227540303079996,0.00399999999999993
"382","Goniastrea pectinata",3.104192272,5e-05,3.1040370623864,0.99995,0.00015520961360016,5.00000000000516e-05
"383","Goniastrea peresi",4.848118309,0.004,4.828725835764,0.996,0.0193924732359996,0.00399999999999991
"384","Goniastrea ramosa",4.04442527,0.05,3.8422040065,0.95,0.2022212635,0.0500000000000001
"385","Goniastrea retiformis",4.052954993,5e-05,4.05275234525035,0.99995,0.000202647749650176,5.00000000000433e-05
"386","Goniastrea thecata",4.8432081,0.004,4.8238352676,0.996,0.0193728324000002,0.00400000000000004
"387","Goniopora albiconus",4.715214006,0.05,4.4794533057,0.95,0.2357607003,0.05
"388","Goniopora burgosi",4.799907146,0.05,4.5599117887,0.95,0.2399953573,0.05
"389","Goniopora cellulosa",4.728918658,0.05,4.4924727251,0.95,0.236445932900001,0.0500000000000001
"390","Goniopora ciliatus",4.767122551,5e-05,4.76688419487245,0.99995,0.000238356127550077,5.00000000000161e-05
"391","Goniopora columna",4.740025256,0.004,4.721065154976,0.996,0.0189601010239997,0.00399999999999994
"392","Goniopora djiboutiensis",4.770165471,5e-05,4.76992696272645,0.99995,0.000238508273549876,4.99999999999739e-05
"393","Goniopora eclipsensis",4.760717269,5e-05,4.76047923313655,0.99995,0.000238035863450392,5.00000000000824e-05
"394","Goniopora fruticosa",4.676605381,5e-05,4.67637155073095,0.99995,0.000233830269049662,4.99999999999277e-05
"395","Goniopora lobata",4.655348576,0.004,4.636727181696,0.996,0.0186213943039997,0.00399999999999993
"396","Goniopora minor",4.88785721,0.004,4.86830578116,0.996,0.0195514288399998,0.00399999999999997
"397","Goniopora norfolkensis",4.698051598,5e-05,4.6978166954201,0.99995,0.000234902579899554,4.99999999999051e-05
"398","Goniopora palmensis",4.699753209,5e-05,4.69951822133955,0.99995,0.000234987660450159,5.00000000000338e-05
"399","Goniopora pandoraensis",4.766302866,5e-05,4.7660645508567,0.99995,0.000238315143300305,5.0000000000064e-05
"400","Goniopora pearsoni",4.747438603,5e-05,4.74720123106985,0.99995,0.000237371930150054,5.00000000000114e-05
"401","Goniopora pendulus",4.766801431,5e-05,4.76656309092845,0.99995,0.000238340071549992,4.99999999999983e-05
"402","Goniopora planulata",4.748246282,0.05,4.5108339679,0.95,0.2374123141,0.05
"403","Goniopora polyformis",4.712788784,0.05,4.4771493448,0.95,0.2356394392,0.05
"404","Goniopora savignyi",4.751430188,5e-05,4.7511926164906,0.99995,0.00023757150940007,5.00000000000147e-05
"405","Goniopora somaliensis",4.826988345,5e-05,4.82674699558275,0.99995,0.000241349417249737,4.99999999999454e-05
"406","Goniopora stokesi",4.707515692,0.004,4.688685629232,0.996,0.018830062768,0.00400000000000001
"407","Goniopora stutchburyi",4.778003459,5e-05,4.77776455882705,0.99995,0.000238900172949918,4.99999999999829e-05
"408","Goniopora sultani",4.789634407,5e-05,4.78939492527965,0.99995,0.000239481720350376,5.00000000000786e-05
"409","Goniopora tenella",4.856420587,0.004,4.836994904652,0.996,0.0194256823480004,0.00400000000000007
"410","Goniopora tenuidens",4.719547548,5e-05,4.7193115706226,0.99995,0.000235977377400332,5.00000000000702e-05
"411","Gyrosmilia interrupta",7.409804254,5e-05,7.4094337637873,0.99995,0.00037049021269997,4.99999999999959e-05
"412","Halomitra clavator",6.613795749,0.05,6.28310596155,0.95,0.33068978745,0.05
"413","Halomitra pileus",6.613795749,5e-05,6.61346505921255,0.99995,0.000330689787450211,5.00000000000319e-05
"414","Heliofungia actiniformis",10.29736846,0.05,9.782500037,0.95,0.514868423000001,0.0500000000000001
"415","Helioseris cucullata",39.70096882,5e-05,39.698983771559,0.99995,0.001985048441,5.00000000000001e-05
"416","Herpolitha limax",7.366243154,5e-05,7.3658748418423,0.99995,0.000368312157699613,4.99999999999474e-05
"417","Heterocyathus aequicostatus",22.59194724,5e-05,22.590817642638,0.99995,0.00112959736199869,4.99999999999421e-05
"418","Heterocyathus alternatus",22.58521893,5e-05,22.5840896690535,0.99995,0.00112926094649879,4.99999999999464e-05
"419","Heterocyathus sulcatus",22.55645726,5e-05,22.555329437137,0.99995,0.00112782286300117,5.00000000000519e-05
"420","Heteropsammia cochlea",37.81453681,5e-05,37.8126460831595,0.99995,0.00189072684050018,5.00000000000047e-05
"421","Heteropsammia eupsammides",38.02363087,0.004,37.87153634652,0.996,0.152094523480002,0.00400000000000006
"422","Horastrea indica",16.03679328,0.05,15.234953616,0.95,0.801839664000001,0.0500000000000001
"423","Hydnophora bonsai",6.544878092,0.42,3.79602929336,0.58,2.74884879864,0.42
"424","Hydnophora exesa",6.439225817,0.004,6.413468913732,0.996,0.0257569032680003,0.00400000000000004
"425","Hydnophora grandis",6.535578584,5e-05,6.5352518050708,0.99995,0.000326778929199634,4.9999999999944e-05
"426","Hydnophora microconos",6.592234423,0.004,6.565865485308,0.996,0.0263689376920002,0.00400000000000003
"427","Hydnophora pilosa",6.464218425,5e-05,6.46389521407875,0.99995,0.000323210921250094,5.00000000000146e-05
"428","Hydnophora rigida",6.452971326,5e-05,6.4526486774337,0.99995,0.000322648566299932,4.99999999999895e-05
"429","Indophyllia macassarensis",11.95577297,0.05,11.3579843215,0.95,0.5977886485,0.05
"430","Isophyllastrea rigida",7.808509431,5e-05,7.80811900552845,0.99995,0.000390425471549882,4.99999999999849e-05
"431","Isophyllia sinuosa",6.457768063,5e-05,6.45744517459685,0.99995,0.000322888403149868,4.99999999999796e-05
"432","Isopora brueggemanni",4.9696966,0.05,4.72121177,0.95,0.24848483,0.05
"433","Isopora crateriformis",4.863427762,0.05,4.6202563739,0.95,0.2431713881,0.0500000000000001
"434","Isopora cuneata",4.930245331,0.05,4.68373306445,0.95,0.24651226655,0.05
"435","Isopora cylindrica",4.774525989,0.05,4.53579968955,0.95,0.238726299450001,0.0500000000000001
"436","Isopora elizabethensis",4.811370039,0.05,4.57080153705,0.95,0.24056850195,0.0500000000000001
"437","Isopora meridiana",4.695273795,0.05,4.46051010525,0.95,0.23476368975,0.0500000000000001
"438","Isopora palifera",4.814949749,0.004,4.795689950004,0.996,0.0192597989959999,0.00399999999999999
"439","Isopora togianensis",4.967910133,0.42,2.88138787714,0.58,2.08652225586,0.42
"440","Leptastrea aequalis",5.517966336,0.05,5.2420680192,0.95,0.2758983168,0.05
"441","Leptastrea bewickensis",5.467347337,0.004,5.445477947652,0.996,0.0218693893479998,0.00399999999999996
"442","Leptastrea bottae",5.503424928,0.004,5.481411228288,0.996,0.0220136997119997,0.00399999999999995
"443","Leptastrea inaequalis",5.499005356,0.004,5.477009334576,0.996,0.021996021424,0.00400000000000001
"444","Leptastrea pruinosa",5.511487531,5e-05,5.51121195662345,0.99995,0.000275574376550125,5.00000000000227e-05
"445","Leptastrea purpurea",5.542678903,5e-05,5.54240176905485,0.99995,0.000277133945149721,4.99999999999497e-05
"446","Leptastrea transversa",5.474957272,5e-05,5.4746835241364,0.99995,0.000273747863600349,5.00000000000637e-05
"447","Leptoria irregularis",4.514921716,0.05,4.2891756302,0.95,0.2257460858,0.05
"448","Leptoria phrygia",8.642784895,0.004,8.60821375542,0.996,0.0345711395800006,0.00400000000000007
"449","Leptoseris amitoriensis",4.797992119,0.004,4.778800150524,0.996,0.019191968476,0.004
"450","Leptoseris cailleti",4.796141722,5e-05,4.7959019149139,0.99995,0.00023980708609983,4.99999999999646e-05
"451","Leptoseris explanata",5.759757106,5e-05,5.7594691181447,0.99995,0.000287987855299932,4.99999999999881e-05
"452","Leptoseris foliosa",4.979699419,5e-05,4.97945043402905,0.99995,0.000248984970950161,5.00000000000324e-05
"453","Leptoseris gardineri",4.799607392,5e-05,4.7993674116304,0.99995,0.000239980369600268,5.00000000000558e-05
"454","Leptoseris hawaiiensis",4.7876498,5e-05,4.78741041751,0.99995,0.000239382490000217,5.00000000000454e-05
"455","Leptoseris incrustans",5.737712371,0.05,5.45082675245,0.95,0.28688561855,0.0500000000000001
"456","Leptoseris mycetoseroides",4.96983248,5e-05,4.969583988376,0.99995,0.000248491624000202,5.00000000000407e-05
"457","Leptoseris papyracea",4.831780576,5e-05,4.8315389869712,0.99995,0.000241589028799893,4.99999999999779e-05
"458","Leptoseris scabra",4.801815439,5e-05,4.80157534822805,0.99995,0.000240090771949752,4.99999999999484e-05
"459","Leptoseris solida",4.823556432,5e-05,4.8233152541784,0.99995,0.000241177821600047,5.00000000000098e-05
"460","Leptoseris striata",4.818675144,0.004,4.799400443424,0.996,0.0192747005760001,0.00400000000000002
"461","Leptoseris tubulifera",5.655635038,5e-05,5.6553522562481,0.99995,0.000282781751899996,4.99999999999994e-05
"462","Leptoseris yabei",4.973843343,0.05,4.72515117585,0.95,0.248692167150001,0.0500000000000001
"463","Lithophyllon concinna",6.466028897,5e-05,6.46570559555515,0.99995,0.000323301444850266,5.00000000000411e-05
"464","Lithophyllon puishani",6.084244692,0.05,5.7800324574,0.95,0.3042122346,0.0500000000000001
"465","Lithophyllon ranjithi",6.347142788,0.42,3.68134281704,0.58,2.66579997096,0.42
"466","Lithophyllon repanda",6.414827615,5e-05,6.41450687361925,0.99995,0.00032074138075,5.00000000000001e-05
"467","Lithophyllon scabra",6.084244692,5e-05,6.0839404797654,0.99995,0.000304212234599532,4.99999999999231e-05
"468","Lithophyllon spinifer",6.527142098,5e-05,6.5268157408951,0.99995,0.000326357104899699,4.99999999999539e-05
"469","Lithophyllon undulatum",6.376939358,0.004,6.351431600568,0.996,0.025507757432,0.00399999999999999
"470","Lobophyllia corymbosa",7.316596036,5e-05,7.3162302061982,0.99995,0.00036582980180011,5.00000000000151e-05
"471","Lobophyllia dentatus",7.360872082,0.05,6.9928284779,0.95,0.3680436041,0.0500000000000001
"472","Lobophyllia diminuta",7.302591431,0.05,6.93746185945,0.95,0.365129571550001,0.0500000000000001
"473","Lobophyllia flabelliformis",7.315755621,0.05,6.94996783995,0.95,0.365787781050001,0.0500000000000001
"474","Lobophyllia hataii",7.264610381,5e-05,7.26424715048095,0.99995,0.000363230519050184,5.00000000000253e-05
"475","Lobophyllia hemprichii",7.102858678,5e-05,7.1025035350661,0.99995,0.000355142933900154,5.00000000000217e-05
"476","Lobophyllia pachysepta",7.024733693,0.004,6.996634758228,0.996,0.0280989347720002,0.00400000000000003
"477","Lobophyllia robusta",6.946616066,5e-05,6.9462687351967,0.99995,0.000347330803299961,4.99999999999944e-05
"478","Lobophyllia serratus",7.744112376,0.42,4.49158517808,0.58,3.25252719792,0.42
"480","Madracis asanoi",8.647076694,0.05,8.2147228593,0.95,0.432353834700001,0.0500000000000001
"481","Madracis asperula",8.647076694,0.05,8.2147228593,0.95,0.432353834700001,0.0500000000000001
"482","Madracis auretenra",9.021426638,5e-05,9.0209755666681,0.99995,0.000451071331900366,5.00000000000405e-05
"483","Madracis carmabi",10.97192869,0.05,10.4233322555,0.95,0.5485964345,0.05
"484","Madracis decactis",8.636633773,5e-05,8.63620194131135,0.99995,0.000431831688649353,4.99999999999251e-05
"485","Madracis formosa",12.73834215,5e-05,12.7377052328925,0.99995,0.000636917107499357,4.99999999999496e-05
"486","Madracis kirbyi",8.636633773,5e-05,8.63620194131135,0.99995,0.000431831688649353,4.99999999999251e-05
"487","Madracis pharensis",9.01842573,5e-05,9.0179748087135,0.99995,0.000450921286500261,5.00000000000289e-05
"488","Madracis senaria",16.81051017,5e-05,16.8096696444915,0.99995,0.000840525508500889,5.00000000000529e-05
"489","Manicina areolata",4.08997383,5e-05,4.0897693313085,0.99995,0.000204498691499744,4.99999999999373e-05
"490","Meandrina braziliensis",14.2392532,0.05,13.52729054,0.95,0.711962660000001,0.0500000000000001
"491","Meandrina danae",14.2392532,5e-05,14.23854123734,0.99995,0.000711962660000509,5.00000000000358e-05
"493","Meandrina meandrites",10.49782405,5e-05,10.4972991587975,0.99995,0.000524891202500655,5.00000000000624e-05
"494","Merulina ampliata",3.097559855,5e-05,3.09740497700725,0.99995,0.000154877992749825,4.99999999999433e-05
"495","Merulina scabricula",3.28339447,5e-05,3.2832303002765,0.99995,0.000164169723499974,4.99999999999921e-05
"496","Merulina scheeri",3.097559855,5e-05,3.09740497700725,0.99995,0.000154877992749825,4.99999999999433e-05
"497","Micromussa amakusensis",10.39989461,0.004,10.35829503156,0.996,0.0415995784399996,0.00399999999999996
"498","Micromussa diminuta",10.08265414,0.05,9.578521433,0.95,0.504132707,0.05
"499","Micromussa minuta",10.08265414,0.004,10.04232352344,0.996,0.0403306165600004,0.00400000000000004
"500","Montastraea annularis",8.67316998,0.42,5.0304385884,0.58,3.6427313916,0.42
"501","Montastraea cavernosa",60.32238437,5e-05,60.3193682507815,0.99995,0.00301611921850053,5.00000000000089e-05
"502","Montastraea faveolata",8.67316998,0.42,5.0304385884,0.58,3.6427313916,0.42
"503","Montastraea franksi",9.173294998,0.05,8.7146302481,0.95,0.458664749900001,0.0500000000000001
"504","Montastrea annuligera",3.144529878,0.004,3.131951758488,0.996,0.0125781195119998,0.00399999999999995
"505","Montastrea colemani",2.944544422,0.004,2.932766244312,0.996,0.0117781776879999,0.00399999999999998
"506","Montastrea curta",5.178230455,5e-05,5.17797154347725,0.99995,0.00025891152275026,5.00000000000503e-05
"507","Montastrea magnistellata",3.725101104,0.004,3.710200699584,0.996,0.0149004044160002,0.00400000000000004
"508","Montastrea multipunctata",11.23550012,0.05,10.673725114,0.95,0.561775006000001,0.0500000000000001
"509","Montastrea salebrosa",17.54895614,0.05,16.671508333,0.95,0.877447806999999,0.05
"510","Montastrea serageldini",5.178230455,0.05,4.91931893225,0.95,0.25891152275,0.05
"511","Montastrea valenciennesi",3.767446459,0.004,3.752376673164,0.996,0.0150697858359998,0.00399999999999995
"512","Montigyra kenti",7.401894841,0.05,7.03180009895,0.95,0.37009474205,0.05
"513","Montipora aequituberculata",4.106691454,5e-05,4.1064861194273,0.99995,0.000205334572699556,4.99999999998919e-05
"514","Montipora altasepta",4.761643396,0.05,4.5235612262,0.95,0.2380821698,0.05
"515","Montipora angulata",4.744771602,0.05,4.5075330219,0.95,0.237238580100001,0.0500000000000001
"516","Montipora aspergillus",4.694857069,0.05,4.46011421555,0.95,0.23474285345,0.05
"517","Montipora australiensis",4.887869045,0.05,4.64347559275,0.95,0.244393452250001,0.0500000000000001
"518","Montipora cactus",4.634445644,0.05,4.4027233618,0.95,0.2317222822,0.05
"519","Montipora calcarea",4.491600741,0.05,4.26702070395,0.95,0.22458003705,0.05
"520","Montipora caliculata",4.684298554,0.05,4.4500836263,0.95,0.2342149277,0.05
"521","Montipora capitata",4.612073207,0.004,4.593624914172,0.996,0.0184482928280003,0.00400000000000007
"522","Montipora capricornis",4.436108139,0.05,4.21430273205,0.95,0.221805406950001,0.0500000000000001
"523","Montipora cebuensis",4.543892996,0.05,4.3166983462,0.95,0.2271946498,0.0500000000000001
"524","Montipora circumvallata",4.752421297,5e-05,4.75218367593515,0.99995,0.000237621064849591,4.9999999999914e-05
"525","Montipora cocosensis",4.665813341,0.05,4.43252267395,0.95,0.23329066705,0.0500000000000001
"526","Montipora confusa",4.608693856,0.004,4.590259080576,0.996,0.0184347754239997,0.00399999999999994
"527","Montipora corbettensis",4.662245936,0.05,4.4291336392,0.95,0.2331122968,0.05
"528","Montipora crassituberculata",4.929817081,0.05,4.68332622695,0.95,0.24649085405,0.05
"529","Montipora cryptus",4.632229164,0.004,4.613700247344,0.996,0.0185289166559999,0.00399999999999997
"530","Montipora danae",4.721347076,5e-05,4.7211110086462,0.99995,0.000236067353799996,4.99999999999991e-05
"531","Montipora delicatula",4.490487443,0.05,4.26596307085,0.95,0.22452437215,0.0500000000000001
"532","Montipora digitata",4.722604953,5e-05,4.72236882275235,0.99995,0.000236130247650124,5.00000000000262e-05
"533","Montipora dilatata",4.701896403,0.42,2.72709991374,0.58,1.97479648926,0.42
"534","Montipora echinata",4.895911519,0.05,4.65111594305,0.95,0.24479557595,0.0500000000000001
"535","Montipora efflorescens",4.740040032,0.004,4.721079871872,0.996,0.0189601601279996,0.00399999999999992
"536","Montipora effusa",4.624265369,0.004,4.605768307524,0.996,0.0184970614760003,0.00400000000000006
"537","Montipora flabellata",4.804738404,0.05,4.5645014838,0.95,0.2402369202,0.05
"538","Montipora florida",4.586194776,0.05,4.3568850372,0.95,0.2293097388,0.0500000000000001
"539","Montipora floweri",4.732060593,5e-05,4.73182398997035,0.99995,0.00023660302965034,5.00000000000718e-05
"540","Montipora foliosa",4.490487443,0.004,4.472525493228,0.996,0.0179619497720003,0.00400000000000006
"541","Montipora foveolata",4.796074159,0.004,4.776889862364,0.996,0.0191842966360003,0.00400000000000006
"542","Montipora friabilis",4.823688773,0.05,4.58250433435,0.95,0.24118443865,0.0500000000000001
"543","Montipora gaimardi",4.751554186,0.05,4.5139764767,0.95,0.2375777093,0.05
"544","Montipora grisea",4.503163086,5e-05,4.5029379278457,0.99995,0.000225158154299798,4.99999999999552e-05
"545","Montipora hemispherica",4.788622777,0.05,4.54919163815,0.95,0.239431138850001,0.0500000000000001
"546","Montipora hirsuta",4.655430296,0.004,4.636808574816,0.996,0.0186217211840001,0.00400000000000002
"547","Montipora hispida",5.095589606,5e-05,5.0953348265197,0.99995,0.000254779480299838,4.99999999999682e-05
"548","Montipora hodgsoni",4.711102435,0.05,4.47554731325,0.95,0.23555512175,0.05
"549","Montipora hoffmeisteri",4.011272787,5e-05,4.01107222336065,0.99995,0.000200563639349838,4.99999999999596e-05
"550","Montipora incrassata",4.622115547,0.004,4.603627084812,0.996,0.0184884621880004,0.00400000000000008
"551","Montipora informis",4.927992185,5e-05,4.92774578539075,0.99995,0.000246399609250325,5.0000000000066e-05
"552","Montipora kellyi",4.770713649,0.05,4.53217796655,0.95,0.23853568245,0.05
"553","Montipora lobulata",4.757500167,0.05,4.51962515865,0.95,0.237875008350001,0.0500000000000001
"554","Montipora mactanensis",4.610569269,0.05,4.38004080555,0.95,0.23052846345,0.05
"555","Montipora malampaya",4.572011399,0.05,4.34341082905,0.95,0.22860056995,0.0500000000000001
"556","Montipora meandrina",4.690815062,0.05,4.4562743089,0.95,0.2345407531,0.05
"557","Montipora millepora",4.851466777,5e-05,4.85122420366115,0.99995,0.000242573338850249,5.00000000000514e-05
"558","Montipora mollis",4.032743776,5e-05,4.0325421388112,0.99995,0.000201637188800063,5.00000000000157e-05
"559","Montipora monasteriata",4.50660094,5e-05,4.506375609953,0.99995,0.000225330046999872,4.99999999999716e-05
"560","Montipora niugini",4.523229088,0.004,4.505136171648,0.996,0.0180929163519998,0.00399999999999996
"561","Montipora nodosa",4.779134923,0.004,4.760018383308,0.996,0.0191165396919999,0.00399999999999998
"562","Montipora orientalis",4.807413415,0.05,4.56704274425,0.95,0.24037067075,0.05
"563","Montipora pachytuberculata",4.509960794,0.05,4.2844627543,0.95,0.225498039700001,0.0500000000000001
"564","Montipora palawanensis",4.848502995,0.004,4.82910898302,0.996,0.0193940119800002,0.00400000000000005
"565","Montipora patula",3.854814289,0.05,3.66207357455,0.95,0.19274071445,0.05
"566","Montipora peltiformis",4.235023582,0.004,4.218083487672,0.996,0.0169400943279996,0.0039999999999999
"567","Montipora porites",4.762267629,0.004,4.743218558484,0.996,0.019049070516,0.004
"568","Montipora samarensis",4.989767532,0.05,4.7402791554,0.95,0.2494883766,0.0500000000000001
"569","Montipora saudii",4.638164119,0.004,4.619611462524,0.996,0.0185526564760004,0.00400000000000008
"570","Montipora setosa",4.688520448,0.42,2.71934185984,0.58,1.96917858816,0.42
"571","Montipora spongiosa",4.705193925,5e-05,4.70495866530375,0.99995,0.000235259696250267,5.00000000000568e-05
"572","Montipora spongodes",4.007326114,5e-05,4.0071257476943,0.99995,0.000200366305699973,4.99999999999932e-05
"573","Montipora spumosa",4.58463788,5e-05,4.584408648106,0.99995,0.000229231894000037,5.00000000000081e-05
"574","Montipora stellata",4.106691454,5e-05,4.1064861194273,0.99995,0.000205334572699556,4.99999999998919e-05
"575","Montipora stilosa",4.776494884,0.05,4.5376701398,0.95,0.2388247442,0.0500000000000001
"576","Montipora taiwanensis",4.474834383,0.05,4.25109266385,0.95,0.22374171915,0.0500000000000001
"577","Montipora tuberculosa",4.687201501,5e-05,4.68696714092495,0.99995,0.000234360075049622,4.99999999999194e-05
"578","Montipora turgescens",4.618948432,5e-05,4.6187174845784,0.99995,0.000230947421600014,5.0000000000003e-05
"579","Montipora turtlensis",4.548034855,0.05,4.32063311225,0.95,0.227401742750001,0.0500000000000001
"580","Montipora undata",4.743981952,0.004,4.725006024192,0.996,0.0189759278080004,0.00400000000000008
"581","Montipora vaughani",4.663829721,0.05,4.43063823495,0.95,0.23319148605,0.05
"582","Montipora venosa",4.684660446,0.004,4.665921804216,0.996,0.0187386417840001,0.00400000000000002
"583","Montipora verrilli",3.854814289,0.05,3.66207357455,0.95,0.19274071445,0.05
"584","Montipora verrucosa",4.732098454,5e-05,4.7318618490773,0.99995,0.000236604922699613,4.99999999999181e-05
"585","Montipora verruculosus",4.611897395,0.05,4.38130252525,0.95,0.23059486975,0.05
"586","Montipora vietnamensis",4.694511504,0.05,4.4597859288,0.95,0.234725575200001,0.0500000000000001
"587","Moseleya latistellata",37.146699,0.05,35.28936405,0.95,1.85733495,0.0500000000000001
"588","Mussa angulosa",10.05843882,5e-05,10.057935898059,0.99995,0.000502921940999101,4.99999999999107e-05
"589","Mussismilia braziliensis",8.164742381,0.05,7.75650526195,0.95,0.408237119050001,0.0500000000000001
"590","Mussismilia harttii",9.829349503,0.05,9.33788202785,0.95,0.491467475150001,0.0500000000000001
"591","Mussismilia hispida",7.133617524,0.05,6.7769366478,0.95,0.3566808762,0.0500000000000001
"592","Mycedium elephantotus",2.893613262,5e-05,2.8934685813369,0.99995,0.000144680663099805,4.99999999999328e-05
"593","Mycedium mancaoi",2.886152528,5e-05,2.8860082203736,0.99995,0.000144307626400053,5.00000000000184e-05
"594","Mycedium robokaki",2.946939109,5e-05,2.94679176204455,0.99995,0.000147346955449823,4.99999999999399e-05
"595","Mycedium spina",3.120129354,0.05,2.9641228863,0.95,0.1560064677,0.0500000000000001
"596","Mycedium steeni",2.946939109,0.05,2.79959215355,0.95,0.14734695545,0.0500000000000001
"597","Mycedium umbra",2.893003864,5e-05,2.8928592138068,0.99995,0.000144650193199869,4.99999999999547e-05
"598","Mycetophyllia aliciae",4.486025524,5e-05,4.4858012227238,0.99995,0.000224301276199768,4.99999999999482e-05
"599","Mycetophyllia danaana",4.709634714,5e-05,4.7093992322643,0.99995,0.000235481735700205,5.00000000000435e-05
"600","Mycetophyllia ferox",5.033531535,0.05,4.78185495825,0.95,0.25167657675,0.0500000000000001
"601","Mycetophyllia lamarckiana",4.486025524,5e-05,4.4858012227238,0.99995,0.000224301276199768,4.99999999999482e-05
"602","Mycetophyllia reesi",4.691304991,0.05,4.45673974145,0.95,0.23456524955,0.05
"603","Nemenzophyllia turbida",11.408896,0.05,10.8384512,0.95,0.570444800000001,0.0500000000000001
"604","Oculina diffusa",8.827295903,5e-05,8.82685453820485,0.99995,0.000441364795149113,4.99999999998995e-05
"605","Oculina patagonica",8.83415153,5e-05,8.8337098224235,0.99995,0.000441707576499084,4.99999999998963e-05
"606","Oculina robusta",8.730359486,0.05,8.2938415117,0.95,0.436517974300001,0.0500000000000001
"607","Oculina tenella",8.786121869,0.05,8.34681577555,0.95,0.43930609345,0.05
"608","Oculina valenciennesi",8.782820574,0.05,8.3436795453,0.95,0.4391410287,0.05
"609","Oculina varicosa",8.819057282,0.05,8.3781044179,0.95,0.4409528641,0.05
"610","Oulastrea crispata",24.41779183,5e-05,24.4165709404085,0.99995,0.00122088959150091,5.00000000000371e-05
"611","Oulophyllia bennettae",4.484655728,0.004,4.466717105088,0.996,0.0179386229120002,0.00400000000000005
"612","Oulophyllia crispa",4.17899352,0.004,4.16227754592,0.996,0.0167159740800003,0.00400000000000006
"613","Oulophyllia levis",4.17899352,5e-05,4.178784570324,0.99995,0.000208949675999826,4.99999999999582e-05
"614","Oxypora convoluta",7.311606827,0.05,6.94602648565,0.95,0.36558034135,0.05
"615","Oxypora crassispinosa",6.596280513,5e-05,6.59595069897435,0.99995,0.000329814025650244,5.00000000000369e-05
"616","Oxypora egyptensis",6.6437728,0.05,6.31158416,0.95,0.33218864,0.05
"617","Oxypora glabra",6.648733478,5e-05,6.6484010413261,0.99995,0.000332436673899927,4.99999999999891e-05
"618","Oxypora lacera",7.311606827,5e-05,7.31124124665865,0.99995,0.000365580341349592,4.99999999999442e-05
"619","Pachyseris foliosa",13.34484775,5e-05,13.3441805076125,0.99995,0.000667242387500266,5.000000000002e-05
"620","Pachyseris gemmae",12.02817641,0.004,11.98006370436,0.996,0.0481127056399995,0.00399999999999996
"621","Pachyseris involuta",13.34484775,0.05,12.6776053625,0.95,0.6672423875,0.05
"622","Pachyseris rugosa",12.01815973,0.05,11.4172517435,0.95,0.600907986500001,0.0500000000000001
"623","Pachyseris speciosa",11.98118461,5e-05,11.9805855507695,0.99995,0.000599059230500743,5.0000000000062e-05
"624","Palauastrea ramosa",26.22382443,0.004,26.11892913228,0.996,0.104895297719999,0.00399999999999996
"625","Paraclavarina triangularis",3.51914068,0.004,3.50506411728,0.996,0.0140765627200001,0.00400000000000004
"626","Parasimplastrea sheppardi",8.070026231,0.42,4.68061521398,0.58,3.38941101702,0.42
"627","Pavona bipartita",4.767684982,0.05,4.5293007329,0.95,0.2383842491,0.05
"628","Pavona cactus",4.759926161,0.05,4.52192985295,0.95,0.23799630805,0.0500000000000001
"629","Pavona chiriquiensis",4.761629804,5e-05,4.7613917225098,0.99995,0.000238081490199882,4.99999999999752e-05
"630","Pavona clavus",4.788629924,5e-05,4.7883904925038,0.99995,0.000239431496200204,5.00000000000426e-05
"631","Pavona danai",4.704349949,0.05,4.46913245155,0.95,0.23521749745,0.05
"632","Pavona decussata",4.739865306,0.05,4.5028720407,0.95,0.2369932653,0.05
"633","Pavona diffluens",4.777122938,0.05,4.5382667911,0.95,0.2388561469,0.05
"634","Pavona duerdeni",4.709039803,5e-05,4.70880435100985,0.99995,0.000235451990150182,5.00000000000386e-05
"635","Pavona explanulata",4.713395053,5e-05,4.71315938324735,0.99995,0.00023566975264977,4.99999999999511e-05
"636","Pavona frondifera",4.744653227,5e-05,4.74441599433865,0.99995,0.000237232661350006,5.00000000000014e-05
"637","Pavona gigantea",4.695793846,5e-05,4.6955590563077,0.99995,0.000234789692299842,4.99999999999663e-05
"638","Pavona maldivensis",4.73133821,5e-05,4.7311016430895,0.99995,0.000236566910500002,5.00000000000005e-05
"639","Pavona minuta",4.689832236,0.004,4.671072907056,0.996,0.0187593289440002,0.00400000000000005
"640","Pavona varians",4.760384441,5e-05,4.76014642177795,0.99995,0.000238019222050134,5.00000000000282e-05
"641","Pavona venosa",4.718771605,0.05,4.48283302475,0.95,0.23593858025,0.05
"642","Pavona xarifae",4.671123138,0.05,4.4375669811,0.95,0.2335561569,0.05
"643","Pectinia africanus",3.391560343,0.05,3.22198232585,0.95,0.16957801715,0.05
"644","Pectinia alcicornis",4.18576328,0.05,3.976475116,0.95,0.209288164,0.05
"645","Pectinia ayleni",3.388083994,0.004,3.374531658024,0.996,0.0135523359760001,0.00400000000000004
"646","Pectinia crassa",4.141534899,0.05,3.93445815405,0.95,0.20707674495,0.05
"647","Pectinia elongata",3.563531318,0.004,3.549277192728,0.996,0.0142541252720001,0.00400000000000003
"648","Pectinia lactuca",3.396439045,0.05,3.22661709275,0.95,0.16982195225,0.05
"649","Pectinia maxima",3.397603129,0.42,1.97060981482,0.58,1.42699331418,0.42
"650","Pectinia paeonia",4.104153621,0.004,4.087737006516,0.996,0.0164166144840001,0.00400000000000003
"651","Pectinia pygmaeus",3.58306957,0.004,3.56873729172,0.996,0.0143322782799999,0.00399999999999998
"652","Pectinia teres",3.588045895,0.004,3.57369371142,0.996,0.0143521835800002,0.00400000000000007
"653","Physogyra lichtensteini",12.32702392,0.05,11.710672724,0.95,0.616351196,0.05
"654","Platygyra acuta",3.068945069,0.004,3.056669288724,0.996,0.0122757802760001,0.00400000000000002
"655","Platygyra carnosus",3.733587192,0.004,3.718652843232,0.996,0.014934348768,0.00400000000000001
"656","Platygyra contorta",3.066214565,5e-05,3.06606125427175,0.99995,0.000153310728249867,4.99999999999566e-05
"657","Platygyra crosslandi",3.706859323,0.004,3.692031885708,0.996,0.0148274372919999,0.00399999999999996
"658","Platygyra daedalea",3.672194372,5e-05,3.6720107622814,0.99995,0.000183609718599875,4.9999999999966e-05
"659","Platygyra lamellina",2.923581708,0.004,2.911887381168,0.996,0.011694326832,0.004
"660","Platygyra pini",3.694560132,5e-05,3.6943754039934,0.99995,0.000184728006599855,4.99999999999607e-05
"661","Platygyra ryukyuensis",3.068945069,0.004,3.056669288724,0.996,0.0122757802760001,0.00400000000000002
"662","Platygyra sinensis",3.713786347,5e-05,3.71360065768265,0.99995,0.000185689317349969,4.99999999999915e-05
"663","Platygyra verweyi",2.923581708,0.004,2.911887381168,0.996,0.011694326832,0.004
"664","Platygyra yaeyamaensis",3.666688185,0.05,3.48335377575,0.95,0.18333440925,0.05
"665","Plerogyra cauliformis",10.32536097,0.05,9.8090929215,0.95,0.516268048500001,0.0500000000000001
"666","Plerogyra diabolotus",10.33388024,0.05,9.817186228,0.95,0.516694012,0.05
"667","Plerogyra discus",10.33303569,0.05,9.8163839055,0.95,0.5166517845,0.05
"668","Plerogyra multilobata",10.33388024,0.05,9.817186228,0.95,0.516694012,0.05
"669","Plerogyra simplex",10.32536097,0.004,10.28405952612,0.996,0.0413014438800001,0.00400000000000001
"670","Plerogyra sinuosa",10.33303569,0.004,10.29170354724,0.996,0.04133214276,0.004
"671","Plesiastrea devantieri",14.06436777,0.004,14.00811029892,0.996,0.0562574710800003,0.00400000000000002
"672","Plesiastrea versipora",50.26448285,5e-05,50.2619696258575,0.99995,0.00251322414249699,4.99999999999402e-05
"673","Pleuractis granulosa",6.387610345,5e-05,6.38729096448275,0.99995,0.00031938051724989,4.99999999999828e-05
"675","Pleuractis moluccensis",5.896133139,5e-05,5.89583833234305,0.99995,0.000294806656950364,5.00000000000617e-05
"676","Pleuractis paumotensis",6.315578569,5e-05,6.31526279007155,0.99995,0.00031577892845025,5.00000000000396e-05
"677","Pleuractis seychellensis",6.315578569,0.05,5.99979964055,0.95,0.31577892845,0.0500000000000001
"678","Pleuractis taiwanensis",5.896133139,0.05,5.60132648205,0.95,0.294806656950001,0.0500000000000001
"679","Pocillopora ankeli",7.498808036,0.05,7.1238676342,0.95,0.3749404018,0.05
"680","Pocillopora capitata",7.431244411,5e-05,7.43087284877945,0.99995,0.000371562220549571,4.99999999999422e-05
"681","Pocillopora damicornis",7.230201656,5e-05,7.2298401459172,0.99995,0.000361510082799832,4.99999999999767e-05
"682","Pocillopora danae",7.356618253,0.05,6.98878734035,0.95,0.367830912650001,0.0500000000000001
"683","Pocillopora effusus",7.264854567,0.05,6.90161183865,0.95,0.36324272835,0.0500000000000001
"684","Pocillopora elegans",7.319241232,0.05,6.9532791704,0.95,0.3659620616,0.05
"685","Pocillopora eydouxi",7.400470991,0.004,7.370869107036,0.996,0.0296018839640002,0.00400000000000003
"686","Pocillopora fungiformis",7.270032519,0.42,4.21661886102,0.58,3.05341365798,0.42
"687","Pocillopora indiania",7.390925611,0.05,7.02137933045,0.95,0.369546280550001,0.0500000000000001
"688","Pocillopora inflata",7.211734023,0.05,6.85114732185,0.95,0.36058670115,0.05
"689","Pocillopora kelleheri",7.450211771,5e-05,7.44983926041145,0.99995,0.000372510588549702,4.99999999999599e-05
"690","Pocillopora ligulata",7.350570989,5e-05,7.35020346045055,0.99995,0.000367528549450213,5.0000000000029e-05
"691","Pocillopora meandrina",7.324264889,5e-05,7.32389867575555,0.99995,0.000366213244450186,5.00000000000255e-05
"692","Pocillopora molokensis",7.417222398,0.05,7.0463612781,0.95,0.370861119900001,0.0500000000000001
"693","Pocillopora setichelli",7.270772509,5e-05,7.27040897037455,0.99995,0.000363538625450133,5.00000000000183e-05
"694","Pocillopora verrucosa",7.455130495,5e-05,7.45475773847525,0.99995,0.000372756524749995,4.99999999999994e-05
"695","Pocillopora woodjonesi",7.298784201,5e-05,7.29841926178995,0.99995,0.000364939210049542,4.99999999999372e-05
"696","Pocillopora zelli",7.342517899,5e-05,7.34215077310505,0.99995,0.000367125894950249,5.00000000000339e-05
"697","Podabacia crustacea",5.741314492,5e-05,5.7410274262754,0.99995,0.000287065724600133,5.00000000000232e-05
"699","Podabacia motuporensis",6.908422473,0.004,6.880788783108,0.996,0.0276336898920002,0.00400000000000003
"700","Podabacia sinai",6.066060421,0.05,5.76275739995,0.95,0.303303021050001,0.0500000000000001
"701","Polyphyllia novaehiberniae",6.622603247,0.004,6.596112834012,0.996,0.0264904129880001,0.00400000000000002
"702","Polyphyllia talpina",6.622603247,5e-05,6.62227211683765,0.99995,0.000331130162350313,5.00000000000472e-05
"703","Porites annae",5.458577937,0.004,5.436743625252,0.996,0.021834311748,0.004
"704","Porites aranetai",5.615537382,0.05,5.3347605129,0.95,0.2807768691,0.0500000000000001
"705","Porites arnaudi",5.248126408,5e-05,5.2478640016796,0.99995,0.000262406320399755,4.99999999999533e-05
"706","Porites astreoides",5.464633501,5e-05,5.46436026932495,0.99995,0.000273231675049779,4.99999999999595e-05
"707","Porites attenuata",5.551237672,0.05,5.2736757884,0.95,0.277561883600001,0.0500000000000001
"708","Porites australiensis",5.307038806,5e-05,5.3067734540597,0.99995,0.000265351940299752,4.99999999999532e-05
"709","Porites baueri",5.59938831,0.05,5.3194188945,0.95,0.2799694155,0.05
"710","Porites bernardi",5.704603464,5e-05,5.7043182338268,0.99995,0.000285230173200368,5.00000000000645e-05
"711","Porites branneri",5.405950401,0.004,5.384326599396,0.996,0.021623801604,0.004
"712","Porites brighami",5.472921037,5e-05,5.47264739094815,0.99995,0.000273646051850207,5.00000000000378e-05
"713","Porites cocosensis",5.347198595,0.05,5.07983866525,0.95,0.26735992975,0.0500000000000001
"714","Porites colonensis",5.15409217,0.05,4.8963875615,0.95,0.2577046085,0.05
"715","Porites columnaris",5.381266017,5e-05,5.38099695369915,0.99995,0.000269063300850192,5.00000000000357e-05
"716","Porites compressa",4.908406416,5e-05,4.9081609956792,0.99995,0.000245420320799994,4.99999999999987e-05
"717","Porites cumulatus",5.537506619,0.05,5.26063128805,0.95,0.27687533095,0.0500000000000001
"718","Porites cylindrica",5.833639953,0.004,5.810305393188,0.996,0.0233345598119996,0.00399999999999993
"719","Porites decasepta",5.387276591,0.05,5.11791276145,0.95,0.26936382955,0.0500000000000001
"720","Porites deformis",5.507053766,0.004,5.485025550936,0.996,0.0220282150640001,0.00400000000000002
"721","Porites densa",5.46856092,0.004,5.44668667632,0.996,0.0218742436800001,0.00400000000000002
"722","Porites desilveri",5.450089209,0.42,3.16105174122,0.58,2.28903746778,0.42
"723","Porites divaricata",5.254908779,5e-05,5.25464603356105,0.99995,0.000262745438949885,4.99999999999781e-05
"724","Porites duerdeni",4.908406416,5e-05,4.9081609956792,0.99995,0.000245420320799994,4.99999999999987e-05
"725","Porites echinulata",5.290500219,0.004,5.269338218124,0.996,0.0211620008760001,0.00400000000000001
"726","Porites ericacea",5.47707106,0.05,5.203217507,0.95,0.273853553,0.0500000000000001
"727","Porites eridani",5.489485321,0.42,3.18390148618,0.58,2.30558383482,0.42
"728","Porites evermanni",5.452202791,0.05,5.17959265145,0.95,0.27261013955,0.05
"729","Porites excavata",5.393179794,0.05,5.1235208043,0.95,0.2696589897,0.05
"730","Porites flavus",5.418706085,0.05,5.14777078075,0.95,0.27093530425,0.05
"731","Porites furcata",5.310878952,5e-05,5.3106134080524,0.99995,0.000265543947599589,4.99999999999226e-05
"732","Porites harrisoni",5.478965733,0.004,5.457049870068,0.996,0.0219158629320004,0.00400000000000008
"733","Porites heronensis",5.397029807,5e-05,5.39675995550965,0.99995,0.000269851490349637,4.99999999999328e-05
"734","Porites horizontalata",5.506801114,0.05,5.2314610583,0.95,0.2753400557,0.05
"735","Porites latistella",5.44058508,5e-05,5.440313050746,0.99995,0.000272029253999939,4.99999999999888e-05
"736","Porites lichen",4.161106545,5e-05,4.16089848967275,0.99995,0.000208055327250101,5.00000000000242e-05
"737","Porites lobata",6.711817854,0.004,6.684970582584,0.996,0.026847271416,0.00399999999999999
"738","Porites lutea",4.374598674,5e-05,4.3743799440663,0.99995,0.000218729933699535,4.99999999998938e-05
"739","Porites mayeri",5.542408718,5e-05,5.5421315975641,0.99995,0.000277120435900002,5.00000000000004e-05
"740","Porites monticulosa",5.524673957,5e-05,5.52439772330215,0.99995,0.000276233697849904,4.99999999999825e-05
"741","Porites murrayensis",5.235860028,0.004,5.214916587888,0.996,0.0209434401120001,0.00400000000000002
"742","Porites myrmidonensis",5.429279054,5e-05,5.4290075900473,0.99995,0.000271463952699946,4.99999999999901e-05
"743","Porites napopora",5.539641917,0.05,5.26265982115,0.95,0.27698209585,0.05
"744","Porites negrosensis",5.660909199,0.004,5.638265562204,0.996,0.0226436367960003,0.00400000000000006
"745","Porites nigrescens",5.512830088,0.05,5.2371885836,0.95,0.2756415044,0.05
"746","Porites nodifera",5.257044923,5e-05,5.25678207075385,0.99995,0.000262852246150302,5.00000000000575e-05
"747","Porites okinawensis",4.374598674,0.05,4.1558687403,0.95,0.218729933700001,0.0500000000000001
"748","Porites ornata",5.255064678,0.42,3.04793751324,0.58,2.20712716476,0.42
"749","Porites panamensis",5.401348646,5e-05,5.4010785785677,0.99995,0.000270067432300181,5.00000000000334e-05
"750","Porites porites",5.319356256,5e-05,5.3190902881872,0.99995,0.000265967812800305,5.00000000000574e-05
"751","Porites profundus",5.274214564,5e-05,5.2739508532718,0.99995,0.000263710728200195,5.0000000000037e-05
"752","Porites pukoensis",5.622867783,0.97,0.16868603349,0.03,5.45418174951,0.97
"754","Porites rugosa",5.401868779,0.05,5.13177534005,0.95,0.27009343895,0.05
"755","Porites rus",4.404075445,5e-05,4.40385524122775,0.99995,0.000220203772250294,5.00000000000667e-05
"756","Porites sillimaniana",5.410484113,0.05,5.13995990735,0.95,0.27052420565,0.05
"757","Porites solida",5.264157604,5e-05,5.2638943961198,0.99995,0.000263207880199623,4.99999999999284e-05
"758","Porites somaliensis",5.262891308,0.004,5.241839742768,0.996,0.0210515652319998,0.00399999999999996
"759","Porites stephensoni",5.565255152,0.004,5.542994131392,0.996,0.0222610206080001,0.00400000000000001
"760","Porites studeri",5.163781234,5e-05,5.1635230449383,0.99995,0.000258189061700165,5.00000000000319e-05
"761","Porites sverdrupi",5.446772629,0.05,5.17443399755,0.95,0.27233863145,0.0500000000000001
"762","Porites tuberculosa",5.473835031,0.05,5.20014327945,0.95,0.27369175155,0.0500000000000001
"763","Porites vaughani",5.406938436,5e-05,5.4066680890782,0.99995,0.000270346921800169,5.00000000000312e-05
"764","Poritipora paliformis",75.75624421,0.05,71.9684319995,0.95,3.78781221050001,0.0500000000000001
"765","Psammocora albopicta",6.504571209,0.05,6.17934264855,0.95,0.32522856045,0.05
"766","Psammocora contigua",6.491378672,0.004,6.465413157312,0.996,0.025965514688,0.004
"767","Psammocora decussata",6.499221357,0.05,6.17426028915,0.95,0.32496106785,0.0500000000000001
"768","Psammocora digitata",6.417577829,0.004,6.391907517684,0.996,0.0256703113160004,0.00400000000000006
"769","Psammocora explanulata",6.669380957,5e-05,6.66904748795215,0.99995,0.00033346904784981,4.99999999999716e-05
"770","Psammocora haimeana",6.398836787,5e-05,6.39851684516065,0.99995,0.000319941839349802,4.99999999999691e-05
"771","Psammocora interstinctus",6.455716086,0.05,6.1329302817,0.95,0.3227858043,0.0500000000000001
"772","Psammocora nierstraszi",6.417157349,5e-05,6.41683649113255,0.99995,0.000320857867450286,5.00000000000446e-05
"773","Psammocora obtusangula",6.487038359,0.004,6.461090205564,0.996,0.0259481534360004,0.00400000000000007
"774","Psammocora profundacella",6.584138596,5e-05,6.5838093890702,0.99995,0.000329206929800208,5.00000000000315e-05
"775","Psammocora ramosa",6.693620265,0.05,6.35893925175,0.95,0.33468101325,0.05
"776","Psammocora stellata",6.322516857,0.05,6.00639101415,0.95,0.31612584285,0.05
"777","Psammocora superficialis",6.48872416,5e-05,6.488399723792,0.99995,0.000324436208000378,5.00000000000583e-05
"778","Psammocora vaughani",6.470469034,0.004,6.444587157864,0.996,0.0258818761360002,0.00400000000000004
"779","Psammocora verrilli",6.380062768,0.05,6.0610596296,0.95,0.3190031384,0.05
"780","Pseudosiderastrea tayami",13.19305826,0.004,13.14028602696,0.996,0.0527722330400007,0.00400000000000005
"781","Sandalolitha dentata",5.723394057,5e-05,5.72310788729715,0.99995,0.000286169702850003,5.00000000000006e-05
"782","Sandalolitha robusta",5.744322062,5e-05,5.7440348458969,0.99995,0.000287216103100008,5.00000000000013e-05
"783","Scapophyllia cylindrica",4.514921716,5e-05,4.5146959699142,0.99995,0.000225746085799727,4.99999999999396e-05
"784","Schizoculina africana",8.647102849,0.05,8.21474770655,0.95,0.43235514245,0.05
"785","Schizoculina fissipara",8.647102849,0.05,8.21474770655,0.95,0.43235514245,0.05
"786","Scolymia australis",11.9531533,5e-05,11.952555642335,0.99995,0.000597657665000639,5.00000000000535e-05
"787","Scolymia cubensis",4.287674028,5e-05,4.2874596442986,0.99995,0.000214383701400145,5.00000000000338e-05
"788","Scolymia lacera",4.424196046,5e-05,4.4239748361977,0.99995,0.000221209802299782,4.99999999999508e-05
"789","Scolymia vitiensis",11.9531533,0.004,11.9053406868,0.996,0.0478126131999996,0.00399999999999997
"790","Scolymia wellsi",4.287674028,0.05,4.0732903266,0.95,0.2143837014,0.05
"791","Seriatopora aculeata",8.872260953,0.05,8.42864790535,0.95,0.44361304765,0.0500000000000001
"792","Seriatopora caliendrum",9.695027016,0.004,9.656246907936,0.996,0.0387801080639996,0.00399999999999995
"793","Seriatopora dendritica",8.509197612,0.05,8.0837377314,0.95,0.4254598806,0.05
"794","Seriatopora guttatus",8.511913732,5e-05,8.5114881363134,0.99995,0.000425595686600388,5.00000000000456e-05
"795","Seriatopora hystrix",8.516952554,5e-05,8.5165267063723,0.99995,0.000425847627699483,4.99999999999393e-05
"796","Seriatopora stellata",8.872260953,0.004,8.836771909188,0.996,0.0354890438119995,0.00399999999999994
"797","Siderastrea glynni",26.5732554,0.97,0.797197662000001,0.03,25.776057738,0.97
"798","Siderastrea radians",26.64221032,5e-05,26.640878209484,0.99995,0.00133211051599957,4.9999999999984e-05
"799","Siderastrea savignyana",26.54351387,5e-05,26.5421866943065,0.99995,0.00132717569350049,5.00000000000186e-05
"800","Siderastrea siderea",26.5346103,5e-05,26.533283569485,0.99995,0.00132673051500021,5.00000000000078e-05
"801","Siderastrea stellata",26.46512928,0.05,25.141872816,0.95,1.323256464,0.05
"802","Simplastrea vesicularis",10.27127692,0.05,9.757713074,0.95,0.513563846,0.05
"803","Solenastrea bournoni",19.54516187,5e-05,19.5441846119065,0.99995,0.000977258093499245,4.99999999999614e-05
"804","Solenastrea hyades",8.78769782,5e-05,8.787258435109,0.99995,0.00043938489099915,4.99999999999033e-05
"805","Stephanocoenia intersepta",125.004425,5e-05,124.99817477875,0.99995,0.0062502212499993,4.99999999999944e-05
"806","Stylaraea punctata",28.44560341,0.05,27.0233232395,0.95,1.4222801705,0.0500000000000001
"807","Stylocoeniella armata",17.6448563,5e-05,17.643974057185,0.99995,0.000882242814999046,4.99999999999459e-05
"808","Stylocoeniella cocosensis",19.51503084,0.05,18.539279298,0.95,0.975751542000001,0.0500000000000001
"809","Stylocoeniella guentheri",17.6448563,5e-05,17.643974057185,0.99995,0.000882242814999046,4.99999999999459e-05
"810","Stylocoeniella muscosus",19.33516572,0.05,18.368407434,0.95,0.966758286000001,0.0500000000000001
"811","Stylophora danae",8.743832215,5e-05,8.74339502338925,0.99995,0.000437191610750176,5.00000000000201e-05
"812","Stylophora kuehlmanni",8.386225756,5e-05,8.3858064447122,0.99995,0.000419311287799928,4.99999999999915e-05
"813","Stylophora madagascarensis",8.384100581,0.42,4.86277833698,0.58,3.52132224402,0.42
"814","Stylophora mamillata",9.556469044,5e-05,9.5559912205478,0.99995,0.00047782345220071,5.00000000000743e-05
"815","Stylophora pistillata",8.743832215,0.004,8.70885688614,0.996,0.0349753288599999,0.00399999999999999
"816","Stylophora subseriata",8.386251466,5e-05,8.3858321534267,0.99995,0.000419312573299635,4.99999999999565e-05
"817","Stylophora wellsi",9.599492662,0.004,9.561094691352,0.996,0.0383979706480009,0.00400000000000009
"818","Symphyllia agaricia",4.967996333,5e-05,4.96774793318335,0.99995,0.000248399816650036,5.00000000000072e-05
"819","Symphyllia erythraea",6.805267375,5e-05,6.80492711163125,0.99995,0.000340263368750371,5.00000000000545e-05
"820","Symphyllia hassi",6.821961315,0.05,6.48086324925,0.95,0.341098065750001,0.0500000000000001
"821","Symphyllia radians",5.160606423,5e-05,5.16034839267885,0.99995,0.000258030321149683,4.99999999999385e-05
"822","Symphyllia recta",4.895173732,5e-05,4.8949289733134,0.99995,0.000244758686600122,5.00000000000249e-05
"823","Symphyllia valenciennesii",6.797330242,5e-05,6.7969903754879,0.99995,0.000339866512099718,4.99999999999585e-05
"824","Symphyllia wilsoni",4.895173732,5e-05,4.8949289733134,0.99995,0.000244758686600122,5.00000000000249e-05
"825","Trachyphyllia geoffroyi",5.839393109,0.004,5.816035536564,0.996,0.0233575724359998,0.00399999999999996
"826","Turbinaria bifrons",16.05377928,0.05,15.251090316,0.95,0.802688964000001,0.0500000000000001
"827","Turbinaria conspicua",16.20527849,5e-05,16.2044682260755,0.99995,0.000810263924499566,4.99999999999732e-05
"829","Turbinaria frondens",15.93792485,5e-05,15.9371279537575,0.99995,0.000796896242500011,5.00000000000007e-05
"830","Turbinaria heronensis",16.31654021,0.05,15.5007131995,0.95,0.815827010500001,0.0500000000000001
"831","Turbinaria irregularis",16.68151312,5e-05,16.680679044344,0.99995,0.000834075655998134,4.99999999998882e-05
"832","Turbinaria mesenterina",16.5761365,0.05,15.747329675,0.95,0.828806825000001,0.0500000000000001
"833","Turbinaria patula",16.09104885,0.05,15.2864964075,0.95,0.8045524425,0.05
"834","Turbinaria peltata",16.42166023,0.05,15.6005772185,0.95,0.821083011500001,0.05
"835","Turbinaria radicalis",16.28724765,0.004,16.2220986594,0.996,0.0651489906000009,0.00400000000000005
"836","Turbinaria reniformis",16.14904673,0.05,15.3415943935,0.95,0.807452336500001,0.0500000000000001
"837","Turbinaria stellulata",15.77543067,0.05,14.9866591365,0.95,0.7887715335,0.05
"838","Zoopilus echinatus",6.736419796,5e-05,6.7360829750102,0.99995,0.000336820989799591,4.99999999999393e-05
