\begin{thebibliography}{1}

\bibitem{einstein1905does}
Albert Einstein.
\newblock Does the inertia of a body depend upon its energy-content?
\newblock {\em Annalen der Physik}, 18(13):639--641, 1905.

\end{thebibliography}
