[general]
creator=R package 'raster'
created=2016-07-13 12:25:15
[georeference]
nrows=102
ncols=358
xmin=-17900000
ymin=-4800000
xmax=17900000
ymax=5400000
projection=NA
[data]
datatype=FLT8S
byteorder=little
nbands=1
bandorder=BIL
categorical=FALSE
minvalue=1
maxvalue=556
nodatavalue=-1.7e+308
[legend]
legendtype=
values=
color=
[description]
layername=sumLoss
