[general]
creator=R package 'raster'
created=2016-07-11 10:00:09
[georeference]
nrows=179
ncols=360
xmin=-1.8e+07
ymin=-8900000
xmax=1.8e+07
ymax=9e+06
projection=NA
[data]
datatype=FLT8S
byteorder=little
nbands=1
bandorder=BIL
categorical=FALSE
minvalue=0.000519652034800089
maxvalue=67.7456014784983
nodatavalue=-1.7e+308
[legend]
legendtype=
values=
color=
[description]
layername=sumLoss
