 
Imperial College London HPC Service
-----------------------------------
Job cluster_rb815.s, jobid 1702292[80].cx1b, username rb815 - started execution at 23:28:13 Fri 19/02/16 on system cx1-3-5-4.cx1.hpc.ic.ac.uk
 
R is about to run
WARNING: ignoring environment value of R_HOME

R version 2.13.0 (2011-04-13)
Copyright (C) 2011 The R Foundation for Statistical Computing
ISBN 3-900051-07-0
Platform: x86_64-unknown-linux-gnu (64-bit)

R is free software and comes with ABSOLUTELY NO WARRANTY.
You are welcome to redistribute it under certain conditions.
Type 'license()' or 'licence()' for distribution details.

  Natural language support but running in an English locale

R is a collaborative project with many contributors.
Type 'contributors()' for more information and
'citation()' on how to cite R or R packages in publications.

Type 'demo()' for some demos, 'help()' for on-line help, or
'help.start()' for an HTML browser interface to help.
Type 'q()' to quit R.

> # rm(list = ls())
> # graphics.off()
> 
> iter <- as.numeric(Sys.getenv("PBS_ARRAY_INDEX"))
> 
> species_richness <- function(x) { 
+   unique_species <- unique(c(x))
+   return(length(unique_species))
+ }
> 
> initialise_max <- function(J) { 
+   max_species <- seq(J)
+   return(max_species)
+ }
> 
> choose_two <- function(J) {
+   S <- sample(J, 2)
+   return(S)
+ }
> 
> neutral_step <- function(Community) {
+   Die_Replace <- choose_two(length(Community)) # kill/replace 2 individuals from community (given number of individuals in the (community))
+   Community[Die_Replace[1]] <- Community[Die_Replace[2]] # [1] individual to die, [2] individual to replace
+   return(Community)
+ } 
> 
> neutral_step_speciation <- function(C,v) {        
+   R <- runif(1)      # creates a single random number between 0 and 1
+   if (R < v) {     # if the random number is smaller than the probabilty of speciation...
+     Die_Replace <- choose_two(length(C)) # kill/replace 2 individuals from community (given number of individuals in the (community))
+     C[Die_Replace[1]] <- max(C) + 1 # [1] individual to die, [2] individual to replace (give the highest number given from community, plus 1 to make unique)
+     return(C)     # return new community
+   } else {        # if the random number created at the start is greater than the probability of speciation...
+     return(neutral_step(C)) # continue as usual (just do neutral step)
+   }
+ }
> 
> 
> species_abundance <- function(x) {
+   abundance <- sort(table(x), decreasing = TRUE) # put data into a table (which lists the number of times each species occurs), sort this by size (in decreasing order)
+   return(as.vector(abundance)) # return as a vector, rather than a table
+ }
> 
> octaves <- function(x) {
+   oct <- seq(floor(log2(max(x))+1))*0  # create a vector with the same number of 0's as octave classes we'll end up with
+   for (i in 1:length(x)) { # loop through each number in x
+     OC <- floor(log2(x[i]))+1 # OC = octave class (round down log2 of species abundance and add 1 to get OC)
+     oct[OC] <- oct[OC] + 1 # OC = octave class, which corresponds to vector 'column'. Every time the loop hits that octave class, 1 is added to its corresponding column
+   } 
+   return(oct)
+ }
> 
> sum_vect <- function(x,y){
+   if (length(x) < length(y)) {   # if x is shorter than y...
+     zeroes <- seq(length(y)-length(x))*0   # create a vector of 0's (number of 0's = excess needed to make lengths of vectors equal)
+     x <- c(x, zeroes)   # add 0's to (shorter) x to make it same length vector as y
+   } else if (length(y) < length(x)){
+     zeroes <- seq(length(x)-length(y))*0   # same as above, but if y is shorter than x
+     y <- c(y, zeroes)   # add 0's to make (shorter) y the same length vector as y
+   } else {
+     return(x+y)
+     }
+   return(x+y)
+ }
> 
> 
> 
> cluster_run <- function(speciation_rate, size, wall_time, rand_seed, interval_rich, interval_oct, burn_in_time){
+   set.seed(rand_seed) # set seed
+   NSS <- initialise_max(size) # initial community
+   OCT <- list(octaves(species_abundance(NSS))) # initial octaves
+   SPECIES.RICH <- species_richness(NSS) # initial species richness
+   gen <- 0 # initial generation
+   
+   time.zero <- as.numeric((proc.time()[3])/60) # set start time (in minutes)
+   time.elapsed <- as.numeric((proc.time()[3])/60) - time.zero # record how much time has passed since beginning (in minutes)
+   
+   while (time.elapsed < wall_time){
+     
+     gen <- gen + 1 # keep count of generations by adding 1 to gen at the start of every loop
+     
+       for (i in 1:size){ # 1 generation is 1:size, so each for loop will be 1 generation
+         NSS <- neutral_step_speciation(NSS,speciation_rate) # do 1 step with speciation and build on the last community
+       }  
+     
+       if (gen < burn_in_time) { # if simulation is still burning in...
+         if ((gen %% interval_rich)==0){  # and if generation is a multiple of interval_rich...
+           SPECIES.RICH <- c(SPECIES.RICH, species_richness(NSS)) # record species richness of the last community
+         }
+       }
+     
+       if ((gen %% interval_oct)==0){ # if generation is a multiple of interval_oct...
+      
+         OCT <- c(OCT,list(octaves(species_abundance(NSS)))) # record octaves of the last community
+         simulation_time <-time.elapsed # total simulation time
+       }
+     
+     time.elapsed <- as.numeric((proc.time()[3])/60) - time.zero # record time at the start of generation
+   }
+   
+   save(SPECIES.RICH, OCT, speciation_rate , size , wall_time, rand_seed, interval_rich , interval_oct, burn_in_time, 
+        list = character(), file = paste("cluster_rb815_",iter,".RData",sep="")) # save file containing the listed info & name it with unique ending
+  print(time.elapsed)
+    }
> 
> do_simulation <- function(seed) {
+ 
+   J <- c(500,1000,2500,5000)
+   simulations <- c(rep.int(J,25))
+   size <- simulations[seed]
+   rand_seed <- seed
+   interval_rich <- 1
+   interval_oct <- size/10
+   burn_in_time <- size*4
+   speciation_rate <- 0.001653
+   wall_time <- 11.5*60
+   cluster_run(speciation_rate = speciation_rate, size = size, wall_time = wall_time, rand_seed = rand_seed, interval_rich = interval_rich, interval_oct = interval_oct, burn_in_time = burn_in_time)# do your simulation 
+ }
> do_simulation(iter)
[1] 690.0008
> 
R has finished running
 
Imperial College London HPC Service
-----------------------------------
Job cluster_rb815.s, jobid 1702292[80].cx1b, username rb815 - end of execution at 10:58:14 Sat 20/02/16 on system cx1-3-5-4.cx1.hpc.ic.ac.uk
 
