Starting weekly assessment for Rachel, Week5

Current Marks = 100

Note that: 
(1) Major sections begin with a double "====" line 
(2) Subsections begin with a single "====" line 
(3) Code output or text file content are printed within single "*****" lines 

======================================================================
======================================================================
PART 1: Checking project workflow...

Found the following directories in parent directory: Assessment, Week1, Week5, Week2, Week8, CMEELongPrac, Week4, Week6, .git, Week9

Found the following files in parent directory: __init__.py, .gitignore, contributors.txt, texput.log, README.txt

Checking for key files in parent directory...

Found .gitignore in parent directory, great! 

Printing contents of .gitignore:
**********************************************************************
*~ 
*.tmp
*.pyc
**********************************************************************

Found README in parent directory, named: README.txt

Printing contents of README.txt:
**********************************************************************
My CMEECourseWork Repository
Contains codes, data and practicals from each week

Author: Rachel Balasuriya
Contact: rachel.balasuriya15@imperial.ac.uk
**********************************************************************

======================================================================
Looking for the weekly directories...

Found 7 weekly directories: Week1, Week2, Week4, Week5, Week6, Week8, Week9

The Week5 directory will be assessed 

======================================================================
======================================================================
PART 2: Checking weekly code and workflow...

======================================================================
Assessing WEEK5...

Found the following directories: Data, Sandbox, Results, Code

Found the following files: README.txt~, README.txt

Checking for readme file in weekly directory...

Found README in parent directory, named: README.txt

Printing contents of README.txt:
**********************************************************************
CMEE (Computational Methods in Ecology and Evolution) Week 5 README file

***Directory Contents***
----------------------------------
README.txt -----------------------This file, which provides an overview of Week 5's directory 

/Code ----------------------------Contains shell scripts and outputs created and/or used this week. 
	apply.R-------------------Vectorize in R using *apply functions instead of for loops 
	basic_io.R----------------Read and create .csv files and tables
	break.R-------------------Break out of a loop
	browse.R------------------Debugging - check for errors within scripts
	control.R-----------------Loops in R
	get_TreeHeight.R----------Runs get_TreeHeight.R with any (appropriate) dataset and outputs results into a csv file in the Results folder
	GPPDMap.R-----------------Creates a world map with datapoints showing Lat-Long coordinates from GPDDFiltered.RData	
	next.R--------------------Skip to next iteration of a loop
	PP_Lattice.R--------------Creates lattice plots and mean, median and log mass of predator-prey mass ratio and log predator and prey mass 
	PP_Regress.R--------------Creates a linear regression for subsets of predator-prey data, with a plot displaying the results - predator lifestage
	PP_Regress_loc.R----------Creates a linear regression for subsets of predator-prey data, with a plot displaying the results - location 
	run_get_TreeHeight.sh-----Unix shell script to test get_TreeHeight.R
	sample.R------------------Random sampling from a population
	stochrickvect.R-----------Stochastic Ricker model written in a vectorized manner
	TAutoCorr.R---------------Testing whether mean annual temperatures in Florida are significantly correlated with the previous years temperatuers
	TreeHeight.R--------------A function to get the height of trees using trigonometry
	try.R---------------------Try to do something and continue (rather than stop or break out of loop) if it doesn't work
	Vectorize1.R--------------Writing a sum calculation using for loops vs. vectorised to demostrate the time difference
	Vectorize2.R--------------Stochastic Ricker model written in with loops


/Data----------------------------------------Contains all data used this week.
	EcolArchives-E089-51-D1.csv----------Predator prey dataset: used in PP_Latice.R, PP_Regress.R and PP_Regress_loc.R practicals
	GPPDFiltered.RData-------------------Common name of observed species with their latitude and longitude coordinates: used in GPPDMap.R extra credit practical	
	KeyWestAnnualMeanTemperature.RData---Annual mean temperatures from Key West, Florida during the 20th centuary: used in TAutoCorr.R practical
	Results.txt--------------------------Data used for case study 3
	trees.csv----------------------------Tree species name with distance from tree and angle between ground and top of tree: used in TreeHeight.R and run_get_TreeHeight.R practicals


/Results----------------------------Outputs from R code (.csv and .pdf)
	MyBars.pdf------------------Barplot created in case study 3	
	Girko.pdf-------------------Eclipse created in case study 2	
	MyFirst-ggplot2-Figure.pdf--GGPlot showing correlation between predator and prey mass
	MyLinReg.pdf----------------Linear regression plot created in case study 4	
	PP_Regress.pdf--------------Regression of predator-prey log mass, subset by predator lifestage and feeding type from PP_Regress.R practical
	PP_Regress_loc.pdf----------Regression of predator-prey log mass, subset by location and feeding type from PP_Regress_loc.R practical
	PP_Regress_Results.csv------Regression results from PP_Regress.R practical
	PP_Regress_Results_loc.csv--Regression results from PP_Regress_loc.R extra credit practical
	PP_Results.csv--------------Log data from PP_Lattice.R practical
	Pred_Lattice.pdf------------Lattice plot of log predator mass from PP_Lattice.R practical
	Prey_Lattice.pdf------------Lattice plot of log predator mass from PP_Lattice.R practical	
	SizeRatio_Lattice.pdf-------Lattice plot of log predator-prey mass ratio from PP_Lattice.R practical
	TAutoCorrInterp.aux---------Output from creating LaTeX document
	TAutoCorrInterp.log---------Output from creating LaTeX document
	TAutoCorrInterp.pdf---------LaTeX document summarizing temperature autocorrelation practical
	TAutoCorrInterp.tex---------My original LaTeX document before it was turned into a pdf
	TreeHts.csv-----------------Output calculated from TreeHeight.R practical
	trees_treeheights.csv-------Output calculated from get_TreeHeight.R practical


/Sandbox--------------------------Where Mr. Tinkles leaves his gifts!
	9_1_Plotting.R------------Plotting data (the basics): Scatterplots, Histograms, Subplots, Overlaying plots, Boxplots, Combining plot types, Lattice plots
	9_3_GGPlot.R--------------Plotting data with ggplot (qplot): Scatterplots, Boxplots, Histograms & density plots, Multi-faceted plots, Logarithmic axes, Plot annotations
				  Change colour, shape & size of datapoints, change column distribution & transparency of bars, add smoothers (linear regression), fullrange, 'jitter' data.
	10_Vectorization.R--------Vectorization (*apply, plyr) and random number generator
	AnotatePlot.R-------------Case study 3 - create a barplot with multiple layers and annotations
	GirkosCircle--------------Case study 2 - Girko's circular law illustrated
	MyLinReg------------------Case study 4 - Plots a linear regression with mathematical annotations and colours expressing residuals	
	PlotMatrix----------------Case study 1 - plotting a matrix	
	Ricker.R------------------The ricker model
	TAutoCorrDensity.pdf------Denisty plot created in TAutoCorr.R practical to input into LaTeX file
	TAutoCorrOutput.csv-------Testing output for autocorrelation practical


***TIPS***
#setwd("~/Documents/CMEECourseWork2015/Week5/Code")


***Contact Details***
Author: Rachel Balasuriya
e-mail: rachel.balasuriya15@imperial.ac.uk
**********************************************************************

Found 19 code files: Vectorize1.R, stochrickvect.R, run_get_TreeHeight.sh, browse.R, control.R, GPDDMap.R, try.R, sample.R, basic_io.R, next.R, PP_Regress_loc.R, break.R, PP_Lattice.R, get_TreeHeight.R, apply.R, Vectorize2.R, PP_Regress.R, TreeHeight.R, TAutoCorr.R

Found the following extra files: Rplots.pdf, .Rhistory, .RData
What are they doing here?! 

0.5 pt deducted per extra file

Current Marks = 98.5

======================================================================
Testing script/code files...

======================================================================
Inspecting script file StudentRepos/RachelBalasuriya_RB815/Week5/Code/Vectorize1.R...

File contents are:
**********************************************************************
# Vectorize1.R
# functions: <-, +, :, matrix, runif, function, dim, for, in, return, print, system.time, sum

M <- matrix(runif(1000000),1000,1000)
SumAllElements <- function(M){
  Dimensions <- dim(M) # dim checks how many rows/columns
  Tot <- 0
  for (i in 1:Dimensions[1]){
    for (j in 1:Dimensions[2]){
      Tot <- Tot + M[i,j] # adds each number in matrix one by one
    }
  }
  return (Tot) # sum off all elements in the matrix
}

print(system.time(SumAllElements(M))) 

print(system.time(sum(M))) # sum is the inbuilt R function which calculates the sum of the matrix 100 times faster
**********************************************************************

Testing Vectorize1.R...

Output (only first 500 characters): 

**********************************************************************
   user  system elapsed 
  0.740   0.004   0.742 
   user  system elapsed 
  0.004   0.000   0.001 

**********************************************************************

Code ran without errors

Time consumed = 0.96132s

======================================================================
Inspecting script file StudentRepos/RachelBalasuriya_RB815/Week5/Code/stochrickvect.R...

File contents are:
**********************************************************************
# Runs the stochastic (with gaussian fluctuations) Ricker Eqn .

# Now write another code called stochrickvect that vectorizes the above 
# to the extent possible, with improved performance: 

rm(list=ls())

stochrick <- function(p0=runif(1000,.5,1.5),r=1.2,K=1,sigma=0.2,numyears=100)
{
  #initialize
  N<-matrix(NA,numyears,length(p0))
  N[1,]<-p0
    for (yr in 2:numyears) #for each pop, loop through the years
    {                          # pop loop removed as it was redundant (function works without it explicitly looping through) and time costly
      N[yr,]<-N[yr-1,]*exp(r*(1-N[yr-1,]/K)+rnorm(length(p0),0,sigma)) # rnorm now needs to know to how many rows to fill
       }
  return(N)

}

  print("Vectorized Stochastic Ricker takes:")
  print(system.time(res2<-stochrick())) # Now runs at 0.02, compared to the original 0.6 secs
 # plot(stochrick(numyears = 100), type="l")
**********************************************************************

Testing stochrickvect.R...

Output (only first 500 characters): 

**********************************************************************
[1] "Vectorized Stochastic Ricker takes:"
   user  system elapsed 
  0.016   0.000   0.016 

**********************************************************************

Code ran without errors

Time consumed = 0.13682s

======================================================================
Inspecting script file StudentRepos/RachelBalasuriya_RB815/Week5/Code/run_get_TreeHeight.sh...

File contents are:
**********************************************************************
#!/bin/Rscript
# Author: Rachel Balasuriya
# Script: run_get_TreeHeight.sh
# Desc: runs get_TreeHeight.R with a given csv file
# Date: Nov 2015

#Rscript -e 'source("get_TreeHeight.R"), args <- $1'  #"../Data/TreeHeight.R"' #$1

Rscript get_TreeHeight.R ../Data/trees.csv**********************************************************************

Testing run_get_TreeHeight.sh...

Output (only first 500 characters): 

**********************************************************************

**********************************************************************

Code ran without errors

Time consumed = 0.11737s

======================================================================
Inspecting script file StudentRepos/RachelBalasuriya_RB815/Week5/Code/browse.R...

File contents are:
**********************************************************************
# browse.R
# functions: browser()
          # <-, =, *, :, function, for, in, return, plot, type, main
# Q to quit browser(), c to continue

Exponential <- function(N0 = 1, r = 1, generations = 10) {
  # runs a simulationof exponential growth
  # returns a vector of length generations
  N <- rep(NA, generations)
  N[1] <- N0
  for (t in 2:generations) {
    N[t] <- N[t-1] * exp(r)
     browser()
  }
  return(N)
}
plot(Exponential(), type = "1", main = "Exponential growth")
**********************************************************************

Testing browse.R...

Output (only first 500 characters): 

**********************************************************************
Called from: Exponential()
Called from: Exponential()
Called from: Exponential()
Called from: Exponential()
Called from: Exponential()
Called from: Exponential()
Called from: Exponential()
Called from: Exponential()
Called from: Exponential()

**********************************************************************

Encountered error:
Error in plot.xy(xy, type, ...) : invalid plot type '1'
Calls: plot -> plot.default -> plot.xy
Execution halted

======================================================================
Inspecting script file StudentRepos/RachelBalasuriya_RB815/Week5/Code/control.R...

File contents are:
**********************************************************************
# If statement
a<- TRUE
if (a == TRUE){
  print("a is TRUE")
}  else {
    print("a is FALSE")
}

# On a single line
z <- runif(1) # random number
if (z <= 0.5) {
  print ("Less than a half")
}

# For loop using a sequence
for (i in 1:100) {
  j <- i * i
  print(paste(i, " squared is", j))
}

# For loop over vector of strings
for(species in c('Heliodoxa rubinoides',
                 'Boissonneaua jardini',
                 'Sula nebouxii'))
{
  print(paste('The species is', species))
}

# For loop using a vector
vl <- c("a","bc","def")
for (i in vl) {
  print(i)
}

# While loop
i <- 0
while(i<100) {
  i <- i + 1
  print(i^2)
}

**********************************************************************

Testing control.R...

Output (only first 500 characters): 

**********************************************************************
[1] "a is TRUE"
[1] "Less than a half"
[1] "1  squared is 1"
[1] "2  squared is 4"
[1] "3  squared is 9"
[1] "4  squared is 16"
[1] "5  squared is 25"
[1] "6  squared is 36"
[1] "7  squared is 49"
[1] "8  squared is 64"
[1] "9  squared is 81"
[1] "10  squared is 100"
[1] "11  squared is 121"
[1] "12  squared is 144"
[1] "13  squared is 169"
[1] "14  squared is 196"
[1] "15  squared is 225"
[1] "16  squared is 256"
[1] "17  squared is 289"
[1] "18  squared is 324"
[1] "19  squared is 361"
[1] "20 
**********************************************************************

Code ran without errors

Time consumed = 0.11375s

======================================================================
Inspecting script file StudentRepos/RachelBalasuriya_RB815/Week5/Code/GPDDMap.R...

File contents are:
**********************************************************************
# GPDDMap.R
# setwd("~/Documents/CMEECourseWork2015/Week5/Code/")
XCredMap <- local(get(load("../Data/GPDDFiltered.RData")))
library(maps)
map("world")
points(XCredMap$long, XCredMap$lat, col = "red", cex = .6)
**********************************************************************

Testing GPDDMap.R...

Output (only first 500 characters): 

**********************************************************************

**********************************************************************

Code ran without errors

Time consumed = 0.21594s

======================================================================
Inspecting script file StudentRepos/RachelBalasuriya_RB815/Week5/Code/try.R...

File contents are:
**********************************************************************
# try.R
# functions: try, sample, stop
           # stats::rnorm(), function(), replace, if, else, length, unique, mean, <-


## Run a simulation that involves sampling from a population

x <- stats::rnorm(50) # generates 50 numbers
doit <- function(x) {
  x <- sample(x, replace = TRUE) # replaces a sample of unique numbers with repeats
  if(length(unique(x)) > 30) {  # The lower the number the less chance of errors, and fewer error messages (25 seems to be the tipping point)
    mean(x)}
  else {
    stop("too few unique plots") # When an error occurs because we used 'stop', a message is added (manually) to tell us why
  }
}

## Try using 'try' with vectorization:
result <- lapply(1:100, function (i) try(doit(x), FALSE))

## Or using a for loop
result <- vector("list", 100) # Preallocate/Initialize
for(i in 1:100) {
  result[[i]] <- try(doit(x), FALSE) # try allows the script to keep running despite errors
}
**********************************************************************

Testing try.R...

Output (only first 500 characters): 

**********************************************************************

**********************************************************************

Encountered error:
Error in doit(x) : too few unique plots
Error in doit(x) : too few unique plots
Error in doit(x) : too few unique plots
Error in doit(x) : too few unique plots
Error in doit(x) : too few unique plots
Error in doit(x) : too few unique plots
Error in doit(x) : too few unique plots
Error in doit(x) : too few unique plots
Error in doit(x) : too few unique plots
Error in doit(x) : too few unique plots
Error in doit(x) : too few unique plots
Error in doit(x) : too few unique plots
Error in doit(x) : too few unique plots
Error in doit(x) : too few unique plots
Error in doit(x) : too few unique plots
Error in doit(x) : too few unique plots
Error in doit(x) : too few unique plots
Error in doit(x) : too few unique plots
Error in doit(x) : too few unique plots
Error in doit(x) : too few unique plots
Error in doit(x) : too few unique plots
Error in doit(x) : too few unique plots
Error in doit(x) : too few unique plots
Error in doit(x) : too few unique plots
Error in doit(x) : too few unique plots
Error in doit(x) : too few unique plots
Error in doit(x) : too few unique plots
Error in doit(x) : too few unique plots
Error in doit(x) : too few unique plots
Error in doit(x) : too few unique plots
Error in doit(x) : too few unique plots
Error in doit(x) : too few unique plots
Error in doit(x) : too few unique plots
Error in doit(x) : too few unique plots
Error in doit(x) : too few unique plots
Error in doit(x) : too few unique plots
Error in doit(x) : too few unique plots
Error in doit(x) : too few unique plots
Error in doit(x) : too few unique plots
Error in doit(x) : too few unique plots
Error in doit(x) : too few unique plots
Error in doit(x) : too few unique plots
Error in doit(x) : too few unique plots
Error in doit(x) : too few unique plots
Error in doit(x) : too few unique plots
Error in doit(x) : too few unique plots
Error in doit(x) : too few unique plots
Error in doit(x) : too few unique plots
Error in doit(x) : too few unique plots
Error in doit(x) : too few unique plots
Error in doit(x) : too few unique plots

======================================================================
Inspecting script file StudentRepos/RachelBalasuriya_RB815/Week5/Code/sample.R...

File contents are:
**********************************************************************
## run a simulation that involves sampling from a population
x <- rnorm(50) #Generate your population
doit <- function(x){
  x <- sample(x, replace = TRUE)
  if(length(unique(x)) > 30) { #only take mean if sample was sufficient
    print(paste("Mean of this sample was:", as.character(mean(x))))
  }
}
## Run 100 iterations using vectorization:
result <- lapply(1:100, function(i) doit(x))
## Or using a for loop:
result <- vector("list", 100) #Preallocate/Initialize
for(i in 1:100) {
  result[[i]] <- doit(x)
}
**********************************************************************

Testing sample.R...

Output (only first 500 characters): 

**********************************************************************
[1] "Mean of this sample was: -0.176600584562021"
[1] "Mean of this sample was: 0.124467850313317"
[1] "Mean of this sample was: 0.0350418498170941"
[1] "Mean of this sample was: -0.153781169508809"
[1] "Mean of this sample was: -0.028217366240056"
[1] "Mean of this sample was: -0.0388444164780061"
[1] "Mean of this sample was: 0.185664231479731"
[1] "Mean of this sample was: -0.0352811561726018"
[1] "Mean of this sample was: -0.142104583102409"
[1] "Mean of this sample was: 0.0170669549130568"
[
**********************************************************************

Code ran without errors

Time consumed = 0.11850s

======================================================================
Inspecting script file StudentRepos/RachelBalasuriya_RB815/Week5/Code/basic_io.R...

File contents are:
**********************************************************************
# A simple R script to illustrate R input-output.
# Run line by line and check inputs outputs to understand what it is
# happening
#setwd("~/Documents/CMEECourseWork2015/Week5/Code/")

MyData <- read.csv("../Data/trees.csv", header = TRUE) # import with headers

write.csv(MyData, "../Results/MyData.csv") # write it out as a new file

write.table(MyData[1,], file = "../Results/MyData.csv", append = TRUE) # append to it (you will get a warning)

write.csv(MyData, "../Results/MyData.csv", row.names=TRUE) # write row names

write.table(MyData, "../Results/MyData.csv", col.names = FALSE) # ignore column names

#source("basic_io.R") # assuming you are in the Code directory

MyFunction <- function(Arg1, Arg2) {
  ## statements involving Arg1, Arg2
return (ReturnValue)}

**********************************************************************

Testing basic_io.R...

Output (only first 500 characters): 

**********************************************************************

**********************************************************************

Encountered error:
Warning message:
In write.table(MyData[1, ], file = "../Results/MyData.csv", append = TRUE) :
  appending column names to file

======================================================================
Inspecting script file StudentRepos/RachelBalasuriya_RB815/Week5/Code/next.R...

File contents are:
**********************************************************************
# next.R
# functions: next
           # for, if, in, %%, ==, print

for(i in 1:10) {
  if((i %% 2) == 0) # numbers which are a multiple of the number stated (e.g. 2) then they won't be printed, 
                    # so, if i %% 1 then no numbers will be printed. If i %% 2 then only odd numbers will be shown
    next # pass to next iteration of loop. next halts the processing of the current iteration and advances the looping index
  print(i)
}**********************************************************************

Testing next.R...

Output (only first 500 characters): 

**********************************************************************
[1] 1
[1] 3
[1] 5
[1] 7
[1] 9

**********************************************************************

Code ran without errors

Time consumed = 0.10836s

======================================================================
Inspecting script file StudentRepos/RachelBalasuriya_RB815/Week5/Code/PP_Regress_loc.R...

File contents are:
**********************************************************************
# Title: PP_Regress.R
# Desc: Linear regression for subsets of data, with a plot displaying results.

# setwd("~/Documents/CMEECourseWork2015/Week5/Code/")

# Load ggplot & plyr
require(ggplot2)
require(plyr)

# Read in data
MyData <- read.csv("../Data/EcolArchives-E089-51-D1.csv")

# Linear regression

LM <- function(df) {

 output <- data.frame(slope = NA, intercept = NA, rsquared = NA, fstat = NA, pvalue = NA)
  
  model <-  lm(log(df$Predator.mass)~log(df$Prey.mass))
  output$slope <- model$coefficients[2]
  output$intercept <- model$coefficients[1]
  output$rsquared <- summary(model)$r.squared
  output$fstat <- summary(model)$fstatistic[1]
  output$pvalue <- anova(model)$'Pr(>F)'[1]


return(output)
}

x <- ddply(MyData, .(Type.of.feeding.interaction, Location), LM)

# Save dataframe to csv
write.csv(x, "../Results/PP_Regress_Results_loc.csv")


# qplot

p <- qplot(Prey.mass, Predator.mass,
           facets = Type.of.feeding.interaction~., 
           data = MyDF, log = "xy", 
           geom = c("point", "smooth"), method = "lm",
           colour = Location, shape = I(3),
           fullrange = TRUE)

# ggplot
q <- ggplot(MyData, aes(x = Prey.mass, y = Predator.mass,
                        colour = Location, )) + 
  facet_grid(Type.of.feeding.interaction ~.) + 
  geom_point(size = I(2), shape = I(3)) + theme(legend.position = "bottom") + 
  scale_x_log10() + scale_y_log10() +
  geom_smooth(method = lm, fullrange=TRUE) +
  labs(x = "Prey Mass in grams", y = "Predator Mass in grams")  + 
  theme(panel.background = element_rect(fill = "white", colour = "black"))

#Save graph
pdf("../Results/PP_Regress_loc.pdf", 11.7, 8.3)
print (q)
dev.off()
**********************************************************************

Testing PP_Regress_loc.R...

Output (only first 500 characters): 

**********************************************************************

**********************************************************************

Encountered error:
Loading required package: ggplot2
Loading required package: methods
Loading required package: plyr
Warning messages:
1: In anova.lm(model) :
  ANOVA F-tests on an essentially perfect fit are unreliable
2: In anova.lm(model) :
  ANOVA F-tests on an essentially perfect fit are unreliable
Error in ggplot(data, aesthetics, environment = env) : 
  object 'MyDF' not found
Calls: qplot -> ggplot
Execution halted

======================================================================
Inspecting script file StudentRepos/RachelBalasuriya_RB815/Week5/Code/break.R...

File contents are:
**********************************************************************
# break.R
# functions: break
           # <-, ==, +, while, if, else, Inf, cat

i <- 0 # initialize i
while (i < Inf) {
  if(i == 20) {
    break} # break out of the while loop!
  else {
    cat("i equals", i, " \n")
    i <- i + 1 # update i
  }
}**********************************************************************

Testing break.R...

Output (only first 500 characters): 

**********************************************************************
i equals 0  
i equals 1  
i equals 2  
i equals 3  
i equals 4  
i equals 5  
i equals 6  
i equals 7  
i equals 8  
i equals 9  
i equals 10  
i equals 11  
i equals 12  
i equals 13  
i equals 14  
i equals 15  
i equals 16  
i equals 17  
i equals 18  
i equals 19  

**********************************************************************

Code ran without errors

Time consumed = 0.10498s

======================================================================
Inspecting script file StudentRepos/RachelBalasuriya_RB815/Week5/Code/PP_Lattice.R...

File contents are:
**********************************************************************
# Title: PP_Lattice.R
# Desc: Creates lattice plots for log predator mass, prey mass and predator-prey mass ratio.
      # Creates a dataframe of log mass for predator and prey means and medians, and log mass for predator-prey ratio

#setwd("~/Documents/CMEECourseWork2015/Week5/Code/")


library(lattice)

MyDF <- read.csv("../Data/EcolArchives-E089-51-D1.csv")



# Plots

# Predator lattice
pdf("../Results/Pred_Lattice.pdf", 11.7, 8.3)
densityplot(~log(Predator.mass) | Type.of.feeding.interaction, data = MyDF, xlab = "log Predator mass (g)")
dev.off()

# Prey lattice
pdf("../Results/Prey_Lattice.pdf", 11.7, 8.3)
densityplot(~log(Prey.mass) | Type.of.feeding.interaction, data = MyDF, xlab = "log Prey mass (g)")
dev.off()

# Size ratio lattice
pdf("../Results/SizeRatio_Lattice.pdf", 11.7, 8.3)
densityplot(~log(Predator.mass/Prey.mass) | Type.of.feeding.interaction, data = MyDF, xlab = "log Predator-prey mass ratio (g)")
dev.off()



# Dataframe

# Predator mean by feeding type
PredMean <- with(MyDF, tapply(log(Predator.mass), INDEX = Type.of.feeding.interaction, FUN = mean))

# Predator median by feeding type
PredMedian <- with(MyDF, tapply(log(Predator.mass), INDEX = Type.of.feeding.interaction, FUN = median))

# Prey mean by feeding type
PreyMean <- with(MyDF, tapply(log(Prey.mass), INDEX = Type.of.feeding.interaction, FUN = mean))

#Prey median by feeding type
PreyMedian <- with(MyDF, tapply(log(Prey.mass), INDEX = Type.of.feeding.interaction, FUN = median))

# Predator-Prey ratio by feeding type
PredPreyRatio <- with(MyDF, tapply(log(Predator.mass)/log(Prey.mass), INDEX = Type.of.feeding.interaction, FUN = median))

# Create new dataframe
NewDF <- data.frame(PredMean, PredMedian, PreyMean, PreyMedian, PredPreyRatio)

colnames(NewDF) <- c("Log mean predator mass (g)", "Log median predator mass (g)", 
                     "Log mean prey mass (g)", "Log median prey mass (g)", 
                     "Log predator-prey mass ratio (g)")


# Save new dataframe
write.csv(NewDF, "../Results/PP_Results.csv")

**********************************************************************

Testing PP_Lattice.R...

Output (only first 500 characters): 

**********************************************************************
null device 
          1 
null device 
          1 
null device 
          1 

**********************************************************************

Code ran without errors

Time consumed = 1.89055s

======================================================================
Inspecting script file StudentRepos/RachelBalasuriya_RB815/Week5/Code/get_TreeHeight.R...

File contents are:
**********************************************************************
# This function calculates heights of trees
# from the angle of elevation and the distance
# from the base using a trigonometric formula
#
# Arguments:
# degrees   the angle of elevation
# distance  the distance from base
#
# Output:
# the height of the tree, same units as 'distance'

argv <- commandArgs(TRUE)
Trees <- read.csv(argv[1])


TreeHeight <- function(degrees, distance)
{
  radians <- degrees * pi / 180
  height <- distance * tan(radians)
  return(height)
}


angle <- Trees [,3]
distance <- Trees [,2]
Trees$TreeHeight.m <- TreeHeight(angle,distance)

Name <- basename(argv)
Name <- (strsplit(Name, ".csv"))


write.csv(Trees, file = paste0("../Results/", Name, "_treeheights",".csv"), 
          row.names=TRUE)
# 'write.csv' to make a file
# 'file = ' to create path and name
# 'paste0' to concatenate vectors after converting to characters
# '../Results/' is the path where I want the new file to be stored
# 'Name' is the new name of the file (followed by the rest of the file name)**********************************************************************

Testing get_TreeHeight.R...

Output (only first 500 characters): 

**********************************************************************

**********************************************************************

Encountered error:
Error in file(file, "rt") : cannot open the connection
Calls: read.csv -> read.table -> file
In addition: Warning message:
In file(file, "rt") : cannot open file 'NA': No such file or directory
Execution halted

======================================================================
Inspecting script file StudentRepos/RachelBalasuriya_RB815/Week5/Code/apply.R...

File contents are:
**********************************************************************
# apply.R

##apply:
# applying the same function to rows/columns of a matrix

## Build a random matrix

M <- matrix(rnorm(100),10,10)

## Take the mean of each row
RowMeans <- apply(M, 1, mean)

## Now the variance
RowVars <- apply(M, 1, var)

## By column
ColMeans <- apply(M, 2, mean)
print(ColMeans)

## You can use it to apply your own functions
## (What does this function do?)
SomeOperation <- function(v){
  if(sum(v) > 0){
    return(v *100)
  }
  return (v)
}
print (apply(M, 1, SomeOperation))**********************************************************************

Testing apply.R...

Output (only first 500 characters): 

**********************************************************************
 [1] -0.31143511  0.68694274 -0.16690249  0.31492347  0.33141506 -0.06503156
 [7]  0.36392834  0.23755471 -0.05984044 -0.54715986
             [,1]        [,2]       [,3]       [,4]        [,5]       [,6]
 [1,]  -56.601224 -1.04916021 140.870497   85.71086 -0.86922482 -0.7073040
 [2,]  140.262964  0.06318769  22.682809  153.47322  0.12731905  0.8246103
 [3,]   57.638880 -1.09692521  41.118548  -77.64318 -1.07576955 -0.0893419
 [4,]   88.718849  0.88462521 133.606045  -67.12856  0.09485763  0.4812
**********************************************************************

Code ran without errors

Time consumed = 0.10835s

======================================================================
Inspecting script file StudentRepos/RachelBalasuriya_RB815/Week5/Code/Vectorize2.R...

File contents are:
**********************************************************************
# Runs the stochastic (with gaussian fluctuations) Ricker Eqn .

rm(list=ls())

stochrick<-function(p0=runif(1000,.5,1.5),r=1.2,K=1,sigma=0.2,numyears=100)
{
  #initialize
  N<-matrix(NA,numyears,length(p0))
  N[1,]<-p0
  
  for (pop in 1:length(p0)) #loop through the populations
  {
    for (yr in 2:numyears) #for each pop, loop through the years
    {
      N[yr,pop]<-N[yr-1,pop]*exp(r*(1-N[yr-1,pop]/K)+rnorm(1,0,sigma))
    }
  }
  return(N)

# Now write another code called stochrickvect that vectorizes the above 
# to the extent possible, with improved performance: 

# print("Vectorized Stochastic Ricker takes:")
# print(system.time(res2<-stochrickvect()))

**********************************************************************

Testing Vectorize2.R...

Output (only first 500 characters): 

**********************************************************************

**********************************************************************

Code ran without errors

Time consumed = 0.14882s

======================================================================
Inspecting script file StudentRepos/RachelBalasuriya_RB815/Week5/Code/PP_Regress.R...

File contents are:
**********************************************************************
# Title: PP_Regress.R
# Desc: Linear regression for subsets of data, with a plot displaying results.

# setwd("~/Documents/CMEECourseWork2015/Week5/Code/")

# Load ggplot & plyr
require(ggplot2)
require(plyr)

# Read in data
MyData <- read.csv("../Data/EcolArchives-E089-51-D1.csv")

# Linear regression

LM <- function(df) {

 output <- data.frame(slope = NA, intercept = NA, rsquared = NA, fstat = NA, pvalue = NA)
  
  model <-  lm(log(df$Predator.mass)~log(df$Prey.mass))
  output$slope <- model$coefficients[2]
  output$intercept <- model$coefficients[1]
  output$rsquared <- summary(model)$r.squared
  output$fstat <- summary(model)$fstatistic[1]
  output$pvalue <- anova(model)$'Pr(>F)'[1]


return(output)
}

x <- ddply(MyData, .(Type.of.feeding.interaction, Predator.lifestage), LM)

# Save dataframe to csv
write.csv(x, "../Results/PP_Regress_Results.csv")


# qplot

p <- qplot(Prey.mass, Predator.mass,
           facets = Type.of.feeding.interaction~., 
           data = MyDF, log = "xy", 
           geom = c("point", "smooth"), method = "lm",
           colour = Predator.lifestage, shape = I(3),
           fullrange = TRUE)

# ggplot
q <- ggplot(MyData, aes(x = Prey.mass, y = Predator.mass,
                        colour = Predator.lifestage, )) + 
  facet_grid(Type.of.feeding.interaction ~.) + 
  geom_point(size = I(2), shape = I(3)) + theme(legend.position = "bottom") + 
  scale_x_log10() + scale_y_log10() +
  geom_smooth(method = lm, fullrange=TRUE) +
  labs(x = "Prey Mass in grams", y = "Predator Mass in grams")   + theme(panel.background = element_rect(fill = "white", colour = "black"))

#Save graph
pdf("../Results/PP_Regress.pdf", 11.7, 8.3)
print (q)
dev.off()
**********************************************************************

Testing PP_Regress.R...

Output (only first 500 characters): 

**********************************************************************

**********************************************************************

Encountered error:
Loading required package: ggplot2
Loading required package: methods
Loading required package: plyr
Warning message:
In anova.lm(model) :
  ANOVA F-tests on an essentially perfect fit are unreliable
Error in ggplot(data, aesthetics, environment = env) : 
  object 'MyDF' not found
Calls: qplot -> ggplot
Execution halted

======================================================================
Inspecting script file StudentRepos/RachelBalasuriya_RB815/Week5/Code/TreeHeight.R...

File contents are:
**********************************************************************
# This function calculates heights of trees
# from the angle of elevation and the distance
# from the base using a trigonometric formula
#
# Arguments:
# degrees   the angle of elevation
# distance  the distance from base
#
# Output:
# the height of the tree, same units as 'distance'

TreeHeight <- function(degrees, distance)
{
  radians <- degrees * pi / 180
  height <- distance * tan(radians)
  print
  return(height)
}

# 1a
Trees <- read.csv("../Data/trees.csv")

angle <- Trees [,3]
distance <- Trees [,2]

result <- TreeHeight(angle,distance)

result
# 1b
write.csv(Trees, "../Results/TreeHts.csv", row.names = FALSE)
write.table(result, file = "../Results/TreeHts.csv", append = TRUE)
**********************************************************************

Testing TreeHeight.R...

Output (only first 500 characters): 

**********************************************************************
  [1] 27.80212 45.24603 14.66548 14.93418 35.97036 32.41021 17.45824 30.13738
  [9] 20.31248 24.43166 27.50213 25.15590 29.39248 28.18639 30.73989 39.73756
 [17] 24.69074 17.75982 20.81735 35.04535 31.85708 31.93860 13.48215 33.32665
 [25] 30.23270 35.95132 21.94397 40.90508 20.74785 34.99243 25.92783 28.39448
 [33] 33.66718 20.86970 22.86062 28.73253 17.74079 28.69790 34.99812 23.59989
 [41] 14.88996 16.44709 27.83739 16.55807 19.09028 31.43839 14.64553 18.13003
 [49] 22.20170 15.83057 26.82779 
**********************************************************************

Encountered error:
Warning message:
In write.table(result, file = "../Results/TreeHts.csv", append = TRUE) :
  appending column names to file

======================================================================
Inspecting script file StudentRepos/RachelBalasuriya_RB815/Week5/Code/TAutoCorr.R...

File contents are:
**********************************************************************
# Temps - mean temps for year each year
# make a copy of temps, shift one down to compare one year to the previous year
setwd("~/Documents/CMEECourseWork2015/Week5/Code/")
# Is the temperature one year significantly correlated with the next year? 
library(lattice)
library(plyr)

rm(list=ls())
# name new environment tmpenv
tmpenv <- new.env()

# load .rdata file 
MYDATA <- local(get(load("../Data/KeyWestAnnualMeanTemperature.RData"))) # data assigned to MYDATA for comparing previous year temps

DATA2 <- local(get(load("../Data/KeyWestAnnualMeanTemperature.RData"))) # data assigned to DATA2 for comparing random years


# plot data
plot(MYDATA)
hist(MYDATA$Temp)


## append rows 2 to 101 in column 3 with data copied from column 2 (Temp) #ie. create new col. with Temps shifted down one
MYDATA[2:101,3] <- MYDATA[,2] 

## 'Year' is the year 'Temp' was measured. 'Temp2' is the previous years temperature. 
colnames(MYDATA) <- c("Year","Temp","Temp2")


## now we can test whether temperatures are dependent on the previous years temperature
A <- MYDATA$Temp
B <- MYDATA$Temp2

## Paired t test between A and B
print(t.test(A, B, paired = TRUE))

## Store correlation coefficient
corVal <- cor(MYDATA[2:100,]$Temp,MYDATA[2:100,]$Temp2)


# Are mean temperatures independent of the previous years temperature?

## Mix up the Temperature data using'sample'. 
##  replace = FALSE so that the data is simply rearranged and there are no duplicates which would give an inaccurate result
S <- sample(DATA2$Temp, replace = FALSE) 

## what we want to happen 10,000 times
DATA2[1:100,3] <- S

## name columns
colnames(DATA2) <- c("Year","Temp","Temp2")


## now we need to do S <- sample(DATA2$Temp, replace = TRUE) + DATA2[1:100,3] <- S (10000 times) + save each cor-co.

FunkyFun <- replicate(10000, {
 # data.frame
  
  S <- sample(DATA2$Temp, replace = FALSE)
  DATA2[1:100,3] <- S
  cor(DATA2$Temp,DATA2$Temp2)
  #print(results)
})

results=list() 
results[[length(results)+1]] <- FunkyFun # Creates 10,000 correlations and stores them in 'results'

# add corVal to results so that it recycles corVal?
# square results and coVal then minus corVal from results, then calculate the number of numbers above 0? Seems long winded
# if results > corVal = 1, else 0
R <- data.frame(corVal, results)
colnames(R) <- c("PreviousYearCor", "RandomYearCor")

# Plot correlations
pdf("../Sandbox/TAutoCorrDensity.pdf")
plot(density(R$RandomYearCor), xlab = "Correlation coefficient", main = NA)
abline(v = R[1,1])
dev.off()

T <- sum(R$RandomYearCor > corVal)

TTest <- t.test(R$PreviousYearCor, R$RandomYearCor, paired = TRUE)
print(TTest)

Fraction <- T/length(R$PreviousYearCor)
print(Fraction)
#### Results: Paragraph in LaTex with graph - explain the code and what that means for eg. climate change**********************************************************************

Testing TAutoCorr.R...

Output (only first 500 characters): 

**********************************************************************

**********************************************************************

Encountered error:
Error in setwd("~/Documents/CMEECourseWork2015/Week5/Code/") : 
  cannot change working directory
Execution halted

======================================================================
======================================================================
Finished running scripts

Ran into 8 errors

======================================================================
======================================================================

FINISHED WEEKLY ASSESSMENT

Current Marks for the Week = 98.5

NOTE THAT THESE ARE NOT THE FINAL MARKS FOR THE WEEK, BUT UPPER BOUND ON THE MARKS!