Starting weekly assessment for Rachel, Week6

Current Marks = 100

Note that: 
(1) Major sections begin with a double "====" line 
(2) Subsections begin with a single "====" line 
(3) Code output or text file content are printed within single "*****" lines 

======================================================================
======================================================================
PART 1: Checking project workflow...

Found the following directories in parent directory: .git, Week2, Week9, Week4, Assessment, CMEELongPrac, Week1, Week5, Week8, Week6

Found the following files in parent directory: texput.log, README.txt, .gitignore, __init__.py, contributors.txt

Checking for key files in parent directory...

Found .gitignore in parent directory, great! 

Printing contents of .gitignore:
**********************************************************************
*~ 
*.tmp
*.pyc
**********************************************************************

Found README in parent directory, named: README.txt

Printing contents of README.txt:
**********************************************************************
My CMEECourseWork Repository
Contains codes, data and practicals from each week

Author: Rachel Balasuriya
Contact: rachel.balasuriya15@imperial.ac.uk
**********************************************************************

======================================================================
Looking for the weekly directories...

Found 7 weekly directories: Week1, Week2, Week4, Week5, Week6, Week8, Week9

The Week6 directory will be assessed 

======================================================================
======================================================================
PART 2: Checking weekly code and workflow...

======================================================================
Assessing WEEK6...

Found the following directories: Code, Data, Results

Found the following files: README.txt, README.txt~

Checking for readme file in weekly directory...

Found README in parent directory, named: README.txt

Printing contents of README.txt:
**********************************************************************
CMEE (Computational Methods in Ecology and Evolution) Week 6 README file

***Directory Contents***

README.txt -----------------------This file, which provides an overview of Week 6's directory 

/Code ----------------------------Contains shell scripts created and/or used this week. 
	control_flow.py
	debugme.py
	fmr.R
	lmfitex1.py
	LV1.py
	LV2.py
	profileme.py
	run_fmr_R.py
	run_LV.py
	SQLinR.R
	test_control_flow.py
	test_oaks.py
	TestR.py
	texput.log
	ThermalResponse_skeleton.py
	TimingCode.py
	

/Data-----------------------------Contains all data used this week.
	Biotraits.db
	ClimateData.csv
	Consumer.csv
	JustOaksData.csv
	NagyetAl1999.csv
	Resource.csv
	TCP.csv
	test.db
	TestOaksData.csv
	TraitInfo.csv
	
		
/Results--------------------------Outputs from python code
	errorFile.Rout
	fmr_plot.pdf
	outputFile.Rout
	prey_and_predators_1.pdf
	TAutoCorrInterpretation.tex
	TestR.Rout
	TestR_errFile.Rout


***Contact Details***
Author: Rachel Balasuriya
e-mail: rachel.balasuriya15@imperial.ac.uk
**********************************************************************

Found 17 code files: run_fmr_R.py, using_os.py, fmr.R, run_LV.py, TimingCode.py, SQLinR.R, lmfitex1.py, LV2.py, profileme.py, ThermalResponse_skeleton.py, debugme.py, test_oaks.py, LV1.py, test_control_flow.py, TestR.R, TestR.py, control_flow.py

Found the following extra files: texput.log, .Rhistory, prey_and_predators_1.pdf
What are they doing here?! 

0.5 pt deducted per extra file

Current Marks = 98.5

======================================================================
Testing script/code files...

======================================================================
Inspecting script file StudentRepos/RachelBalasuriya_RB815/Week6/Code/run_fmr_R.py...

File contents are:
**********************************************************************
# Using os problem 2
# Needs to run fmr. R with Nagy... data
# print "Output was successful!" if it is P.communicate
# print output

import subprocess

FMR = subprocess.Popen("/usr/lib/R/bin/Rscript --verbose fmr.R", shell=True) .wait()

#subprocess.Popen.communicate("/usr/lib/R/bin/Rscript")
#print subprocess.Popen.communicate("n\n")[0],

# Check shell=True (strongly discouraged in certain situations, but Popen doesn't work without it here)

# if Finished in R! print "Output successful!"
# elseif not Finished in R! print "Output unsuccessful"
# Print output
#self._communicate(input)

FMR = subprocess.check_output(
	'echo to stdout; echo to stderr 1>&2; exit 1',
	shell=True,
	stderr=subprocess.STDOUT,
	)
print FMR
z = FMR

if z == 0:
	print 'Output was successful!'
else:
	print 'Output was unsuccessful. Check for errors and try again!'


# egs
subprocess.check_output(["echo", "Hello World!"])
#'Hello World!\n'

subprocess.check_output("exit 1", shell=True)
#Traceback (most recent call last):
#   ...

# subprocess.CalledProcessError: Command 'exit 1' returned non-zero exit status 


subprocess.check_output(
	"ls non_existent_file; exit 0",
	stderr=subprocess.STDOUT,
	shell=True)
**********************************************************************

Testing run_fmr_R.py...

run_fmr_R.py is a Python script file;
 checking for docstrings...

Found no doctrings!
1 pt deducted

Current Marks = 97.5

Output (only first 500 characters): 

**********************************************************************
Reading CSV
Creating graph
null device 
          1 
Finished in R!

**********************************************************************

Encountered error:
running
  '/usr/lib/R/bin/R --slave --no-restore --file=fmr.R'

Traceback (most recent call last):
  File "run_fmr_R.py", line 23, in <module>
    stderr=subprocess.STDOUT,
  File "/usr/lib/python2.7/subprocess.py", line 573, in check_output
    raise CalledProcessError(retcode, cmd, output=output)
subprocess.CalledProcessError: Command 'echo to stdout; echo to stderr 1>&2; exit 1' returned non-zero exit status 1

======================================================================
Inspecting script file StudentRepos/RachelBalasuriya_RB815/Week6/Code/using_os.py...

File contents are:
**********************************************************************
""" This is blah blah"""

# Use the subprocess.os module to get a list of files and  
# Hint: look in subprocess.os and/or subprocess.os.path and/or 
# subprocess.os.walk for helpful functions

import subprocess


#################################
#~Get a list of files and 
#~directories in your home/ that start with an uppercase 'C'

# Type your code here:

# Get the user's home directory.
home = subprocess.os.path.expanduser("~")

# Create a list to store the results.

DirecStartingWithC = []
FilesStartingWithC = []

for (dir, subdir, files) in subprocess.os.walk(home):
	FilesStartingWithC.append(files)
	DirecStartingWithC.append(subdir)

DirecStartingWithC = filter(None, DirecStartingWithC)
FilesStartingWithC = filter(None, FilesStartingWithC)

Cfiles = [item for i in FilesStartingWithC for item in i if (item[0] == 'C')]

Cdir = [item for i in DirecStartingWithC for item in i if (item[0] == 'C')]

print DirecStartingWithC
print FilesStartingWithC

#################################
# Get files and directories in your home/ that start with either an 
# upper or lower case 'C'

# Type your code here:


CcFiles = [item for i in FilesStartingWithC for item in i if (item[0] == 'C' or item[0] == 'c')]

CcDirs = [item for i in DirecStartingWithC for item in i if (item[0] == 'C' or item[0] == 'c')]

print CcFiles
print CcDirs
#################################
# Get only directories in your home/ that start with either an upper or 
#~lower case 'C' 

# Type your code here:
CcHome = [item for i in DirecStartingWithC for item in i if (item[0] == 'C' or item[0] == 'c')]

print CcHome
**********************************************************************

Testing using_os.py...

using_os.py is a Python script file;
 checking for docstrings...

Found one or more doctrings!

Output (only first 500 characters): 

**********************************************************************
[['.local', 'Videos', '.ViberPC', '.dropbox-dist', '.ssh', 'Downloads', '.gvfs', '.pki', '.gstreamer-0.10', '.Skype', '.cache', '.dropbox', 'Desktop', '.gnome2', '.texmf-var', '.mozilla', '.config', 'Public', 'Pictures', 'Documents', 'Music', '.gnome', '.gnupg', '.unison', '.thunderbird', '.gconf', 'Templates', '.VirtualBox', '.dbus'], ['share'], ['gnome-shell', 'folks', 'sounds', 'webkit', 'data', 'nautilus', 'telepathy', 'gvfs-metadata', 'keyrings', 'gnome-settings-daemon', 'Trash', 'icc', 'app
**********************************************************************

Code ran without errors

Time consumed = 1.59187s

======================================================================
Inspecting script file StudentRepos/RachelBalasuriya_RB815/Week6/Code/fmr.R...

File contents are:
**********************************************************************
# Plots log(field metabolic rate) against log(body mass) for the Nagy et al 
# 1999 dataset to a file fmr.pdf.
# Writes the sorted list of species names to species.csv

cat("Reading CSV\n")

#~setwd("~/Documents/Week6/Code") #set working directory
nagy <- read.csv('../Data/NagyEtAl1999.csv', stringsAsFactors = FALSE)

cat("Creating graph\n")
pdf('../Results/fmr_plot.pdf', 11, 8.5)
col <- c(Aves='purple3', Mammalia='red3', Reptilia='green3')
plot(log10(nagy$M.g), log10(nagy$FMR.kJ.day.1), pch=19, col=col[nagy$Class], 
     xlab=~log[10](M), ylab=~log[10](FMR))
for(class in unique(nagy$Class)){
    model <- lm(log10(FMR.kJ.day.1) ~ log10(M.g), data=nagy[nagy$Class==class,])
    abline(model, col=col[class])
}
dev.off()

cat("Finished in R!\n")
**********************************************************************

Testing fmr.R...

Output (only first 500 characters): 

**********************************************************************
Reading CSV
Creating graph
null device 
          1 
Finished in R!

**********************************************************************

Code ran without errors

Time consumed = 0.15406s

======================================================================
Inspecting script file StudentRepos/RachelBalasuriya_RB815/Week6/Code/run_LV.py...

File contents are:
**********************************************************************
import subprocess
import sys

subprocess.os.system('ipython LV1.py')
subprocess.os.system('ipython LV2.py 1. 0.1 1.5 0.75 1000')

subprocess.os.system('ipython -m cProfile LV1.py pdb')
subprocess.os.system('ipython -m cProfile LV2.py 1. 0.1 1.5 0.75 1000')
**********************************************************************

Testing run_LV.py...

run_LV.py is a Python script file;
 checking for docstrings...

Found no doctrings!
1 pt deducted

Current Marks = 96.5

Output (only first 500 characters): 

**********************************************************************

**********************************************************************

Code ran without errors

Time consumed = 10.00753s

======================================================================
Inspecting script file StudentRepos/RachelBalasuriya_RB815/Week6/Code/TimingCode.py...

File contents are:
**********************************************************************
import time

# import timeit

def a_not_useful_function():
	y = 0
	for i in range(100000):
		y = y + i
	return 0

def a_less_useless_function():
	y = 0
	for i in xrange(100000):
		y = y + i
	return 0

# One approach is to time it like this:
start = time.time()
a_not_useful_function()
print "a_not_useful_function takes %f s to run." % (time.time() - start)

start = time.time()
a_less_useless_function()
print "a_less_useless_function takes %f s to run." % (time.time() - start)

# But you'll notice that if you run it multiple times, the time taken changes a
# bit. So instead, you can also run:
# %timeit a_not_useful_function()
# %timeit a_less_useless_function()
# in iPython.

##############################################################################
# for loops vs. list comprehensions.
##############################################################################

my_list = range(1000)

def my_squares_loop(x):
	out = []
	for i in x:
		out.append(i ** 2)
		return out

def my_squares_lc(x):
	out = [i ** 2 for i in x]
	return out

# %timeit my_squares_loop()
# %timeit my_squares_lc()

##############################################################################
# for loops vs. join method.
##############################################################################

import string
my_letters = list(string.ascii_lowercase)

def my_join_loop(l):
	out = ''
	for letter in l:
		out += letter
	return out

def my_join_method(l):
	out = ''.join(l)
	return out

# %timeit(my_join_loop(my_letters))
# %timeit(my_join_method(my_letters))

##############################################################################
# Oh dear.
##############################################################################

def getting_silly_pi():
	y = 0
	for i in xrange(100000):
		y = y + i
	return 0

def getting_silly_pii():
	y = 0
	for i in xrange(100000):
		y += i
	return 0

# %timeit(getting_silly_pi())
# %timeit(getting_silly_pii())
**********************************************************************

Testing TimingCode.py...

TimingCode.py is a Python script file;
 checking for docstrings...

Found no doctrings!
1 pt deducted

Current Marks = 95.5

Output (only first 500 characters): 

**********************************************************************
a_not_useful_function takes 0.007355 s to run.
a_less_useless_function takes 0.002747 s to run.

**********************************************************************

Code ran without errors

Time consumed = 0.03735s

======================================================================
Inspecting script file StudentRepos/RachelBalasuriya_RB815/Week6/Code/SQLinR.R...

File contents are:
**********************************************************************
#install the sqlite package
install.packages('sqldf')

# To load the packages
library(sqldf)

# The command below opens a connection to the database.
#If the database does not yet exist, one is created in the working directory of R.
db <- dbConnect(SQLite(), dbname='Test.sqlite')

# Now let's enter some data to the table
# Using the db connection to our database, the data are entered using SQL queries
# The next command just create the table
dbSendQuery(conn = db,
            "CREATE TABLE Consumer
       (OriginalID TEXT,
        ConKingdom TEXT,
        ConPhylum TEXT,
        ConSpecies TEXT)")

# Once the table is created, we can enter the data.
#INSERT specifies where the data is entered (here the School table).
#VALUES contains the data

 dbSendQuery(conn = db,
         "INSERT INTO Consumer
         VALUES (1, 'Animalia', 'Arthropoda', 'Chaoborus trivittatus')")
 dbSendQuery(conn = db,
         "INSERT INTO Consumer
         VALUES (2, 'Animalia', 'Arthropoda', 'Chaoborus americanus')")
 dbSendQuery(conn = db,
         "INSERT INTO Consumer
         VALUES (3, 'Animalia', 'Chordata', 'Stizostedion vitreum')")


# Once we have our table, we can query the results using:

dbGetQuery(db, "SELECT * FROM Consumer")
dbGetQuery(db, "SELECT * FROM Consumer WHERE ConPhylum='Chordata'")


# Tables can be also imported from csv files.
# As example, let's use the Biotraits dataset.
# The easiest way is to read the csv files into R as data frames.
# Then the data frames are imported into the database.

Resource <- read.csv("../Data/Resource.csv")  # Read csv files into R

# Import data frames into database
 dbWriteTable(conn = db, name = "Resource", value = Resource, row.names = FALSE)

# Check that the data have been correctly imported into the School table.
 dbListTables(db)                 # The tables in the database
 dbListFields(db,"Resource")       # The columns in a table
 dbReadTable(db, "Resource")    # The data in a table

# Before leaving RSQLite, there is a bit of tidying-up to do.
# The connection to the database is closed, and as precaution
# the three data frames are removed from R’s environment.
 dbDisconnect(db)            # Close connection
 rm(list = c("Resource"))   # Remove data frames


**********************************************************************

Testing SQLinR.R...

Output (only first 500 characters): 

**********************************************************************

**********************************************************************

Encountered error:
Installing package into ‘/usr/local/lib/R/site-library’
(as ‘lib’ is unspecified)
Warning in install.packages("sqldf") :
  'lib = "/usr/local/lib/R/site-library"' is not writable
Error in install.packages("sqldf") : unable to install packages
Execution halted

======================================================================
Inspecting script file StudentRepos/RachelBalasuriya_RB815/Week6/Code/lmfitex1.py...

File contents are:
**********************************************************************
#!/usr/bin/env python
from lmfit import minimize, Parameters, Parameter, report_fit
import scipy as sc
from matplotlib import pylab as pl

data = sc.genfromtxt("../Data/ClimateData.csv",dtype = None, delimiter = ',')
headers = data[0,:] #~extract headers...
data = sc.array(sc.delete(data,0,0)) #~...and delete them from the data array
Years = data[:,0].astype(int) # convert to integers - to save memory
Temperatures = data[:,3].astype(float)
x = sc.arange(len(Years)) #~pseudo timeplots to feed to SinMod

# define objecive function: returns the array to be minimized
def SinMod(params, x, data): # data = years, params = parameters,
	"""model sine wave, subtract data"""
	Shift = params['Shift'].value
	Amp = params['Amp'].value
	Len = params['Len'].value
	Phase = params['Phase'].value
	
	model = Shift + Amp * sc.sin((2 * sc.pi * x / Len) + Phase)## Measuring Shift, Amplitude, Phase, Length = parameters = 4D. Phase is where the shift is. Amp is length of something
	
	return model - data ## how different the model is from the data
	
#create a set of Parameters  ##- the more parameters, the more accurate, but we don't always know the parameters
params = Parameters()
params.add('Amp', value= 5, min=0) ## we know that we can't have negative amplitude
params.add('Shift', value= 10.0, min=5, max=15) #you can add bounds
params.add('Len', value= 12.0) # Sensitive to this parameter! ## 12 because there are cycles of 12 months in the year
params.add('Phase', value= 1.0)

# do fit (you can try different algorithms, such as lestsq, nelder, etc) ## This is a good place to use 'try:'

result = minimize(SinMod, params, args=(x, Temperatures),method="leastsq") 

# calculate final result
final = Temperatures + result.residual ## calculate result for plotting

# write error report
report_fit(result.params)

# Plot results
try: # misuse of try! ##try to do something. If it doesn't work then move on, but don't throw me out of the loop
	pl.close('all')
	pl.ion() ## interactive plot so you can close the terminal and just see the plot
	fig = pl.plot(x, Temperatures, '+k--')
	pl.plot(x, final, 'r')
	pl.title('lmfit to Climatic fluctuations')
	pl.xlabel('Time')
	pl.ylabel('Temperature ($^\circ$C)')
except:
	pass
**********************************************************************

Testing lmfitex1.py...

lmfitex1.py is a Python script file;
 checking for docstrings...

Found one or more doctrings!

Output (only first 500 characters): 

**********************************************************************

**********************************************************************

Encountered error:
Traceback (most recent call last):
  File "lmfitex1.py", line 2, in <module>
    from lmfit import minimize, Parameters, Parameter, report_fit
ImportError: No module named lmfit

======================================================================
Inspecting script file StudentRepos/RachelBalasuriya_RB815/Week6/Code/LV2.py...

File contents are:
**********************************************************************
""" The typical Lotka-Volterra Model simulated using scipy """
from sys import argv

import scipy as sc 
import scipy.integrate as integrate

import pylab as p #Contains matplotlib for plotting

# import matplotlip.pylab as p #Some people might need to do this

#~ def dR_dt(pops, t=0):
    #~ """ Returns the growth rate of predator and prey populations at any 
    #~ given time step """
    #~ 
    #~ R = pops[0]
    #~ C = pops[1]
    #~ dRdt = r*R - a*R*C 
    #~ dydt = -z*C + e*a*R*C
    #~ 
    #~ return sc.array([dRdt, dydt])

# Add prey density dependence 'rR(1-R/K)

def dR_dt(pops, t=0):
    """ Returns the growth rate of predator and prey populations at any 
    given time step """
 
    R = pops[0]
    C = pops[1]
    dRdt = r*R*(1-(R/K)) - a*R*C 
    dydt = -z*C + e*a*R*C
    
    return sc.array([dRdt, dydt])



# Define parameters:
r = float(argv[1]) # Resource growth rate
a = float(argv[2]) # Consumer search rate (determines consumption rate)
z = float(argv[3]) # Consumer mortality rate
e = float(argv[4]) # Consumer production efficiency
K = float(argv[5]) # Carrying capacity

# Now define time -- integrate from 0 to 15, using 1000 points:
t = sc.linspace(0, 15,  1000)
x0 = 10 # number of starting prey
y0 = 5  # number of starting predators
z0 = sc.array([x0, y0]) # initial conditions: 10 prey and 5 predators per unit area

pops, infodict = integrate.odeint(dR_dt, z0, t, full_output=True)

infodict['message']     # >>> 'Integration successful.'

#~ print "r =", float(argv[1]), ",", "a =", float(argv[2]), ",", "z =", float(argv[3]), ",", "e =", float(argv[4]), ",", "K =", float(argv[5])

ARGSTEXT = 'r =', float(argv[1]), "a =", float(argv[2]), "z =", float(argv[3]), "e =", float(argv[4]), "K =", float(argv[5])

prey, predators = pops.T # Transpose array 
f1 = p.figure() #Open empty figure object
p.plot(t, prey, 'g-', label='Resource density') # Plot
p.plot(t, predators  , 'b-', label='Consumer density')
p.grid()
p.legend(loc='best')
p.xlabel('Time')
p.ylabel('Population')
p.title('Consumer-prey population dynamics')
p.suptitle(ARGSTEXT)
p.show()
f1.savefig('../Results/prey_and_predators_1.pdf') #Save figure
**********************************************************************

Testing LV2.py...

LV2.py is a Python script file;
 checking for docstrings...

Found one or more doctrings!

Output (only first 500 characters): 

**********************************************************************

**********************************************************************

Encountered error:
Traceback (most recent call last):
  File "LV2.py", line 38, in <module>
    r = float(argv[1]) # Resource growth rate
IndexError: list index out of range

======================================================================
Inspecting script file StudentRepos/RachelBalasuriya_RB815/Week6/Code/profileme.py...

File contents are:
**********************************************************************
def a_useless_function(x):
	y = 0
	# eight zeros!
	for i in range(100000000):
		y = y + i
	return 0

def a_less_useless_function(x):
	y = 0
	# five zeros!
	for i in range(100000):
		y = y + i
	return 0

def some_function(x):
	print x
	a_useless_function(x)
	a_less_useless_function(x)
	return 0

some_function(1000)



# do it faster

def a_useless_function(x):
	y = 0
	# eight zeros!
	for i in xrange(100000000):
		y = y + i
	return 0

def a_less_useless_function(x):
	y = 0
	# five zeros!
	for i in xrange(100000):
		y = y + i
	return 0
	
def some_function(x):
	print x
	a_useless_function(x)
	a_less_useless_function(x)
	return 0

some_function(1000)

**********************************************************************

Testing profileme.py...

profileme.py is a Python script file;
 checking for docstrings...

Found no doctrings!
1 pt deducted

Current Marks = 94.5

Output (only first 500 characters): 

**********************************************************************
1000
1000

**********************************************************************

Code ran without errors

Time consumed = 7.19000s

======================================================================
Inspecting script file StudentRepos/RachelBalasuriya_RB815/Week6/Code/ThermalResponse_skeleton.py...

File contents are:
**********************************************************************
#!/usr/bin/env python
""" This code performs non-linear least squares fitting of different
unimodal functions to experimental thermal response curves."""
__author__ = 'Your Name (your.email.id@imperial.ac.uk)'
__version__ = '0.0.1'

# Scroll down to the section called "MAIN CODE" first.

from math import log, exp, pi
import scipy as sc 
from lmfit import Minimizer, minimize, Parameters, Parameter, report_fit, fit_report

#############################
# F  U  N  C  T  I  O  N  S #
#############################

def schoolf_eq(Temps, B0, E, E_l, T_l,E_h, T_h):
	"""Full schoolfield model for calculating trait values at a given temperature"""
	function = B0 * ??
	
	return ??

def schoolf(params, Temps, Data):
	"""Schoolfield model, to be called by schoolfield_model()"""
	B0 = params??
	E = params??
	.
	.
	.
	
	ModelPred = schoolf_eq(Temps, B0, E, E_l, T_l, E_h, T_h)
	return(ModelPred - TraitVals)

def schoolfield_model(datatest):
	"""NLLS fitting to the Schoolfield model; this function will 
	contain the lmfit.minimize calls to the schoolf() function. This is 
	where you can constrain the parameters."""

#	 Prepare the parameters and their bounds:
 
 	T_l_start = ??
	B0_start = ??
 
	#	 The datase containing temperatures and trait values.
	TraitVals = ??
	Temps = ??

#	 Define parameters
	params = Parameters()
	params.add('B0', value = B0_start, vary = True, min = -10, max = 1000)
	params.add('E', value=E_start, vary= True, min=0.0000000000000001, max=10)
	params.add('E_l', value=E_D_start, vary = True, min=0.0000000000000001, max=10)
	.
	.
	.
	
#	 Minimising the Model
	out = minimize(schoolf, params, args=(Temps, TraitVals),method="leastsq")
	par_out_school = out.params
#	 Calculates the r squared value to determine how well the model fits the data.
	r_squared_school = 1-out.residual.var()/sc.var(TraitVals)
	nvarys_school= out.nvarys
	ndata_school = out.ndata
	return(par_out_school, r_squared_school, nvarys_school, ndata_school,out.chisqr)
	

def AICrss(n, k, rss):
	"""Calculate the Akaike Information Criterion value, using:

	- n:   number of observations
	- k:   number of parameters
	- rss: residual sum of squares
	"""
	return n * log((2 * pi) / n) + n + 2 + n * log(rss) + 2 * k

def BICrss(n, k, rss):
	"""Calculate the Bayesian Information Criterion value, using:
	
	- n:   number of observations
	- k:   number of parameters
	- rss: residual sum of squares
	"""
	return n + n * log(2 * pi) + n * log(rss / n) + (log(n)) * (k + 1)

#~ ############################
#~ # M  A  I  N    C  O  D  E #
#~ ############################

def main(argv):
	"""Performs fitting to the Gaussian-Gompertz, Schoolfield and Cubic model,
	and returns the best fits as a csv file to ./Results/results.csv"""
	#Produce an error is there is no dataset provided.
	data = sc.genfromtxt(argv,dtype = None,delimiter = ',',deletechars='"')
	#input file "./Data/ThermResp_startvals.csv"
	# Define the Boltzmann constant (units of eV * K^-1).
	global K
	k = 8.617 * 10 ** (-5)

	#Open the csv file to write the output to.
	??
	results = open("./Results/results.csv", 'w')
	results_csv = csv.writer(results, delimiter=",")

	# Here you will run the lmfitting over all unique data series. you 
	# will have to use try and except as the fitting won't always work with each model.

if __name__ == "__main__":
	#The input file name will be the minimum input, but you can add more inputs if you want 
	main(sys.argv[1])		
**********************************************************************

Testing ThermalResponse_skeleton.py...

ThermalResponse_skeleton.py is a Python script file;
 checking for docstrings...

Found one or more doctrings!

Output (only first 500 characters): 

**********************************************************************

**********************************************************************

Encountered error:
  File "ThermalResponse_skeleton.py", line 19
    function = B0 * ??
                    ^
SyntaxError: invalid syntax

======================================================================
Inspecting script file StudentRepos/RachelBalasuriya_RB815/Week6/Code/debugme.py...

File contents are:
**********************************************************************

def createabug(x):
	y = x**4
	z = 0.
	y = y/z
	return y
createabug(25)
**********************************************************************

Testing debugme.py...

debugme.py is a Python script file;
 checking for docstrings...

Found no doctrings!
1 pt deducted

Current Marks = 93.5

Output (only first 500 characters): 

**********************************************************************

**********************************************************************

Encountered error:
Traceback (most recent call last):
  File "debugme.py", line 7, in <module>
    createabug(25)
  File "debugme.py", line 5, in createabug
    y = y/z
ZeroDivisionError: float division by zero

======================================================================
Inspecting script file StudentRepos/RachelBalasuriya_RB815/Week6/Code/test_oaks.py...

File contents are:
**********************************************************************
import csv
import sys
import pdb
import doctest

#Define function
def is_an_oak(name):
	""" 
	
	Returns True if name starts with 'quercus '
	>>> is_an_oak('quercus')
	True
	
	>>> is_an_oak('Fagus sylvatica')
	False
	
	>>> is_an_oak('Fraxinus')
	False
	
	>>> is_an_oak('quercuss')
	True
	
	"""
	return name.lower().startswith('quercus')	
	
print(is_an_oak.__doc__)

def main(argv): 
	""" Write oak species to a csv file"""
	f = open('../Data/TestOaksData.csv','rb') # 'r'ead 'b'inary
	g = open('../Data/JustOaksData.csv','wb') # 'w'rite 'b'inary
	taxa = csv.reader(f)
	csvwrite = csv.writer(g)
	oaks = set()
	for row in taxa:
		print row
		print "The genus is", row[0]
		if is_an_oak(row[0]):
			print row[0]
			print 'FOUND AN OAK!'
			print " "
			csvwrite.writerow([row[0], row[1]])    
	
	return 0
	
	ipdb.set_trace()
	
if (__name__ == "__main__"):
	status = main(sys.argv)

doctest.testmod()
**********************************************************************

Testing test_oaks.py...

test_oaks.py is a Python script file;
 checking for docstrings...

Found one or more doctrings!

Output (only first 500 characters): 

**********************************************************************
 
	
	Returns True if name starts with 'quercus '
	>>> is_an_oak('quercus')
	True
	
	>>> is_an_oak('Fagus sylvatica')
	False
	
	>>> is_an_oak('Fraxinus')
	False
	
	>>> is_an_oak('quercuss')
	True
	
	
['Genus', ' species']
The genus is Genus
['Quercus', ' robur']
The genus is Quercus
Quercus
FOUND AN OAK!
 
['Fraxinus', ' excelsior']
The genus is Fraxinus
['Pinus', ' sylvestris']
The genus is Pinus
['Quercus', ' cerris']
The genus is Quercus
Quercus
FOUND AN OAK!
 
['Quercus', ' petraea']
The genus
**********************************************************************

Code ran without errors

Time consumed = 0.06939s

======================================================================
Inspecting script file StudentRepos/RachelBalasuriya_RB815/Week6/Code/LV1.py...

File contents are:
**********************************************************************
""" The typical Lotka-Volterra Model simulated using scipy """

import scipy as sc 
import scipy.integrate as integrate

import pylab as p #Contains matplotlib for plotting

# import matplotlip.pylab as p #Some people might need to do this

def dR_dt(pops, t=0):
    """ Returns the growth rate of predator and prey populations at any 
    given time step """
    
    R = pops[0]
    C = pops[1]
    dRdt = r*R - a*R*C 
    dydt = -z*C + e*a*R*C
    
    return sc.array([dRdt, dydt])

# Define parameters:
r = 1. # Resource growth rate
a = 0.1 # Consumer search rate (determines consumption rate) 
z = 1.5 # Consumer mortality rate
e = 0.75 # Consumer production efficiency

# Now define time -- integrate from 0 to 15, using 1000 points:
t = sc.linspace(0, 15,  1000)

x0 = 10
y0 = 5 
z0 = sc.array([x0, y0]) # initials conditions: 10 prey and 5 predators per unit area

pops, infodict = integrate.odeint(dR_dt, z0, t, full_output=True)

infodict['message']     # >>> 'Integration successful.'

prey, predators = pops.T # What's this for?
f1 = p.figure() #Open empty figure object
p.plot(t, prey, 'g-', label='Resource density') # Plot
p.plot(t, predators  , 'b-', label='Consumer density')
p.grid()
p.legend(loc='best')
p.xlabel('Time')
p.ylabel('Population')
p.title('Consumer-prey population dynamics')
p.show()
f1.savefig('prey_and_predators_1.pdf') #Save figure
**********************************************************************

Testing LV1.py...

LV1.py is a Python script file;
 checking for docstrings...

Found one or more doctrings!

Output (only first 500 characters): 

**********************************************************************

**********************************************************************

Code ran without errors

Time consumed = 10.01179s

======================================================================
Inspecting script file StudentRepos/RachelBalasuriya_RB815/Week6/Code/test_control_flow.py...

File contents are:
**********************************************************************
#!/usr/bin/python

"""Some functions exemplifying the use of control statements"""

__author__ = 'Rachel Balasuriya (rachel.balasuriya15@imperial.ac.uk)'
__version__ = '0.0.1'

# imports
import sys # module to interface our program with the operating system
import doctest # Import the doctest module

def even_or_odd(x=0): # if not specified, x should take value 0.
	"""Find if number is x is even or odd.
	
	>>> even_or_odd(10)
	'10 is Even!'
	
	>>> even_or_odd(5)
	'5 is Odd!'
	whenever a float is provided, then the closest integer is used:
	>>> even_or_odd(3.2)
	'3 is Odd!'
	
	in case of negative numbers, the positive is taken:
	>>> even_or_odd(-2)
	'-2 is Even!'
	
	"""
	#Define function to be tested
	if x % 2 == 0: # the conditional if
		return "%d is Even!" % x
	return "%d is Odd!" % x

## I SUPPRESSED THIS BLOCK: WHY?

#~ def main(argv):
	#~ # sys.exit(don't want to do this right now!")
	#~ print even_or_odd(22)
	#~ print even_or_odd(33)
	#~ print largest_divisor_five(120)
	#~ print largest_divisor_five(121)
	#~ print is_prime(60)
	#~ print is_prime(59)
	#~ print find_all_primes(100)
	#~ return(0)
#~ 
#~ if (__name__ == "__main__"): # make sure the "main" function is called from commandline
		#~ status = main(sys.argv)

doctest.testmod() #To run with embedded tests
**********************************************************************

Testing test_control_flow.py...

test_control_flow.py is a Python script file;
 checking for docstrings...

Found one or more doctrings!

Output (only first 500 characters): 

**********************************************************************
**********************************************************************
File "test_control_flow.py", line 18, in __main__.even_or_odd
Failed example:
    even_or_odd(5)
Expected:
    '5 is Odd!'
    whenever a float is provided, then the closest integer is used:
Got:
    '5 is Odd!'
**********************************************************************
1 items had failures:
   1 of   4 in __main__.even_or_odd
***Test Failed*** 1 failures.

**********************************************************************

Code ran without errors

Time consumed = 0.09902s

======================================================================
Inspecting script file StudentRepos/RachelBalasuriya_RB815/Week6/Code/TestR.R...

File contents are:
**********************************************************************
print("Hello, this is R!")

**********************************************************************

Testing TestR.R...

Output (only first 500 characters): 

**********************************************************************
[1] "Hello, this is R!"

**********************************************************************

Code ran without errors

Time consumed = 0.10014s

======================================================================
Inspecting script file StudentRepos/RachelBalasuriya_RB815/Week6/Code/TestR.py...

File contents are:
**********************************************************************
import subprocess

subprocess.Popen("/usr/lib/R/bin/Rscript --verbose TestR.R > \
../Results/TestR.Rout 2> ../Results/TestR_errFile.Rout",\
shell=True) .wait()
**********************************************************************

Testing TestR.py...

TestR.py is a Python script file;
 checking for docstrings...

Found no doctrings!
1 pt deducted

Current Marks = 92.5

Output (only first 500 characters): 

**********************************************************************

**********************************************************************

Code ran without errors

Time consumed = 0.11224s

======================================================================
Inspecting script file StudentRepos/RachelBalasuriya_RB815/Week6/Code/control_flow.py...

File contents are:
**********************************************************************
#!/usr/bin/python

"""Some functions exemplifying the use of control statements"""
#docstrings are considered part of the running code (normal comments are 
#stripped). Hence, you can access your docstrings at runtime.

__author__ = 'Rachel Balasuriya (rachel.balasuriya15@imperial.ac.uk)'
__version__ = '0.0.1'

# imports
import sys # module to interface our program with the operating system

def even_or_odd(x=0): # if not specified, x should take value 0.
	
	"""Find if number x is even or odd."""
	if x % 2 == 0: # the conditional if
		return "%d is Even!" % x
	return "%d is Odd!" % x

def largest_divisor_five(x=120):
	"""Find which is the largest divisor of x among 2,3,4,5."""
	largest = 0
	if x % 5 == 0:
		largest = 5
	elif x % 4 == 0: #means "else, if"
		largest = 4
	elif x % 3 == 0:
		largest = 3
	elif x % 2 == 0:
		largest = 2
	else: # When all other (if, elif) conditions are not met
		return "No divisor found for %d" % x # Each function can return a value or a variable
	return "The largest divisor of %d is %d" % (x, largest)

def is_prime(x=70):
	"""Find whether an integer is prime."""
	for i in range(2, x): # 'range' returns a sequence of integers
		if x % i == 0:
			print "%d is not a prime: %d is a divisor" % (x, i) #Print formatted text "%d %s %f %e" % (20,"30",0.0003,0.00003)
			return False
		print "%d is a prime!" % x
		return True

def find_all_primes (x=22):
	"""Find all primes up to x"""
	allprimes = []
	for i in range(2, x + 1):
		if is_prime(i):
			allprimes.append(i)
	print "There are %d primes between 2 and %d" % (len(allprimes), x)
	return allprimes

def main(argv):
	# sys.exit(don't want to do this right now!")
	print even_or_odd(22)
	print even_or_odd(33)
	print largest_divisor_five(120)
	print largest_divisor_five(121)
	print is_prime(60)
	print is_prime(59)
	print find_all_primes(100)
	return(0)

if (__name__ == "__main__"): # make sure the "main" function is called from commandline
		status = main(sys.argv)
		sys.exit(status)
**********************************************************************

Testing control_flow.py...

control_flow.py is a Python script file;
 checking for docstrings...

Found one or more doctrings!

Output (only first 500 characters): 

**********************************************************************
22 is Even!
33 is Odd!
The largest divisor of 120 is 5
No divisor found for 121
60 is not a prime: 2 is a divisor
False
59 is a prime!
True
3 is a prime!
4 is not a prime: 2 is a divisor
5 is a prime!
6 is not a prime: 2 is a divisor
7 is a prime!
8 is not a prime: 2 is a divisor
9 is a prime!
10 is not a prime: 2 is a divisor
11 is a prime!
12 is not a prime: 2 is a divisor
13 is a prime!
14 is not a prime: 2 is a divisor
15 is a prime!
16 is not a prime: 2 is a divisor
17 is a prime!
18 is not 
**********************************************************************

Code ran without errors

Time consumed = 0.00969s

======================================================================
======================================================================
Finished running scripts

Ran into 6 errors

======================================================================
======================================================================

FINISHED WEEKLY ASSESSMENT

Current Marks for the Week = 92.5

NOTE THAT THESE ARE NOT THE FINAL MARKS FOR THE WEEK, BUT UPPER BOUND ON THE MARKS!